[gd_resource type="StandardMaterial3D" load_steps=2 format=3 uid="uid://bsevxfpovxnut"]

[ext_resource type="Texture2D" uid="uid://cu4dcca3sf0c4" path="res://game/assets/textures/23_male_short_tunic.bin_tex2.tga" id="1_0tbr6"]

[resource]
albedo_texture = ExtResource("1_0tbr6")
texture_filter = 0
