[gd_resource type="StandardMaterial3D" load_steps=2 format=3 uid="uid://m3vb61bkdkuy"]

[ext_resource type="Texture2D" uid="uid://d4aostw1bjyry" path="res://game/assets/textures/69_zombie.bin_tex2.tga" id="1_fukae"]

[resource]
albedo_color = Color(1, 0, 0, 1)
albedo_texture = ExtResource("1_fukae")
texture_filter = 0
