[gd_resource type="StandardMaterial3D" load_steps=2 format=3 uid="uid://1ybnhgf4pyof"]

[ext_resource type="Texture2D" uid="uid://bt003co3ibrc" path="res://game/assets/textures/68_wolf.bin_tex2.tga" id="1_7adwu"]

[resource]
albedo_color = Color(1, 0, 0, 1)
albedo_texture = ExtResource("1_7adwu")
texture_filter = 0
