[gd_resource type="StandardMaterial3D" load_steps=2 format=3 uid="uid://ccev4ohxhgd2a"]

[ext_resource type="Texture2D" uid="uid://cyygv12fxpd34" path="res://game/assets/textures/22_male_long_tunic.bin_tex7.tga" id="1_6flt1"]

[resource]
albedo_texture = ExtResource("1_6flt1")
texture_filter = 0
