[gd_resource type="StandardMaterial3D" load_steps=2 format=3 uid="uid://cyd16h4v12ki1"]

[ext_resource type="Texture2D" uid="uid://bgxc12wqpnf3f" path="res://game/assets/textures/20_female_long_tunic.bin_tex2.tga" id="1_dxaf6"]

[resource]
albedo_texture = ExtResource("1_dxaf6")
texture_filter = 0
