[gd_resource type="StandardMaterial3D" load_steps=2 format=3 uid="uid://s0yxyib7ret4"]

[ext_resource type="Texture2D" uid="uid://bgxc12wqpnf3f" path="res://game/assets/textures/20_female_long_tunic.bin_tex2.tga" id="1_3t0th"]

[resource]
albedo_color = Color(1, 0, 0, 1)
albedo_texture = ExtResource("1_3t0th")
texture_filter = 0
