[gd_resource type="StandardMaterial3D" load_steps=2 format=3 uid="uid://cqdpfep3jbhpm"]

[ext_resource type="Texture2D" uid="uid://bb0jivwgdcneh" path="res://game/assets/textures/22_male_long_tunic.bin_tex4.tga" id="1_rlhe3"]

[resource]
albedo_color = Color(1, 0, 0, 1)
albedo_texture = ExtResource("1_rlhe3")
texture_filter = 0
