[gd_resource type="StandardMaterial3D" load_steps=2 format=3 uid="uid://gwo3barle070"]

[ext_resource type="Texture2D" uid="uid://b01o08hpvkf6c" path="res://game/assets/textures/22_male_long_tunic.bin_tex0.tga" id="1_lb5lw"]

[resource]
albedo_texture = ExtResource("1_lb5lw")
texture_filter = 0
