[gd_resource type="StandardMaterial3D" load_steps=2 format=3 uid="uid://dee0chtwsu6lp"]

[ext_resource type="Texture2D" uid="uid://b4ccgxeickmil" path="res://game/assets/textures/63_orc_ice_warrior.bin_tex1.tga" id="1_lp1f6"]

[resource]
albedo_texture = ExtResource("1_lp1f6")
texture_filter = 0
