g Object
v -0.4219 0.0000 0.0000
v -0.2031 0.0000 -0.3281
v -0.3047 0.5039 0.0000
v -0.1523 0.5039 -0.2383
v -0.4219 1.0117 0.0000
v -0.2031 1.0117 -0.3281
v -1.1133 1.0156 0.0469
v -0.5547 0.8203 -0.9688
v 0.5625 0.8203 -0.9688
v 1.1211 1.0156 0.0469
v 0.5625 1.2148 1.0703
v -0.5547 1.2148 1.0703
v -0.7969 1.5156 -0.0391
v -0.3945 1.3828 -0.7305
v 0.4023 1.3828 -0.7305
v 0.8086 1.5156 -0.0391
v 0.4023 1.6484 0.6445
v -0.3945 1.6484 0.6445
v 0.0078 1.8242 -0.1055
v 0.1602 0.5039 -0.2383
v 0.2148 0.0000 -0.3281
v 0.2148 1.0117 -0.3281
v 0.3125 0.5039 0.0000
v 0.4297 0.0000 0.0000
v 0.4297 1.0117 0.0000
v 0.1602 0.5039 0.2266
v 0.2148 0.0000 0.3164
v 0.2148 1.0117 0.3164
v -0.1523 0.5039 0.2266
v -0.2031 0.0000 0.3164
v -0.2031 1.0117 0.3164
vt 0.2656 0.0000
vt 0.0000 0.4844
vt 0.2656 0.4844
vt 0.2656 0.0000
vt 0.0000 0.0000
vt 0.0000 0.4844
vt 0.2656 0.4844
vt 0.0000 0.9844
vt 0.2656 0.9844
vt 0.2656 0.4844
vt 0.0000 0.4844
vt 0.0000 0.9844
vt 0.9844 0.4844
vt 0.7656 0.8125
vt 0.8906 0.5000
vt 0.9844 0.4844
vt 0.8125 0.9688
vt 0.7656 0.8125
vt 0.8125 0.9688
vt 0.5156 0.8125
vt 0.7656 0.8125
vt 0.8125 0.9688
vt 0.4688 0.9688
vt 0.5156 0.8125
vt 0.4688 0.9688
vt 0.4063 0.5000
vt 0.5156 0.8125
vt 0.4688 0.9688
vt 0.2969 0.4844
vt 0.4063 0.5000
vt 0.2969 0.4844
vt 0.5156 0.1719
vt 0.4063 0.5000
vt 0.2969 0.4844
vt 0.4688 0.0156
vt 0.5156 0.1719
vt 0.4688 0.0156
vt 0.7656 0.1719
vt 0.5156 0.1719
vt 0.4688 0.0156
vt 0.8125 0.0156
vt 0.7656 0.1719
vt 0.8125 0.0156
vt 0.8906 0.5000
vt 0.7656 0.1719
vt 0.8125 0.0156
vt 0.9844 0.4844
vt 0.8906 0.5000
vt 0.8906 0.5000
vt 0.7656 0.8125
vt 0.6406 0.5000
vt 0.7656 0.8125
vt 0.5156 0.8125
vt 0.6406 0.5000
vt 0.5156 0.8125
vt 0.4063 0.5000
vt 0.6406 0.5000
vt 0.4063 0.5000
vt 0.5156 0.1719
vt 0.6406 0.5000
vt 0.5156 0.1719
vt 0.7656 0.1719
vt 0.6406 0.5000
vt 0.7656 0.1719
vt 0.8906 0.5000
vt 0.6406 0.5000
vt 0.2656 0.0000
vt 0.0000 0.4844
vt 0.2656 0.4844
vt 0.2656 0.0000
vt 0.0000 0.0000
vt 0.0000 0.4844
vt 0.2656 0.4844
vt 0.0000 0.9844
vt 0.2656 0.9844
vt 0.2656 0.4844
vt 0.0000 0.4844
vt 0.0000 0.9844
vt 0.2656 0.0000
vt 0.0000 0.4844
vt 0.2656 0.4844
vt 0.2656 0.0000
vt 0.0000 0.0000
vt 0.0000 0.4844
vt 0.2656 0.4844
vt 0.0000 0.9844
vt 0.2656 0.9844
vt 0.2656 0.4844
vt 0.0000 0.4844
vt 0.0000 0.9844
vt 0.2656 0.0000
vt 0.0000 0.4844
vt 0.2656 0.4844
vt 0.2656 0.0000
vt 0.0000 0.0000
vt 0.0000 0.4844
vt 0.2656 0.4844
vt 0.0000 0.9844
vt 0.2656 0.9844
vt 0.2656 0.4844
vt 0.0000 0.4844
vt 0.0000 0.9844
vt 0.2656 0.0000
vt 0.0000 0.4844
vt 0.2656 0.4844
vt 0.2656 0.0000
vt 0.0000 0.0000
vt 0.0000 0.4844
vt 0.2656 0.4844
vt 0.0000 0.9844
vt 0.2656 0.9844
vt 0.2656 0.4844
vt 0.0000 0.4844
vt 0.0000 0.9844
vt 0.2656 0.0000
vt 0.0000 0.4844
vt 0.2656 0.4844
vt 0.2656 0.0000
vt 0.0000 0.0000
vt 0.0000 0.4844
vt 0.2656 0.4844
vt 0.0000 0.9844
vt 0.2656 0.9844
vt 0.2656 0.4844
vt 0.0000 0.4844
vt 0.0000 0.9844
f 1/1 3/3 4/2
f 1/4 4/6 2/5
f 3/7 5/9 6/8
f 3/10 6/12 4/11
f 7/13 13/15 14/14
f 7/16 14/18 8/17
f 8/19 14/21 15/20
f 8/22 15/24 9/23
f 9/25 15/27 16/26
f 9/28 16/30 10/29
f 10/31 16/33 17/32
f 10/34 17/36 11/35
f 11/37 17/39 18/38
f 11/40 18/42 12/41
f 12/43 18/45 13/44
f 12/46 13/48 7/47
f 13/49 19/51 14/50
f 14/52 19/54 15/53
f 15/55 19/57 16/56
f 16/58 19/60 17/59
f 17/61 19/63 18/62
f 18/64 19/66 13/65
f 2/67 4/69 20/68
f 2/70 20/72 21/71
f 4/73 6/75 22/74
f 4/76 22/78 20/77
f 21/79 20/81 23/80
f 21/82 23/84 24/83
f 20/85 22/87 25/86
f 20/88 25/90 23/89
f 24/91 23/93 26/92
f 24/94 26/96 27/95
f 23/97 25/99 28/98
f 23/100 28/102 26/101
f 27/103 26/105 29/104
f 27/106 29/108 30/107
f 26/109 28/111 31/110
f 26/112 31/114 29/113
f 30/115 29/117 3/116
f 30/118 3/120 1/119
f 29/121 31/123 5/122
f 29/124 5/126 3/125
