g Object
v 0.1875 2.5313 0.1602
v -0.1641 2.5313 0.1602
v 0.1875 2.5313 -0.1797
v -0.1641 2.5313 -0.1797
v 0.1875 3.2266 0.1602
v -0.1641 3.2266 0.1602
v 0.1875 3.2266 -0.1797
v -0.1641 3.2266 -0.1797
v -0.3047 3.4453 0.3047
v 0.3281 3.4453 0.3047
v -0.3047 3.4453 -0.3242
v 0.3281 3.4453 -0.3242
v -2.9141 0.0000 -0.0195
v -1.4570 0.0000 -2.5430
v -2.9141 1.0781 -0.0195
v -1.4570 1.0781 -2.5430
v 1.4805 1.0781 -2.5430
v 2.9375 1.0781 0.0000
v 1.4805 1.0781 2.5234
v -1.4570 1.0781 2.5234
v 0.0234 0.8164 -0.0195
v -2.5586 1.0781 -0.0195
v -1.2656 1.0781 -2.2383
v 1.2930 1.0781 -2.2383
v 2.5859 1.0781 -0.0195
v 1.2930 1.0781 2.2188
v -1.2656 1.0781 2.2188
v -2.5586 0.8164 -0.0195
v -1.2656 0.8164 -2.2383
v 1.2930 0.8164 -2.2383
v 2.5859 0.8164 -0.0195
v 1.2930 0.8164 2.2188
v -1.2656 0.8164 2.2188
v 0.0234 2.5313 -0.0195
v -0.7734 2.5313 -0.0195
v -0.3750 2.5313 -0.6914
v 0.3984 2.5313 -0.6914
v 0.7969 2.5313 -0.0195
v 0.3984 2.5313 0.6680
v -0.3750 2.5313 0.6680
v -0.7734 0.8164 -0.0195
v -0.3750 0.8164 0.6680
v -1.4570 0.0000 2.5234
v 1.4805 0.0000 2.5234
v 2.9375 0.0000 0.0000
v 1.4805 0.0000 -2.5430
v -0.3750 0.8164 -0.6914
v 0.3984 0.8164 -0.6914
v 0.7969 0.8164 -0.0195
v 0.3984 0.8164 0.6680
vt 0.1563 0.8594
vt 0.1563 0.9844
vt 0.0000 0.9844
vt 0.0000 0.9844
vt 0.0000 0.8594
vt 0.1563 0.8594
vt 0.1563 0.9844
vt 0.1563 0.7969
vt 0.0000 0.7969
vt 0.0000 0.7969
vt 0.0000 0.9844
vt 0.1563 0.9844
vt 0.1563 0.9844
vt 0.1563 0.8594
vt 0.0000 0.8594
vt 0.0000 0.8594
vt 0.0000 0.9844
vt 0.1563 0.9844
vt 0.1563 0.7969
vt 0.1563 0.9844
vt 0.0000 0.9844
vt 0.0000 0.9844
vt 0.0000 0.7969
vt 0.1563 0.7969
vt 0.0000 0.0000
vt 0.0000 0.0000
vt 0.0000 0.0000
vt 0.0000 0.0000
vt 0.0000 0.0000
vt 0.0000 0.0000
vt 0.0000 0.0000
vt 0.0000 0.0000
vt 0.0000 0.0000
vt 0.0000 0.0000
vt 0.0000 0.0000
vt 0.0000 0.0000
vt 0.0000 0.0000
vt 0.0000 0.0000
vt 0.0000 0.0000
vt 0.0000 0.0000
vt 0.0000 0.0000
vt 0.0000 0.0000
vt 0.0000 0.0000
vt 0.0000 0.0000
vt 0.0000 0.0000
vt 0.0000 0.0000
vt 0.0000 0.0000
vt 0.0000 0.0000
vt 0.4844 0.3125
vt 0.6406 0.3125
vt 0.6406 0.4844
vt 0.6406 0.4844
vt 0.4844 0.4844
vt 0.4844 0.3125
vt 0.9844 0.0000
vt 0.0000 0.4844
vt 0.9844 0.4844
vt 0.9844 0.0000
vt 0.0000 0.0000
vt 0.0000 0.4844
vt 0.5938 0.7500
vt 0.8906 0.7500
vt 0.7500 0.9844
vt 0.5938 0.7500
vt 0.7500 0.9844
vt 0.4531 0.9844
vt 0.5938 0.7500
vt 0.4531 0.9844
vt 0.2969 0.7500
vt 0.5938 0.7500
vt 0.2969 0.7500
vt 0.4531 0.5156
vt 0.5938 0.7500
vt 0.4531 0.5156
vt 0.7500 0.5156
vt 0.5938 0.7500
vt 0.7500 0.5156
vt 0.8906 0.7500
vt 1.0000 0.1250
vt 0.0000 0.1250
vt 0.0000 0.0000
vt 0.0000 0.0000
vt 1.0000 0.0000
vt 1.0000 0.1250
vt 0.5000 0.5000
vt 0.0000 0.5000
vt 0.0000 0.3438
vt 0.0000 0.3438
vt 0.5000 0.3438
vt 0.5000 0.5000
vt 0.9844 0.5000
vt 0.0000 0.5000
vt 0.0000 0.3438
vt 0.0000 0.3438
vt 0.9844 0.3438
vt 0.9844 0.5000
vt 0.0000 0.5000
vt 0.4844 0.5000
vt 0.5000 0.3438
vt 0.5000 0.3438
vt 0.0000 0.3438
vt 0.0000 0.5000
vt 0.4844 0.5000
vt 0.9844 0.5000
vt 0.9844 0.3438
vt 0.9844 0.3438
vt 0.4844 0.3438
vt 0.4844 0.5000
vt 0.0000 0.5000
vt 0.9844 0.5000
vt 0.9844 0.3438
vt 0.9844 0.3438
vt 0.0000 0.3438
vt 0.0000 0.5000
vt 0.9844 0.5000
vt 0.5000 0.5000
vt 0.5000 0.3438
vt 0.5000 0.3438
vt 0.9844 0.3438
vt 0.9844 0.5000
vt 0.5625 0.4063
vt 0.6406 0.4063
vt 0.6094 0.4844
vt 0.5625 0.4063
vt 0.6094 0.4844
vt 0.5156 0.4844
vt 0.5625 0.4063
vt 0.5156 0.4844
vt 0.4844 0.4063
vt 0.5625 0.4063
vt 0.4844 0.4063
vt 0.5156 0.3281
vt 0.5625 0.4063
vt 0.5156 0.3281
vt 0.6094 0.3281
vt 0.5625 0.4063
vt 0.6094 0.3281
vt 0.6406 0.4063
vt 0.9688 0.0000
vt 0.6563 0.0000
vt 0.6563 0.4844
vt 0.6563 0.4844
vt 0.9688 0.4844
vt 0.9688 0.0000
vt 0.9844 0.0000
vt 0.0000 0.4844
vt 0.9844 0.4844
vt 0.9844 0.0000
vt 0.0000 0.0000
vt 0.0000 0.4844
vt 0.9844 0.0000
vt 0.0000 0.4844
vt 0.9844 0.4844
vt 0.9844 0.0000
vt 0.0000 0.0000
vt 0.0000 0.4844
vt 0.9844 0.0000
vt 0.0000 0.4844
vt 0.9844 0.4844
vt 0.9844 0.0000
vt 0.0000 0.0000
vt 0.0000 0.4844
vt 0.9844 0.0000
vt 0.0000 0.4844
vt 0.9844 0.4844
vt 0.9844 0.0000
vt 0.0000 0.0000
vt 0.0000 0.4844
vt 0.9844 0.0000
vt 0.0000 0.4844
vt 0.9844 0.4844
vt 0.9844 0.0000
vt 0.0000 0.0000
vt 0.0000 0.4844
vt 1.0000 0.1250
vt 0.0000 0.1250
vt 0.0000 0.0000
vt 0.0000 0.0000
vt 1.0000 0.0000
vt 1.0000 0.1250
vt 1.0000 0.1250
vt 0.0000 0.1250
vt 0.0000 0.0000
vt 0.0000 0.0000
vt 1.0000 0.0000
vt 1.0000 0.1250
vt 1.0000 0.1250
vt 0.0000 0.1250
vt 0.0000 0.0000
vt 0.0000 0.0000
vt 1.0000 0.0000
vt 1.0000 0.1250
vt 1.0000 0.1250
vt 0.0000 0.1250
vt 0.0000 0.0000
vt 0.0000 0.0000
vt 1.0000 0.0000
vt 1.0000 0.1250
vt 1.0000 0.1250
vt 0.0000 0.1250
vt 0.0000 0.0000
vt 0.0000 0.0000
vt 1.0000 0.0000
vt 1.0000 0.1250
vt 0.9688 0.0000
vt 0.6563 0.0000
vt 0.6563 0.4844
vt 0.6563 0.4844
vt 0.9688 0.4844
vt 0.9688 0.0000
vt 0.9688 0.0000
vt 0.6563 0.0000
vt 0.6563 0.4844
vt 0.6563 0.4844
vt 0.9688 0.4844
vt 0.9688 0.0000
vt 0.9688 0.0000
vt 0.6563 0.0000
vt 0.6563 0.4844
vt 0.6563 0.4844
vt 0.9688 0.4844
vt 0.9688 0.0000
vt 0.9688 0.0000
vt 0.6563 0.0000
vt 0.6563 0.4844
vt 0.6563 0.4844
vt 0.9688 0.4844
vt 0.9688 0.0000
vt 0.9688 0.0000
vt 0.6563 0.0000
vt 0.6563 0.4844
vt 0.6563 0.4844
vt 0.9688 0.4844
vt 0.9688 0.0000
f 1/1 6/3 2/2
f 6/4 1/6 5/5
f 2/7 8/9 4/8
f 8/10 2/12 6/11
f 4/13 7/15 3/14
f 7/16 4/18 8/17
f 3/19 5/21 1/20
f 5/22 3/24 7/23
f 9/25 5/27 10/26
f 5/28 9/30 6/29
f 11/31 6/33 9/32
f 6/34 11/36 8/35
f 12/37 8/39 11/38
f 8/40 12/42 7/41
f 10/43 7/45 12/44
f 7/46 10/48 5/47
f 10/49 11/51 9/50
f 11/52 10/54 12/53
f 13/55 15/57 16/56
f 13/58 16/60 14/59
f 21/61 29/63 28/62
f 21/64 30/66 29/65
f 21/67 31/69 30/68
f 21/70 32/72 31/71
f 21/73 33/75 32/74
f 21/76 28/78 33/77
f 16/79 24/81 17/80
f 24/82 16/84 23/83
f 22/85 29/87 23/86
f 29/88 22/90 28/89
f 23/91 30/93 24/92
f 30/94 23/96 29/95
f 24/97 31/99 25/98
f 31/100 24/102 30/101
f 25/103 32/105 26/104
f 32/106 25/108 31/107
f 26/109 33/111 27/110
f 33/112 26/114 32/113
f 27/115 28/117 22/116
f 28/118 27/120 33/119
f 34/121 36/123 35/122
f 34/124 37/126 36/125
f 34/127 38/129 37/128
f 34/130 39/132 38/131
f 34/133 40/135 39/134
f 34/136 35/138 40/137
f 42/139 35/141 41/140
f 35/142 42/144 40/143
f 43/145 20/147 15/146
f 43/148 15/150 13/149
f 44/151 19/153 20/152
f 44/154 20/156 43/155
f 45/157 18/159 19/158
f 45/160 19/162 44/161
f 46/163 17/165 18/164
f 46/166 18/168 45/167
f 14/169 16/171 17/170
f 14/172 17/174 46/173
f 15/175 23/177 16/176
f 23/178 15/180 22/179
f 20/181 22/183 15/182
f 22/184 20/186 27/185
f 19/187 27/189 20/188
f 27/190 19/192 26/191
f 18/193 26/195 19/194
f 26/196 18/198 25/197
f 17/199 25/201 18/200
f 25/202 17/204 24/203
f 41/205 36/207 47/206
f 36/208 41/210 35/209
f 47/211 37/213 48/212
f 37/214 47/216 36/215
f 48/217 38/219 49/218
f 38/220 48/222 37/221
f 49/223 39/225 50/224
f 39/226 49/228 38/227
f 50/229 40/231 42/230
f 40/232 50/234 39/233
