g Object
v 0.5078 0.0000 0.5000
v -0.5000 0.0000 0.5000
v 0.5078 0.0000 -0.5078
v -0.5000 0.0000 -0.5078
v 0.5078 1.5703 0.5000
v -0.5000 1.5703 0.5000
v 0.5078 1.0078 -0.5078
v -0.5000 1.0078 -0.5078
vt 0.5469 0.9844
vt 0.0000 0.9844
vt 0.0000 0.0000
vt 0.0000 0.0000
vt 0.5469 0.0000
vt 0.5469 0.9844
vt 0.5625 0.0000
vt 0.9844 0.0000
vt 0.9844 0.9844
vt 0.9844 0.9844
vt 0.5625 0.9844
vt 0.5625 0.0000
vt 0.9844 0.0000
vt 0.5469 0.0000
vt 0.5469 0.6406
vt 0.5469 0.6406
vt 0.9844 0.9531
vt 0.9844 0.0000
vt 0.9844 0.0000
vt 0.5469 0.0000
vt 0.5469 0.9844
vt 0.5469 0.9844
vt 0.9844 0.9844
vt 0.9844 0.0000
vt 0.5469 0.0000
vt 0.9844 0.0000
vt 0.9844 0.9531
vt 0.9844 0.9531
vt 0.5469 0.6406
vt 0.5469 0.0000
f 5/1 8/3 6/2
f 8/4 5/6 7/5
f 1/7 6/9 2/8
f 6/10 1/12 5/11
f 2/13 8/15 4/14
f 8/16 2/18 6/17
f 4/19 7/21 3/20
f 7/22 4/24 8/23
f 3/25 5/27 1/26
f 5/28 3/30 7/29
