g Object
v 0.0000 -2.0234 0.0547
v -3.0117 -2.0234 0.0586
v 0.0000 -2.0234 -0.0586
v -3.0117 -2.0234 -0.0547
v 0.0000 -0.9531 0.0547
v -3.0117 -0.9531 0.0586
v 0.0000 -0.9531 -0.0586
v -3.0117 -0.9531 -0.0547
v 0.0000 1.7344 0.0547
v -3.0117 1.7344 0.0586
v 0.0000 1.7344 -0.0586
v -3.0117 1.7344 -0.0547
v 0.0000 2.0078 0.0547
v -3.0117 2.0078 0.0586
v 0.0000 2.0078 -0.0586
v -3.0117 2.0078 -0.0547
v -3.0117 1.7344 0.0586
v 0.0000 1.7344 0.0547
v 0.0000 -0.9531 0.0547
v -3.0117 -0.9531 0.0586
v 0.0000 1.7344 -0.0586
v -3.0117 1.7344 -0.0547
v -3.0117 -0.9531 -0.0547
v 0.0000 -0.9531 -0.0586
vt 0.0000 0.0000
vt 0.0000 0.0000
vt 0.0000 0.0000
vt 0.0000 0.0000
vt 0.0000 0.0000
vt 0.0000 0.0000
vt 0.0000 0.9688
vt 0.9688 0.9688
vt 0.9688 0.5000
vt 0.9688 0.5000
vt 0.0000 0.5000
vt 0.0000 0.9688
vt 0.9063 0.0625
vt 0.9063 0.2813
vt 0.7188 0.2813
vt 0.7188 0.2813
vt 0.7188 0.0625
vt 0.9063 0.0625
vt 0.9688 0.9688
vt 0.0000 0.9688
vt 0.0000 0.5000
vt 0.0000 0.5000
vt 0.9688 0.5000
vt 0.9688 0.9688
vt 0.9063 0.2813
vt 0.9063 0.0938
vt 0.7188 0.0938
vt 0.7188 0.0938
vt 0.7188 0.2813
vt 0.9063 0.2813
vt 0.0000 0.0000
vt 0.0000 0.0000
vt 0.0000 0.0000
vt 0.0000 0.0000
vt 0.0000 0.0000
vt 0.0000 0.0000
vt 0.0000 0.8750
vt 0.9688 0.8750
vt 0.9688 0.9688
vt 0.9688 0.9688
vt 0.0000 0.9688
vt 0.0000 0.8750
vt 0.2188 0.0625
vt 0.2188 0.2813
vt 0.1563 0.2813
vt 0.1563 0.2813
vt 0.1563 0.0625
vt 0.2188 0.0625
vt 0.9688 0.8750
vt 0.0000 0.8750
vt 0.0000 0.9688
vt 0.0000 0.9688
vt 0.9688 0.9688
vt 0.9688 0.8750
vt 0.2188 0.2813
vt 0.2188 0.0938
vt 0.1250 0.0938
vt 0.1250 0.0938
vt 0.1250 0.2813
vt 0.2188 0.2813
vt 0.9688 0.8750
vt 0.0000 0.8750
vt 0.0000 0.0000
vt 0.0000 0.0000
vt 0.9688 0.0000
vt 0.9688 0.8750
vt 0.0000 0.8750
vt 0.9688 0.8750
vt 0.9688 0.0000
vt 0.9688 0.0000
vt 0.0000 0.0000
vt 0.0000 0.8750
vt 0.2188 0.2813
vt 0.7188 0.2813
vt 0.7188 0.0938
vt 0.2188 0.2813
vt 0.7188 0.0938
vt 0.2188 0.0938
vt 0.2188 0.0625
vt 0.7188 0.0625
vt 0.7188 0.2813
vt 0.2188 0.0625
vt 0.7188 0.2813
vt 0.2188 0.2813
f 1/1 4/3 3/2
f 4/4 1/6 2/5
f 1/7 6/9 2/8
f 6/10 1/12 5/11
f 2/13 8/15 4/14
f 8/16 2/18 6/17
f 4/19 7/21 3/20
f 7/22 4/24 8/23
f 3/25 5/27 1/26
f 5/28 3/30 7/29
f 13/31 16/33 14/32
f 16/34 13/36 15/35
f 9/37 14/39 10/38
f 14/40 9/42 13/41
f 10/43 16/45 12/44
f 16/46 10/48 14/47
f 12/49 15/51 11/50
f 15/52 12/54 16/53
f 11/55 13/57 9/56
f 13/58 11/60 15/59
f 17/61 19/63 18/62
f 19/64 17/66 20/65
f 21/67 23/69 22/68
f 23/70 21/72 24/71
f 21/73 19/75 24/74
f 21/76 18/78 19/77
f 17/79 23/81 20/80
f 17/82 22/84 23/83
