g Object
v 0.0000 1.5078 -1.0156
v 0.0000 -1.5234 -1.0156
v 0.0000 1.5078 1.0039
v 0.0000 -1.5234 1.0039
v 0.0000 1.5078 1.0039
v 0.0000 1.5078 -1.0156
v 0.0000 -1.5234 1.0039
v 0.0000 -1.5234 -1.0156
vt 0.7031 0.9844
vt 0.0000 0.9844
vt 0.7031 0.0000
vt 0.0000 0.0000
vt 0.7031 0.0000
vt 0.0000 0.9844
vt 0.0000 0.9844
vt 0.7031 0.9844
vt 0.7031 0.0000
vt 0.7031 0.0000
vt 0.0000 0.0000
vt 0.0000 0.9844
f 3/1 4/3 1/2
f 2/4 1/6 4/5
f 6/7 7/9 5/8
f 7/10 6/12 8/11
