g Object
v -0.4570 0.0000 -1.9336
v -0.4570 1.7852 -1.9336
v -0.4570 1.7852 0.0313
v -0.4570 0.0000 0.0313
v -0.7695 0.0000 -0.8516
v -0.7695 1.7852 -0.8516
v -0.7695 1.7852 1.1133
v -0.7695 0.0000 1.1133
v -0.2813 0.0000 0.0625
v -0.2813 1.7852 0.0625
v -0.2813 1.7852 2.0313
v -0.2813 0.0000 2.0313
v -0.3086 0.0000 -0.0625
v -0.0586 0.0000 -0.3242
v 0.1914 0.0000 -0.0625
v -0.0586 0.0000 0.1953
v -0.0586 7.4102 -0.0625
v -0.9766 4.8203 -0.0625
v -0.0586 4.8789 -1.1445
v 1.0195 4.6992 -0.0625
v -0.0586 4.8789 1.0156
v -0.0703 3.0039 -1.6055
v 1.4805 3.0938 -0.0781
v -0.0430 3.2422 1.4727
v -1.4375 3.0938 -0.0469
v -0.0586 6.0391 -0.0625
v -1.8359 1.3984 -0.0469
v -0.0703 1.5156 -2.0469
v 1.8516 1.3086 -0.0781
v -0.0430 1.5156 1.9336
v -0.0586 4.6133 -0.0625
v -0.4570 1.7852 0.0313
v -0.4570 0.0000 0.0313
v -0.4570 0.0000 -1.9336
v -0.4570 1.7852 -1.9336
v -0.7695 1.7852 1.1133
v -0.7695 0.0000 1.1133
v -0.7695 0.0000 -0.8516
v -0.7695 1.7852 -0.8516
v -0.2813 1.7852 2.0313
v -0.2813 0.0000 2.0313
v -0.2813 0.0000 0.0625
v -0.2813 1.7852 0.0625
vt 0.0000 0.4844
vt 0.0000 0.0000
vt 0.9844 0.0000
vt 0.9844 0.0000
vt 0.9844 0.4844
vt 0.0000 0.4844
vt 0.9844 0.4844
vt 0.9844 0.0000
vt 0.0000 0.0000
vt 0.0000 0.0000
vt 0.0000 0.4844
vt 0.9844 0.4844
vt 0.9844 0.4844
vt 0.9844 0.0000
vt 0.0000 0.0000
vt 0.0000 0.0000
vt 0.0000 0.4844
vt 0.9844 0.4844
vt 0.9844 0.5156
vt 0.9063 0.9844
vt 0.8281 0.5156
vt 0.9063 0.9688
vt 0.8281 0.5156
vt 0.9844 0.5156
vt 0.8281 0.9844
vt 0.9063 0.5156
vt 0.9844 0.9844
vt 0.9063 0.5156
vt 0.9844 0.9844
vt 0.8438 0.9844
vt 0.0938 0.9844
vt 0.7031 0.9844
vt 0.4063 0.5000
vt 0.0938 0.9844
vt 0.7031 0.9844
vt 0.4063 0.5000
vt 0.0938 0.9844
vt 0.7031 0.9844
vt 0.4063 0.5000
vt 0.0938 0.9844
vt 0.7031 0.9844
vt 0.4063 0.5000
vt 0.0000 0.9844
vt 0.8125 0.9844
vt 0.4219 0.5000
vt 0.0000 0.9844
vt 0.8125 0.9844
vt 0.4219 0.5000
vt 0.0000 0.9844
vt 0.8125 0.9844
vt 0.4375 0.5000
vt 0.0000 0.9844
vt 0.8125 0.9844
vt 0.4219 0.5000
vt 0.0000 0.9844
vt 0.8125 0.9844
vt 0.3906 0.5000
vt 0.0000 0.9844
vt 0.8125 0.9844
vt 0.4219 0.5000
vt 0.0000 0.9844
vt 0.8125 0.9844
vt 0.4219 0.5000
vt 0.0000 0.9844
vt 0.8125 0.9844
vt 0.4219 0.5000
vt 0.0000 0.0000
vt 0.0000 0.4844
vt 0.9844 0.0000
vt 0.9844 0.4844
vt 0.9844 0.0000
vt 0.0000 0.4844
vt 0.9844 0.0000
vt 0.9844 0.4844
vt 0.0000 0.0000
vt 0.0000 0.4844
vt 0.0000 0.0000
vt 0.9844 0.4844
vt 0.9844 0.0000
vt 0.9844 0.4844
vt 0.0000 0.0000
vt 0.0000 0.4844
vt 0.0000 0.0000
vt 0.9844 0.4844
f 3/1 1/3 4/2
f 1/4 3/6 2/5
f 7/7 5/9 8/8
f 5/10 7/12 6/11
f 11/13 9/15 12/14
f 9/16 11/18 10/17
f 13/19 17/21 14/20
f 14/22 17/24 15/23
f 15/25 17/27 16/26
f 16/28 17/30 13/29
f 18/31 17/33 19/32
f 19/34 17/36 20/35
f 20/37 17/39 21/38
f 21/40 17/42 18/41
f 22/43 26/45 23/44
f 23/46 26/48 24/47
f 24/49 26/51 25/50
f 25/52 26/54 22/53
f 27/55 31/57 28/56
f 28/58 31/60 29/59
f 29/61 31/63 30/62
f 30/64 31/66 27/65
f 33/67 34/69 32/68
f 35/70 32/72 34/71
f 37/73 38/75 36/74
f 39/76 36/78 38/77
f 41/79 42/81 40/80
f 43/82 40/84 42/83
