g Object
v 0.6602 3.0352 0.6055
v 0.6602 3.0352 -0.3984
v 0.5781 1.8008 0.5234
v 0.5547 1.4727 -0.2852
v 0.5586 3.0352 0.6055
v 0.3438 3.0352 -0.3984
v 0.5859 3.2070 0.5352
v 0.4844 3.4531 -0.2227
v 0.2188 1.7422 0.5117
v -0.0352 1.3828 -0.2773
v 0.3008 -0.0625 0.2852
v 0.0938 -0.0625 0.2656
v 0.3203 0.0508 0.1094
v 0.1055 0.0352 0.0820
v 0.0469 1.6992 1.1719
v 0.0938 -0.0781 0.2773
v -0.0234 -0.0625 0.1523
v 0.1680 0.0508 0.2148
v 0.0469 0.0625 0.1016
v -0.7813 0.8828 1.1836
v 0.4531 -0.0625 0.2148
v 0.3125 -0.0625 0.2344
v 0.4375 0.0508 0.1406
v 0.3086 0.0508 0.1641
v 0.4844 0.6797 1.2734
v 0.2813 -0.0781 -0.1328
v 0.4375 -0.0625 -0.0586
v 0.2305 0.0508 -0.0508
v 0.3828 0.0625 0.0195
v 0.7852 0.8828 -1.2852
v -0.0313 -0.0625 0.0508
v 0.0938 -0.0625 -0.0078
v 0.0039 0.0508 0.1094
v 0.1250 0.0508 0.0508
v -0.4258 0.6797 -0.9336
v 0.0781 -0.0625 -0.0703
v 0.2891 -0.0625 -0.1211
v 0.1289 0.0508 0.1016
v 0.3320 0.0352 0.0508
v 0.0117 1.6992 -0.9883
v -0.2578 1.6719 0.5117
v -0.2305 1.3555 -0.2773
v -0.1602 0.2773 0.4102
v -0.1875 0.7109 -0.2344
v 0.2188 1.7422 0.5117
v -0.0352 1.3828 -0.2773
v -0.3516 3.0352 0.6055
v -0.3516 3.0352 -0.3984
v 0.4570 3.4961 0.4102
v -0.1484 3.4961 0.4102
v 0.4570 3.4961 -0.2031
v -0.1484 3.4961 -0.2031
v -0.2578 1.6719 0.5117
v -0.2305 1.3555 -0.2773
v 0.5586 3.0352 0.6055
v 0.3438 3.0352 -0.3984
v 0.5859 3.2070 0.5352
v 0.4844 3.4531 -0.2227
v 0.2188 1.7422 0.5117
v -0.0352 1.3828 -0.2773
v 0.4531 -0.0039 0.3906
v -0.1445 -0.0039 0.3906
v 0.4531 -0.0039 -0.1836
v -0.1445 -0.0039 -0.1836
v 0.5781 1.8008 0.5234
v 0.5547 1.4727 -0.2852
v -0.1602 0.2773 0.4102
v -0.1875 0.7109 -0.2344
v 0.2188 1.7422 0.5117
v -0.0352 1.3828 -0.2773
vt 0.0000 0.2344
vt 0.0938 0.2344
vt 0.0625 0.4219
vt 0.9844 0.2500
vt 0.9219 0.4219
vt 0.1719 0.6875
vt 0.1719 0.6875
vt 0.0000 0.2500
vt 0.9844 0.2500
vt 0.0938 0.4219
vt 0.0000 0.8594
vt 0.2969 0.8594
vt 0.2969 0.8594
vt 0.6719 0.3906
vt 0.0938 0.4219
vt 0.9063 0.5000
vt 0.9844 0.8594
vt 0.0000 0.8594
vt 0.0000 0.8594
vt 0.1094 0.4219
vt 0.9063 0.5000
vt 0.2969 0.2344
vt 0.0000 0.2344
vt 0.1719 0.6875
vt 0.0938 0.8594
vt 0.0000 0.8594
vt 0.0781 0.5000
vt 0.0781 0.5000
vt 0.4219 0.4844
vt 0.0938 0.8594
vt 0.4531 0.9375
vt 0.4844 0.9688
vt 0.6094 0.9531
vt 0.6094 0.9531
vt 0.6250 0.9375
vt 0.4531 0.9375
vt 0.4844 0.8125
vt 0.4531 0.9375
vt 0.6250 0.9375
vt 0.6250 0.9375
vt 0.6094 0.8281
vt 0.4844 0.8125
vt 0.3906 0.9375
vt 0.5625 0.9375
vt 0.4844 0.7656
vt 0.4844 0.7656
vt 0.3906 0.7656
vt 0.3906 0.9375
vt 0.0000 0.0000
vt 0.9844 0.0000
vt 0.4844 0.9844
vt 0.0000 0.0000
vt 0.9844 0.0000
vt 0.4844 0.9844
vt 0.0000 0.0000
vt 0.9844 0.0000
vt 0.4844 0.9844
vt 0.0000 0.0000
vt 0.9844 0.0000
vt 0.4844 0.9844
vt 0.5156 0.0781
vt 0.5469 0.0781
vt 0.5469 0.0469
vt 0.5469 0.0469
vt 0.5156 0.0469
vt 0.5156 0.0781
vt 0.0000 0.0000
vt 0.9844 0.0000
vt 0.4844 0.9844
vt 0.0000 0.0000
vt 0.9844 0.0000
vt 0.4844 0.9844
vt 0.0000 0.0000
vt 0.9844 0.0000
vt 0.4844 0.9844
vt 0.0000 0.0000
vt 0.9844 0.0000
vt 0.4844 0.9844
vt 0.5313 0.0625
vt 0.5469 0.0625
vt 0.5469 0.0469
vt 0.5469 0.0469
vt 0.5313 0.0469
vt 0.5313 0.0625
vt 0.0000 0.0000
vt 0.9844 0.0000
vt 0.4844 0.9844
vt 0.0000 0.0000
vt 0.9844 0.0000
vt 0.4844 0.9844
vt 0.0000 0.0000
vt 0.9844 0.0000
vt 0.4844 0.9844
vt 0.0000 0.0000
vt 0.9844 0.0000
vt 0.4844 0.9844
vt 0.5313 0.0781
vt 0.5469 0.0781
vt 0.5469 0.0469
vt 0.5469 0.0469
vt 0.5313 0.0469
vt 0.5313 0.0781
vt 0.0000 0.0000
vt 0.9844 0.0000
vt 0.4844 0.9844
vt 0.0000 0.0000
vt 0.9844 0.0000
vt 0.4844 0.9844
vt 0.0000 0.0000
vt 0.9844 0.0000
vt 0.4844 0.9844
vt 0.0000 0.0000
vt 0.9844 0.0000
vt 0.4844 0.9844
vt 0.5156 0.0781
vt 0.5469 0.0781
vt 0.5469 0.0469
vt 0.5469 0.0469
vt 0.5156 0.0469
vt 0.5156 0.0781
vt 0.0000 0.0000
vt 0.9844 0.0000
vt 0.4844 0.9844
vt 0.0000 0.0000
vt 0.9844 0.0000
vt 0.4844 0.9844
vt 0.0000 0.0000
vt 0.9844 0.0000
vt 0.4844 0.9844
vt 0.0000 0.0000
vt 0.9844 0.0000
vt 0.4844 0.9844
vt 0.5156 0.0625
vt 0.5469 0.0625
vt 0.5469 0.0469
vt 0.5469 0.0469
vt 0.5156 0.0469
vt 0.5156 0.0625
vt 0.0000 0.0000
vt 0.9844 0.0000
vt 0.4844 0.9844
vt 0.0000 0.0000
vt 0.9844 0.0000
vt 0.4844 0.9844
vt 0.0000 0.0000
vt 0.9844 0.0000
vt 0.4844 0.9844
vt 0.0000 0.0000
vt 0.9844 0.0000
vt 0.4844 0.9844
vt 0.5156 0.0781
vt 0.5469 0.0781
vt 0.5469 0.0469
vt 0.5469 0.0469
vt 0.5156 0.0469
vt 0.5156 0.0781
vt 0.7969 0.0781
vt 0.8906 0.4688
vt 0.4219 0.4844
vt 0.1563 0.2031
vt 0.1094 0.3750
vt 0.8906 0.4688
vt 0.8906 0.4688
vt 0.7969 0.0781
vt 0.1563 0.2031
vt 0.6719 0.3906
vt 0.8750 0.3750
vt 0.8281 0.2031
vt 0.3438 0.7813
vt 0.5313 0.7813
vt 0.5156 0.9688
vt 0.5156 0.9688
vt 0.4375 0.9688
vt 0.3438 0.7813
vt 0.3906 0.8125
vt 0.5469 0.7969
vt 0.5156 0.9531
vt 0.5156 0.9531
vt 0.4375 0.9375
vt 0.3906 0.8125
vt 0.5469 0.9375
vt 0.4063 0.9375
vt 0.4063 0.7969
vt 0.4063 0.7969
vt 0.5469 0.7969
vt 0.5469 0.9375
vt 0.1875 0.7344
vt 0.7969 0.7344
vt 0.9844 0.2500
vt 0.9844 0.2500
vt 0.0000 0.2500
vt 0.1875 0.7344
vt 0.2969 0.2344
vt 0.1719 0.6875
vt 0.1875 0.7344
vt 0.9844 0.2344
vt 0.2969 0.2344
vt 0.1875 0.7344
vt 0.9844 0.2344
vt 0.1875 0.7344
vt 0.7969 0.7344
vt 0.9844 0.8594
vt 0.0938 0.8594
vt 0.4219 0.4844
vt 0.4219 0.4844
vt 0.8906 0.4688
vt 0.9844 0.8594
vt 0.0000 0.8594
vt 0.9844 0.8594
vt 0.8906 0.4688
vt 0.8906 0.4688
vt 0.1094 0.3750
vt 0.0000 0.8594
vt 0.7969 0.7344
vt 0.1875 0.7344
vt 0.0625 0.4219
vt 0.9844 0.2344
vt 0.7969 0.7344
vt 0.0625 0.4219
vt 0.0938 0.2344
vt 0.9844 0.2344
vt 0.0625 0.4219
vt 0.9844 0.8594
vt 0.8750 0.3750
vt 0.6719 0.3906
vt 0.6719 0.3906
vt 0.2969 0.8594
vt 0.9844 0.8594
vt 0.7969 0.7344
vt 0.1875 0.7344
vt 0.1719 0.6875
vt 0.1719 0.6875
vt 0.9219 0.4219
vt 0.7969 0.7344
vt 0.4375 0.9375
vt 0.4063 0.9063
vt 0.5625 0.9063
vt 0.5625 0.9063
vt 0.5625 0.9219
vt 0.4375 0.9375
vt 0.4063 0.9063
vt 0.4219 0.7813
vt 0.5469 0.8125
vt 0.5469 0.8125
vt 0.5625 0.9063
vt 0.4063 0.9063
vt 0.5156 0.7813
vt 0.3438 0.7813
vt 0.4375 0.9531
vt 0.4375 0.9531
vt 0.5000 0.9531
vt 0.5156 0.7813
vt 0.5313 0.0625
vt 0.5469 0.0625
vt 0.5469 0.0469
vt 0.5469 0.0469
vt 0.5313 0.0469
vt 0.5313 0.0625
vt 0.7969 0.0781
vt 0.4219 0.4844
vt 0.0781 0.5000
vt 0.7813 0.0000
vt 0.7969 0.0781
vt 0.0781 0.5000
vt 0.2031 0.0000
vt 0.7813 0.0000
vt 0.0781 0.5000
vt 0.2188 0.0000
vt 0.1563 0.2031
vt 0.7969 0.0781
vt 0.7969 0.0781
vt 0.7656 0.0000
vt 0.2188 0.0000
vt 0.0938 0.4219
vt 0.6719 0.3906
vt 0.8281 0.2031
vt 0.2031 0.0000
vt 0.0938 0.4219
vt 0.8281 0.2031
vt 0.7813 0.0000
vt 0.2031 0.0000
vt 0.8281 0.2031
vt 0.7656 0.0000
vt 0.9063 0.5000
vt 0.1094 0.4219
vt 0.1094 0.4219
vt 0.2188 0.0000
vt 0.7656 0.0000
vt 0.5938 0.9219
vt 0.4219 0.9219
vt 0.4063 0.7344
vt 0.4063 0.7344
vt 0.5156 0.7344
vt 0.5938 0.9219
vt 0.5469 0.7656
vt 0.3594 0.7813
vt 0.4219 0.9375
vt 0.4219 0.9375
vt 0.5000 0.9531
vt 0.5469 0.7656
f 1/1 7/3 5/2
f 1/4 8/6 7/5
f 8/7 1/9 2/8
f 4/10 6/12 2/11
f 6/13 4/15 10/14
f 3/16 2/18 1/17
f 2/19 3/21 4/20
f 6/22 8/24 2/23
f 5/25 3/27 1/26
f 3/28 5/30 9/29
f 6/31 7/33 8/32
f 7/34 6/36 5/35
f 10/37 5/39 6/38
f 5/40 10/42 9/41
f 4/43 9/45 10/44
f 9/46 4/48 3/47
f 11/49 15/51 12/50
f 12/52 15/54 14/53
f 14/55 15/57 13/56
f 13/58 15/60 11/59
f 13/61 12/63 14/62
f 12/64 13/66 11/65
f 16/67 20/69 17/68
f 17/70 20/72 19/71
f 19/73 20/75 18/74
f 18/76 20/78 16/77
f 18/79 17/81 19/80
f 17/82 18/84 16/83
f 21/85 25/87 22/86
f 22/88 25/90 24/89
f 24/91 25/93 23/92
f 23/94 25/96 21/95
f 23/97 22/99 24/98
f 22/100 23/102 21/101
f 26/103 30/105 27/104
f 27/106 30/108 29/107
f 29/109 30/111 28/110
f 28/112 30/114 26/113
f 28/115 27/117 29/116
f 27/118 28/120 26/119
f 31/121 35/123 32/122
f 32/124 35/126 34/125
f 34/127 35/129 33/128
f 33/130 35/132 31/131
f 33/133 32/135 34/134
f 32/136 33/138 31/137
f 36/139 40/141 37/140
f 37/142 40/144 39/143
f 39/145 40/147 38/146
f 38/148 40/150 36/149
f 38/151 37/153 39/152
f 37/154 38/156 36/155
f 43/157 45/159 41/158
f 44/160 41/162 42/161
f 41/163 44/165 43/164
f 46/166 44/168 42/167
f 45/169 42/171 41/170
f 42/172 45/174 46/173
f 43/175 46/177 45/176
f 46/178 43/180 44/179
f 52/181 49/183 51/182
f 49/184 52/186 50/185
f 52/187 47/189 50/188
f 47/190 52/192 48/191
f 56/193 51/195 58/194
f 48/196 51/198 56/197
f 48/199 52/201 51/200
f 47/202 59/204 55/203
f 59/205 47/207 53/206
f 48/208 53/210 47/209
f 53/211 48/213 54/212
f 50/214 57/216 49/215
f 47/217 57/219 50/218
f 55/220 57/222 47/221
f 48/223 60/225 54/224
f 60/226 48/228 56/227
f 49/229 58/231 51/230
f 58/232 49/234 57/233
f 58/235 55/237 56/236
f 55/238 58/240 57/239
f 56/241 59/243 60/242
f 59/244 56/246 55/245
f 53/247 60/249 59/248
f 60/250 53/252 54/251
f 63/253 62/255 64/254
f 62/256 63/258 61/257
f 67/259 65/261 69/260
f 62/262 65/264 67/263
f 61/265 65/267 62/266
f 64/268 67/270 68/269
f 67/271 64/273 62/272
f 66/274 68/276 70/275
f 63/277 68/279 66/278
f 64/280 68/282 63/281
f 61/283 66/285 65/284
f 66/286 61/288 63/287
f 70/289 65/291 66/290
f 65/292 70/294 69/293
f 69/295 68/297 67/296
f 68/298 69/300 70/299
