g Object
v 4.5078 4.2891 0.7461
v 4.5078 4.6289 0.5430
v 4.5078 4.6289 0.9492
v -4.4727 4.2891 0.7461
v -4.4727 4.6289 0.5430
v -4.4727 4.6289 0.9492
v 0.0352 4.2891 0.7461
v 0.0352 4.6289 0.5430
v 0.0352 4.6289 0.9492
v 4.5078 13.3477 0.6445
v 4.5078 13.8906 0.3242
v 4.5078 13.8906 0.9648
v -4.4727 13.8906 0.3242
v -4.4727 13.8906 0.9648
v 0.0352 13.8906 0.3242
v 0.0352 13.8906 0.9648
v -0.6484 0.0000 -0.1602
v -0.1406 0.0000 -0.9727
v 0.6836 0.0000 -0.6680
v 0.6836 0.0000 0.3320
v -0.1406 0.0000 0.6445
v -0.6484 1.7695 -0.1602
v -0.1406 1.7695 -0.9727
v 0.6836 1.7695 -0.6680
v 0.6836 1.7695 0.3320
v -0.1406 1.7695 0.6445
v -0.5391 6.8086 -0.1602
v -0.1055 6.8086 -0.8789
v 0.6133 6.8086 -0.6055
v 0.6133 6.8086 0.2695
v -0.1055 6.8086 0.5430
v -0.4297 11.9180 -0.1602
v -0.0703 11.9180 -0.7461
v 0.5039 11.9180 -0.5273
v 0.5039 11.9180 0.1914
v -0.0703 11.9180 0.4180
v -0.2500 16.9570 -0.1602
v 0.0000 16.9570 -0.5273
v 0.3594 16.9570 -0.3867
v 0.3594 16.9570 0.0508
v 0.0000 16.9570 0.1914
v -4.4727 13.3477 0.6445
v 0.0352 13.3477 0.6445
vt 0.7031 0.6563
vt 0.7031 0.8125
vt 0.7500 0.7344
vt 1.0000 0.9844
vt 0.0000 0.9844
vt 0.0000 0.5156
vt 0.0000 0.5156
vt 1.0000 0.5156
vt 1.0000 0.9844
vt 1.0000 0.9844
vt 0.0000 0.9844
vt 0.0000 0.5156
vt 0.0000 0.5156
vt 1.0000 0.5156
vt 1.0000 0.9844
vt 0.0000 0.5156
vt 1.0000 0.5156
vt 1.0000 0.9844
vt 1.0000 0.9844
vt 0.0000 0.9844
vt 0.0000 0.5156
vt 0.7031 0.6563
vt 0.7500 0.7344
vt 0.7031 0.8125
vt 1.0000 0.5156
vt 0.9844 0.9844
vt 0.0000 0.9844
vt 0.0000 0.9844
vt 0.0000 0.5156
vt 1.0000 0.5156
vt 1.0000 0.5156
vt 0.9844 0.9844
vt 0.0000 0.9844
vt 0.0000 0.9844
vt 0.0000 0.5156
vt 1.0000 0.5156
vt 1.0000 0.5156
vt 0.9844 0.9844
vt 0.0000 0.9844
vt 0.0000 0.9844
vt 0.0000 0.5156
vt 1.0000 0.5156
vt 0.0313 0.6406
vt 0.0313 0.8750
vt 0.0781 0.7500
vt 1.0000 0.9844
vt 0.0000 0.9844
vt 0.0000 0.5156
vt 0.0000 0.5156
vt 1.0000 0.5156
vt 1.0000 0.9844
vt 1.0000 0.9844
vt 0.0000 0.9844
vt 0.0000 0.5156
vt 0.0000 0.5156
vt 1.0000 0.5156
vt 1.0000 0.9844
vt 0.0000 0.5156
vt 1.0000 0.5156
vt 1.0000 0.9844
vt 1.0000 0.9844
vt 0.0000 0.9844
vt 0.0000 0.5156
vt 0.0313 0.6406
vt 0.0781 0.7500
vt 0.0313 0.8750
vt 1.0000 0.5156
vt 0.9844 0.9844
vt 0.0000 0.9844
vt 0.0000 0.9844
vt 0.0000 0.5156
vt 1.0000 0.5156
vt 1.0000 0.5156
vt 0.9844 0.9844
vt 0.0000 0.9844
vt 0.0000 0.9844
vt 0.0000 0.5156
vt 1.0000 0.5156
vt 1.0000 0.5156
vt 0.9844 0.9844
vt 0.0000 0.9844
vt 0.0000 0.9844
vt 0.0000 0.5156
vt 1.0000 0.5156
vt 1.0000 0.9844
vt 0.7813 0.9844
vt 0.7813 0.0000
vt 0.7813 0.0000
vt 1.0000 0.0000
vt 1.0000 0.9844
vt 0.1875 0.9844
vt 0.0000 0.9844
vt 0.0000 0.0000
vt 0.0000 0.0000
vt 0.1875 0.0000
vt 0.1875 0.9844
vt 0.3750 0.9844
vt 0.1875 0.9844
vt 0.1875 0.0000
vt 0.1875 0.0000
vt 0.3750 0.0000
vt 0.3750 0.9844
vt 0.5625 0.9844
vt 0.3750 0.9844
vt 0.3750 0.0000
vt 0.3750 0.0000
vt 0.5625 0.0000
vt 0.5625 0.9844
vt 0.7813 0.9844
vt 0.5625 0.9844
vt 0.5625 0.0000
vt 0.5625 0.0000
vt 0.7813 0.0000
vt 0.7813 0.9844
vt 0.0000 0.9844
vt 0.0000 0.5156
vt 1.0000 0.5156
vt 1.0000 0.5156
vt 0.9844 0.9844
vt 0.0000 0.9844
vt 0.0000 0.9844
vt 0.0000 0.5156
vt 1.0000 0.5156
vt 1.0000 0.5156
vt 0.9844 0.9844
vt 0.0000 0.9844
vt 0.0000 0.9844
vt 0.0000 0.5156
vt 1.0000 0.5156
vt 1.0000 0.5156
vt 0.9844 0.9844
vt 0.0000 0.9844
vt 0.0000 0.9844
vt 0.0000 0.5156
vt 1.0000 0.5156
vt 1.0000 0.5156
vt 0.9844 0.9844
vt 0.0000 0.9844
vt 0.0000 0.9844
vt 0.0000 0.5156
vt 1.0000 0.5156
vt 1.0000 0.5156
vt 0.9844 0.9844
vt 0.0000 0.9844
vt 0.0000 0.9844
vt 0.0000 0.5000
vt 1.0000 0.5000
vt 1.0000 0.5000
vt 0.9844 0.9844
vt 0.0000 0.9844
vt 0.0000 0.9844
vt 0.0000 0.5000
vt 1.0000 0.5000
vt 1.0000 0.5000
vt 0.9844 0.9844
vt 0.0000 0.9844
vt 0.0000 0.9844
vt 0.0000 0.5000
vt 1.0000 0.5000
vt 1.0000 0.5000
vt 0.9844 0.9844
vt 0.0000 0.9844
vt 0.0000 0.9844
vt 0.0000 0.5000
vt 1.0000 0.5000
vt 1.0000 0.5000
vt 0.9844 0.9844
vt 0.0000 0.9844
vt 0.0000 0.9844
vt 0.0000 0.5000
vt 1.0000 0.5000
vt 1.0000 0.5000
vt 0.9844 0.9844
vt 0.0000 0.9844
vt 0.5469 0.0000
vt 0.7656 0.0000
vt 0.7656 0.9844
vt 0.7656 0.9844
vt 0.5469 0.9844
vt 0.5469 0.0000
vt 0.3594 0.0000
vt 0.5469 0.0000
vt 0.5469 0.9844
vt 0.5469 0.9844
vt 0.3750 0.9844
vt 0.3594 0.0000
vt 0.1875 0.0000
vt 0.3594 0.0000
vt 0.3750 0.9844
vt 0.3750 0.9844
vt 0.1875 0.9844
vt 0.1875 0.0000
vt 0.0156 0.0000
vt 0.1875 0.0000
vt 0.1875 0.9844
vt 0.1875 0.9844
vt 0.0000 0.9844
vt 0.0156 0.0000
vt 0.7656 0.0000
vt 0.9844 0.0000
vt 0.9688 0.9844
vt 0.9688 0.9844
vt 0.7656 0.9844
vt 0.7656 0.0000
f 3/1 1/3 2/2
f 2/4 7/6 8/5
f 7/7 2/9 1/8
f 3/10 8/12 9/11
f 8/13 3/15 2/14
f 1/16 9/18 7/17
f 9/19 1/21 3/20
f 6/22 5/24 4/23
f 5/25 7/27 4/26
f 7/28 5/30 8/29
f 6/31 8/33 5/32
f 8/34 6/36 9/35
f 4/37 9/39 6/38
f 9/40 4/42 7/41
f 12/43 10/45 11/44
f 11/46 43/48 15/47
f 43/49 11/51 10/50
f 12/52 15/54 16/53
f 15/55 12/57 11/56
f 10/58 16/60 43/59
f 16/61 10/63 12/62
f 14/64 13/66 42/65
f 13/67 43/69 42/68
f 43/70 13/72 15/71
f 14/73 15/75 13/74
f 15/76 14/78 16/77
f 42/79 16/81 14/80
f 16/82 42/84 43/83
f 23/85 17/87 22/86
f 17/88 23/90 18/89
f 24/91 18/93 23/92
f 18/94 24/96 19/95
f 25/97 19/99 24/98
f 19/100 25/102 20/101
f 26/103 20/105 25/104
f 20/106 26/108 21/107
f 22/109 21/111 26/110
f 21/112 22/114 17/113
f 28/115 22/117 27/116
f 22/118 28/120 23/119
f 29/121 23/123 28/122
f 23/124 29/126 24/125
f 30/127 24/129 29/128
f 24/130 30/132 25/131
f 31/133 25/135 30/134
f 25/136 31/138 26/137
f 27/139 26/141 31/140
f 26/142 27/144 22/143
f 33/145 27/147 32/146
f 27/148 33/150 28/149
f 34/151 28/153 33/152
f 28/154 34/156 29/155
f 35/157 29/159 34/158
f 29/160 35/162 30/161
f 36/163 30/165 35/164
f 30/166 36/168 31/167
f 32/169 31/171 36/170
f 31/172 32/174 27/173
f 38/175 32/177 37/176
f 32/178 38/180 33/179
f 39/181 33/183 38/182
f 33/184 39/186 34/185
f 40/187 34/189 39/188
f 34/190 40/192 35/191
f 41/193 35/195 40/194
f 35/196 41/198 36/197
f 37/199 36/201 41/200
f 36/202 37/204 32/203
