g Object
v 2.0352 0.4258 2.0156
v 1.0234 0.4258 2.0156
v 0.0156 0.4258 2.0156
v -1.0078 0.4258 2.0156
v -2.0156 0.4258 2.0156
v 2.0352 0.4258 1.0078
v 1.0234 0.4258 1.0078
v 0.0156 0.4258 1.0078
v -1.0078 0.4258 1.0078
v -2.0156 0.4258 1.0078
v 2.0352 0.4258 -0.0156
v 1.0234 0.4258 -0.0156
v 0.0156 0.4258 -0.0156
v -1.0078 0.4258 -0.0156
v -2.0156 0.4258 -0.0156
v 2.0352 0.4258 -1.0234
v 1.0234 0.4258 -1.0234
v 0.0156 0.4258 -1.0234
v -1.0078 0.4258 -1.0234
v -2.0156 0.4258 -1.0234
v 2.0352 0.4258 -2.0352
v 1.0234 0.4258 -2.0352
v 0.0156 0.4258 -2.0352
v -1.0078 0.4258 -2.0352
v -2.0156 0.4258 -2.0352
vt 0.0000 0.2500
vt 0.0000 0.0000
vt 0.2500 0.2500
vt 0.2500 0.0000
vt 0.2500 0.2500
vt 0.0000 0.0000
vt 0.2500 0.2500
vt 0.2500 0.0000
vt 0.5000 0.2500
vt 0.5000 0.0000
vt 0.5000 0.2500
vt 0.2500 0.0000
vt 0.5000 0.2500
vt 0.5000 0.0000
vt 0.7500 0.2500
vt 0.7500 0.0000
vt 0.7500 0.2500
vt 0.5000 0.0000
vt 0.7500 0.2500
vt 0.7500 0.0000
vt 1.0000 0.2500
vt 1.0000 0.0000
vt 1.0000 0.2500
vt 0.7500 0.0000
vt 0.0000 0.5000
vt 0.0000 0.2500
vt 0.2500 0.5000
vt 0.2500 0.2500
vt 0.2500 0.5000
vt 0.0000 0.2500
vt 0.2500 0.5000
vt 0.2500 0.2500
vt 0.5000 0.5000
vt 0.5000 0.2500
vt 0.5000 0.5000
vt 0.2500 0.2500
vt 0.5000 0.5000
vt 0.5000 0.2500
vt 0.7500 0.5000
vt 0.7500 0.2500
vt 0.7500 0.5000
vt 0.5000 0.2500
vt 0.7500 0.5000
vt 0.7500 0.2500
vt 1.0000 0.5000
vt 1.0000 0.2500
vt 1.0000 0.5000
vt 0.7500 0.2500
vt 0.0000 0.7500
vt 0.0000 0.5000
vt 0.2500 0.7500
vt 0.2500 0.5000
vt 0.2500 0.7500
vt 0.0000 0.5000
vt 0.2500 0.7500
vt 0.2500 0.5000
vt 0.5000 0.7500
vt 0.5000 0.5000
vt 0.5000 0.7500
vt 0.2500 0.5000
vt 0.5000 0.7500
vt 0.5000 0.5000
vt 0.7500 0.7500
vt 0.7500 0.5000
vt 0.7500 0.7500
vt 0.5000 0.5000
vt 0.7500 0.7500
vt 0.7500 0.5000
vt 1.0000 0.7500
vt 1.0000 0.5000
vt 1.0000 0.7500
vt 0.7500 0.5000
vt 0.0000 1.0000
vt 0.0000 0.7500
vt 0.2500 1.0000
vt 0.2500 0.7500
vt 0.2500 1.0000
vt 0.0000 0.7500
vt 0.2500 1.0000
vt 0.2500 0.7500
vt 0.5000 1.0000
vt 0.5000 0.7500
vt 0.5000 1.0000
vt 0.2500 0.7500
vt 0.5000 1.0000
vt 0.5000 0.7500
vt 0.7500 1.0000
vt 0.7500 0.7500
vt 0.7500 1.0000
vt 0.5000 0.7500
vt 0.7500 1.0000
vt 0.7500 0.7500
vt 1.0000 1.0000
vt 1.0000 0.7500
vt 1.0000 1.0000
vt 0.7500 0.7500
f 6/1 7/3 1/2
f 2/4 1/6 7/5
f 7/7 8/9 2/8
f 3/10 2/12 8/11
f 8/13 9/15 3/14
f 4/16 3/18 9/17
f 9/19 10/21 4/20
f 5/22 4/24 10/23
f 11/25 12/27 6/26
f 7/28 6/30 12/29
f 12/31 13/33 7/32
f 8/34 7/36 13/35
f 13/37 14/39 8/38
f 9/40 8/42 14/41
f 14/43 15/45 9/44
f 10/46 9/48 15/47
f 16/49 17/51 11/50
f 12/52 11/54 17/53
f 17/55 18/57 12/56
f 13/58 12/60 18/59
f 18/61 19/63 13/62
f 14/64 13/66 19/65
f 19/67 20/69 14/68
f 15/70 14/72 20/71
f 21/73 22/75 16/74
f 17/76 16/78 22/77
f 22/79 23/81 17/80
f 18/82 17/84 23/83
f 23/85 24/87 18/86
f 19/88 18/90 24/89
f 24/91 25/93 19/92
f 20/94 19/96 25/95
