g Object
v 0.0117 0.0000 0.0547
v -3.4766 0.0000 0.0000
v 0.0117 0.0000 -0.0586
v -3.4766 0.0000 -0.1172
v 0.0117 4.0469 0.0547
v -3.4766 4.0469 0.0000
v 0.0117 4.0469 -0.0586
v -3.4766 4.0469 -0.1172
vt 0.0000 0.0156
vt 0.0000 0.0156
vt 0.4688 0.0156
vt 0.4688 0.0156
vt 0.4688 0.0156
vt 0.0000 0.0156
vt 0.0000 1.0000
vt 0.4688 1.0000
vt 0.4688 1.0000
vt 0.4688 1.0000
vt 0.0000 1.0000
vt 0.0000 1.0000
vt 0.0000 0.0156
vt 0.4688 0.0156
vt 0.4688 1.0000
vt 0.4688 1.0000
vt 0.0000 1.0000
vt 0.0000 0.0156
vt 0.4688 0.0156
vt 0.4688 0.0156
vt 0.4688 1.0000
vt 0.4688 1.0000
vt 0.4688 1.0000
vt 0.4688 0.0156
vt 0.4688 0.0156
vt 0.0000 0.0156
vt 0.0000 1.0000
vt 0.0000 1.0000
vt 0.4688 1.0000
vt 0.4688 0.0156
vt 0.0000 0.0156
vt 0.0000 0.0156
vt 0.0000 1.0000
vt 0.0000 1.0000
vt 0.0000 1.0000
vt 0.0000 0.0156
f 1/1 4/3 3/2
f 4/4 1/6 2/5
f 5/7 8/9 6/8
f 8/10 5/12 7/11
f 1/13 6/15 2/14
f 6/16 1/18 5/17
f 2/19 8/21 4/20
f 8/22 2/24 6/23
f 4/25 7/27 3/26
f 7/28 4/30 8/29
f 3/31 5/33 1/32
f 5/34 3/36 7/35
