g Object
v 0.5938 1.2813 0.6094
v -0.6289 1.2813 0.6094
v 0.5938 1.2813 -0.6133
v -0.6289 1.2813 -0.6133
vt 0.0000 1.0000
vt 0.0000 0.0000
vt 1.0000 1.0000
vt 1.0000 0.0000
vt 1.0000 1.0000
vt 0.0000 0.0000
f 3/1 4/3 1/2
f 2/4 1/6 4/5
