g Object
v 0.0000 -0.4531 -0.1797
v 0.0000 -0.2461 0.0000
v 0.0000 -0.3438 0.1758
v 0.0000 -0.4961 0.0742
v 0.0000 -0.4844 -0.1172
v 0.0000 -0.4531 -0.0430
v 0.0859 -0.3203 -0.0273
v 0.0742 -0.2930 0.0664
v 0.0781 -0.3477 0.1563
v 0.0625 -0.4961 0.0273
v 0.0859 -0.4492 -0.0508
v 0.0703 -0.4648 -0.1602
v 0.0781 -0.4961 -0.1016
v -0.0859 -0.3203 -0.0273
v -0.0742 -0.2930 0.0664
v -0.0781 -0.3477 0.1563
v -0.0625 -0.4961 0.0273
v -0.0859 -0.4492 -0.0508
v -0.0703 -0.4648 -0.1602
v -0.0781 -0.4961 -0.1016
vt 0.1250 0.5625
vt 0.9375 0.0625
vt 0.8438 0.1250
vt 0.5000 0.0625
vt 0.3125 0.4063
vt -1.2500 0.0938
vt -1.4688 0.3438
vt -1.3125 0.5000
vt -1.3750 0.0938
vt 0.5313 0.0313
vt 0.6875 0.3438
vt 0.4688 0.6250
vt 0.5313 0.5000
vt 0.4375 0.5938
vt 0.5313 0.5938
vt 0.5313 0.5000
vt 0.2500 0.6875
vt 0.2500 0.6875
vt 0.1563 0.5938
vt 0.1563 0.5938
vt 0.4063 0.7188
vt 0.5000 0.6250
vt 0.4063 0.5625
vt 0.3438 0.6563
vt 0.4688 0.8125
vt 0.1563 0.1250
vt 0.9375 0.9688
vt 0.5625 0.8438
vt 0.2188 0.2188
vt 0.9375 0.0625
vt 0.6875 0.3438
vt 0.5313 0.0313
vt 0.8438 0.1250
vt 0.5000 0.0625
vt 0.3125 0.4063
vt 0.2188 0.2188
vt -1.4688 0.3438
vt -1.2500 0.0938
vt -1.3125 0.5000
vt -1.3750 0.0938
vt 0.1250 0.5625
vt 0.4688 0.6250
vt 0.1563 0.1250
vt 0.9375 0.9688
vt 0.5625 0.8438
vt 0.4688 0.8125
vt 0.5313 0.5000
vt 0.5313 0.5938
vt 0.4375 0.5938
vt 0.5313 0.5000
vt 0.2500 0.6875
vt 0.1563 0.5938
vt 0.2500 0.6875
vt 0.1563 0.5938
vt 0.4063 0.7188
vt 0.4063 0.5625
vt 0.5000 0.6250
vt 0.3438 0.6563
f 8/10 7/11 2/2
f 3/5 8/4 2/3
f 9/29 8/4 3/5
f 10/8 9/6 4/7
f 3/9 4/7 9/6
f 7/11 8/10 10/1
f 10/1 11/12 7/11
f 8/10 9/26 10/1
f 7/11 12/28 1/27
f 11/12 13/25 12/28
f 12/28 7/11 11/12
f 13/14 5/15 12/13
f 1/16 12/13 5/15
f 7/11 1/27 2/2
f 5/18 13/19 6/17
f 11/20 6/17 13/19
f 11/22 10/23 6/21
f 4/24 6/21 10/23
f 14/31 15/32 2/30
f 15/34 3/35 2/33
f 15/34 16/36 3/35
f 16/38 17/39 4/37
f 4/37 3/40 16/38
f 15/32 14/31 17/41
f 18/42 17/41 14/31
f 16/43 15/32 17/41
f 19/45 14/31 1/44
f 20/46 18/42 19/45
f 14/31 19/45 18/42
f 5/48 20/49 19/47
f 19/47 1/50 5/48
f 1/44 14/31 2/30
f 20/52 5/53 6/51
f 6/51 18/54 20/52
f 17/56 18/57 6/55
f 6/55 4/58 17/56
