g Object
v 2.3438 0.0352 1.7578
v 2.5117 0.0352 1.5273
v 2.8047 0.0352 1.6133
v 2.8047 0.0352 1.8984
v 2.5117 0.0352 2.0117
v 2.3438 4.0469 1.7578
v 2.5117 4.0469 1.5273
v 2.8047 4.0469 1.6133
v 2.8047 4.0469 1.8984
v 2.5117 4.0469 2.0117
v 2.3438 0.0352 -1.7852
v 2.5117 0.0352 -2.0391
v 2.8047 0.0352 -1.9258
v 2.8047 0.0352 -1.6406
v 2.5117 0.0352 -1.5586
v 2.3438 4.0469 -1.7852
v 2.5117 4.0469 -2.0391
v 2.8047 4.0469 -1.9258
v 2.8047 4.0469 -1.6406
v 2.5117 4.0469 -1.5586
v 3.0234 4.0742 -3.5430
v 3.0234 4.0742 3.5156
v -3.0156 4.0742 -3.5430
v -3.0156 4.0742 3.5156
v 2.5391 5.3477 -1.5586
v 2.5391 5.3477 1.5273
v -2.5313 5.3477 -1.5586
v -2.5313 5.3477 1.5273
v 2.4180 6.6484 -0.0273
v 2.4180 6.6484 -0.0273
v -2.4102 6.6484 -0.0273
v -2.4102 6.6484 -0.0273
v 2.1016 4.0742 -2.8906
v 2.1016 4.0742 2.8633
v -2.4570 4.0742 2.8633
v -2.4570 4.0742 -2.8906
vt 0.9531 0.0000
vt 0.0000 0.2188
vt 0.0000 0.0000
vt 0.9531 0.0000
vt 0.9531 0.2188
vt 0.0000 0.2188
vt 0.9531 0.0000
vt 0.0000 0.2188
vt 0.0000 0.0000
vt 0.9531 0.0000
vt 0.9531 0.2188
vt 0.0000 0.2188
vt 0.9531 0.0000
vt 0.0000 0.2188
vt 0.0000 0.0000
vt 0.9531 0.0000
vt 0.9531 0.2188
vt 0.0000 0.2188
vt 0.9531 0.0000
vt 0.0000 0.2188
vt 0.0000 0.0000
vt 0.9531 0.0000
vt 0.9531 0.2188
vt 0.0000 0.2188
vt 0.9531 0.0000
vt 0.0000 0.2188
vt 0.0000 0.0000
vt 0.9531 0.0000
vt 0.9531 0.2188
vt 0.0000 0.2188
vt 0.9531 0.0000
vt 0.0000 0.2188
vt 0.0000 0.0000
vt 0.9531 0.0000
vt 0.9531 0.2188
vt 0.0000 0.2188
vt 0.9531 0.0000
vt 0.0000 0.2188
vt 0.0000 0.0000
vt 0.9531 0.0000
vt 0.9531 0.2188
vt 0.0000 0.2188
vt 0.9531 0.0000
vt 0.0000 0.2188
vt 0.0000 0.0000
vt 0.9531 0.0000
vt 0.9531 0.2188
vt 0.0000 0.2188
vt 0.9531 0.0000
vt 0.0000 0.2188
vt 0.0000 0.0000
vt 0.9531 0.0000
vt 0.9531 0.2188
vt 0.0000 0.2188
vt 0.9531 0.0000
vt 0.0000 0.2188
vt 0.0000 0.0000
vt 0.9531 0.0000
vt 0.9531 0.2188
vt 0.0000 0.2188
vt 0.0938 0.8906
vt 0.0938 0.8906
vt 0.8594 0.8906
vt 0.8594 0.8906
vt 0.8594 0.8906
vt 0.0938 0.8906
vt 0.0313 0.4063
vt 0.9219 0.4063
vt 0.6563 0.6250
vt 0.6563 0.6250
vt 0.2969 0.6250
vt 0.0313 0.4063
vt 0.0000 0.4063
vt 0.8594 0.4063
vt 0.8438 0.8906
vt 0.8438 0.8906
vt 0.0156 0.8906
vt 0.0000 0.4063
vt 0.9219 0.4063
vt 0.0313 0.4063
vt 0.2969 0.6250
vt 0.2969 0.6250
vt 0.6563 0.6250
vt 0.9219 0.4063
vt 0.0000 0.4063
vt 0.8594 0.4063
vt 0.8438 0.8906
vt 0.8438 0.8906
vt 0.0156 0.8906
vt 0.0000 0.4063
vt 0.2969 0.6250
vt 0.6563 0.6250
vt 0.4688 0.8594
vt 0.0938 0.8906
vt 0.0938 0.8906
vt 0.0781 0.7188
vt 0.0000 0.3125
vt 0.9531 0.3125
vt 0.9063 0.8906
vt 0.9063 0.8906
vt 0.0625 0.8906
vt 0.0000 0.3125
vt 0.6563 0.6250
vt 0.2969 0.6250
vt 0.4688 0.8594
vt 0.4688 0.8594
vt 0.4688 0.8594
vt 0.6563 0.6250
vt 0.0000 0.3125
vt 0.9531 0.3125
vt 0.9063 0.8906
vt 0.9063 0.8906
vt 0.0625 0.8906
vt 0.0000 0.3125
vt 0.9063 0.2656
vt 0.2500 0.2656
vt 0.2500 0.0000
vt 0.2500 0.0000
vt 0.9063 0.0000
vt 0.9063 0.2656
vt 0.9063 0.2656
vt 0.2500 0.2656
vt 0.2500 0.0000
vt 0.2500 0.0000
vt 0.9063 0.0000
vt 0.9063 0.2656
vt 0.9063 0.2656
vt 0.2500 0.2656
vt 0.2500 0.0000
vt 0.2500 0.0000
vt 0.9063 0.0000
vt 0.9063 0.2656
vt 0.9063 0.2656
vt 0.2500 0.2656
vt 0.2500 0.0000
vt 0.2500 0.0000
vt 0.9063 0.0000
vt 0.9063 0.2656
f 1/1 6/3 7/2
f 1/4 7/6 2/5
f 2/7 7/9 8/8
f 2/10 8/12 3/11
f 3/13 8/15 9/14
f 3/16 9/18 4/17
f 4/19 9/21 10/20
f 4/22 10/24 5/23
f 5/25 10/27 6/26
f 5/28 6/30 1/29
f 11/31 16/33 17/32
f 11/34 17/36 12/35
f 12/37 17/39 18/38
f 12/40 18/42 13/41
f 13/43 18/45 19/44
f 13/46 19/48 14/47
f 14/49 19/51 20/50
f 14/52 20/54 15/53
f 15/55 20/57 16/56
f 15/58 16/60 11/59
f 29/61 32/63 30/62
f 32/64 29/66 31/65
f 21/67 26/69 22/68
f 26/70 21/72 25/71
f 22/73 28/75 24/74
f 28/76 22/78 26/77
f 24/79 27/81 23/80
f 27/82 24/84 28/83
f 23/85 25/87 21/86
f 25/88 23/90 27/89
f 25/91 30/93 26/92
f 30/94 25/96 29/95
f 26/97 32/99 28/98
f 32/100 26/102 30/101
f 28/103 31/105 27/104
f 31/106 28/108 32/107
f 27/109 29/111 25/110
f 29/112 27/114 31/113
f 33/115 22/117 34/116
f 22/118 33/120 21/119
f 34/121 24/123 35/122
f 24/124 34/126 22/125
f 35/127 23/129 36/128
f 23/130 35/132 24/131
f 36/133 21/135 33/134
f 21/136 36/138 23/137
