g Object
v -0.3320 1.3750 -0.7148
v -0.5313 1.3398 -0.0391
v -0.5078 1.2969 -0.0156
v -0.5703 1.3008 -0.0313
v -0.5352 1.2500 -0.0508
v -0.5234 1.4805 -0.0352
v -0.5352 1.3203 -0.0195
v -0.6484 1.2773 0.3438
v -0.6172 1.2500 0.3477
v -0.6797 1.2539 0.3320
v -0.5352 1.1133 -0.0742
v -0.5391 1.2695 -0.0273
v -0.6484 1.2266 0.3398
vt 0.6875 -3.0000
vt 0.5625 -3.0000
vt 0.6875 -2.0625
vt 0.6875 -2.0625
vt 0.5625 -3.0000
vt 0.6875 -3.0000
vt 0.6875 -3.0000
vt 0.6875 -2.0625
vt 0.8750 -3.0000
vt 0.6875 -2.0625
vt 0.6875 -3.0000
vt 0.8750 -3.0000
vt 0.2500 -2.0625
vt 0.3125 -2.1875
vt 0.1875 -3.0000
vt 0.0000 -2.6875
vt 0.0000 -2.6875
vt 0.0625 -3.0000
vt 0.0625 -3.0000
vt 0.0000 -3.0000
vt 0.0000 -2.6875
vt 0.1875 -3.0000
vt 0.3125 -2.1875
vt 0.2500 -2.0625
vt 0.0000 -2.6875
vt 0.0000 -3.0000
vt 0.0625 -3.0000
vt 0.0625 -3.0000
vt 0.0000 -2.6875
vt 0.0000 -2.6875
vt 0.0000 -3.0000
vt 0.0625 -3.0000
vt 0.0625 -3.0000
vt 0.2500 -2.0625
vt 0.1875 -3.0000
vt 0.3125 -2.1875
vt 0.1250 -2.6875
vt 0.0625 -3.0000
vt 0.0000 -2.6875
vt 0.0625 -3.0000
vt 0.1250 -2.6875
vt 0.1250 -3.0000
vt 0.1875 -3.0000
vt 0.2500 -2.0625
vt 0.3125 -2.1875
vt 0.1250 -2.6875
vt 0.0625 -3.0000
vt 0.1250 -3.0000
vt 0.0625 -3.0000
vt 0.1250 -2.6875
vt 0.0000 -2.6875
vt 0.1250 -3.0000
vt 0.0625 -3.0000
vt 0.0625 -3.0000
vt 0.2500 -2.0625
vt 0.1250 -2.3125
vt 0.1875 -3.0000
vt 0.1875 -3.0000
vt 0.1250 -2.3125
vt 0.2500 -2.0625
vt 0.1250 -2.3125
vt 0.2500 -2.0625
vt 0.1875 -3.0000
vt 0.2500 -2.0625
vt 0.1250 -2.3125
vt 0.1875 -3.0000
f 3/1 1/3 2/2
f 1/4 4/6 2/5
f 3/7 5/9 1/8
f 1/10 5/12 4/11
f 3/13 6/15 7/14
f 7/16 9/18 3/17
f 9/19 7/21 8/20
f 6/22 4/24 7/23
f 7/25 10/27 8/26
f 10/28 7/30 4/29
f 8/31 10/33 9/32
f 3/34 12/36 11/35
f 12/37 3/39 9/38
f 9/40 13/42 12/41
f 11/43 12/45 4/44
f 12/46 13/48 10/47
f 10/49 4/51 12/50
f 13/52 9/54 10/53
f 4/55 6/57 2/56
f 11/58 4/60 5/59
f 2/61 6/63 3/62
f 3/64 11/66 5/65
