g Object
v 1.6992 0.0000 0.0898
v -2.0156 0.0000 0.0039
v 1.6992 0.0000 -0.0859
v -2.0156 0.0000 0.0000
v 1.6992 3.7188 0.0000
v -2.0156 3.7188 0.0000
vt 0.0000 2.0000
vt 0.0000 2.0000
vt 0.9922 2.0000
vt 0.9922 2.0000
vt 0.9922 2.0000
vt 0.0000 2.0000
vt 0.0000 2.0000
vt 0.9922 2.0000
vt 0.9922 0.9922
vt 0.9922 0.9922
vt 0.0000 0.9922
vt 0.0000 2.0000
vt 0.9922 2.0000
vt 0.9922 2.0000
vt 0.9922 0.9922
vt 0.9922 2.0000
vt 0.0000 2.0000
vt 0.0000 0.9922
vt 0.0000 0.9922
vt 0.9922 0.9922
vt 0.9922 2.0000
vt 0.0000 2.0000
vt 0.0000 2.0000
vt 0.0000 0.9922
f 1/1 4/3 3/2
f 4/4 1/6 2/5
f 1/7 6/9 2/8
f 6/10 1/12 5/11
f 2/13 6/15 4/14
f 4/16 5/18 3/17
f 5/19 4/21 6/20
f 3/22 5/24 1/23
