g Object
v -0.4531 1.6406 -1.0430
v -0.4648 2.2461 -0.8516
v -0.5039 1.6523 -0.7930
v -0.6992 1.5547 0.3594
v -0.5664 1.6016 -0.8672
v -0.5547 1.6016 -0.8047
v -0.7539 1.5039 0.3438
v -0.4297 1.5898 -0.8398
v -0.4609 1.5898 -0.7852
v -0.6563 1.5039 0.3633
v -0.5703 0.9727 -0.7227
v -0.5117 1.5391 -0.7930
v -0.7109 1.4531 0.3594
v -0.4805 0.9727 -1.1367
v -0.3477 2.8125 0.2266
v -0.3203 2.7109 0.0586
v -0.2852 2.8750 -0.0820
v -0.2930 2.6250 -0.0625
v -0.2852 3.0273 -0.0820
v -0.3398 3.0898 0.1875
v -0.3125 3.1289 0.0586
v -0.2227 2.7891 0.1719
v -0.1875 3.0781 0.1211
v -0.1953 3.0391 0.0156
v -0.2227 2.7109 0.0000
v -0.1953 2.9023 0.0273
v -0.4531 2.7891 0.1406
v -0.4531 3.0898 0.0664
v -0.4063 3.0508 -0.0273
v -0.3867 2.7109 -0.0273
v -0.4180 2.9023 -0.0078
v -0.3516 2.9648 0.2383
v 0.0859 2.6250 0.2070
v -0.1094 2.5234 0.1875
v -0.0703 2.6133 0.3359
v -0.0273 2.5742 0.0195
v -0.0469 2.1719 0.2930
v 0.0000 2.2461 0.4102
v 0.1094 2.2070 0.3633
v 0.0469 2.1836 0.2383
v 0.1172 1.7656 0.2188
v 0.1992 1.7656 0.2578
v 0.1602 1.8047 0.1328
v 0.0195 2.1094 0.4180
v -0.2578 1.3281 -0.0742
v -0.3281 1.4414 0.4023
v -0.3281 2.0703 0.3984
v -0.3047 1.4766 0.1797
v -0.3594 2.7734 0.3320
v -0.3242 2.6758 0.0391
v -0.2578 2.0586 -0.0547
v -0.3203 2.5234 -0.0625
v -0.1875 0.7070 0.1133
v -0.1563 0.9375 0.0664
v -0.0313 1.5273 0.0391
v 0.0586 1.4883 0.3359
v -0.1055 1.4414 0.4648
v -0.0039 2.0430 0.1797
v 0.0195 1.4883 0.3164
v -0.0391 1.5273 0.0664
v -0.1211 1.4414 0.4414
v 0.2031 2.6992 0.2188
v -0.0742 2.8242 0.1875
v -0.0547 2.0430 0.0547
v 0.1680 1.6680 0.0742
v 0.0508 1.6289 0.0000
v 0.1289 1.6680 0.0820
v 0.1172 1.4648 0.1680
v 0.0820 1.4766 0.0391
v -0.1328 0.7461 0.3438
v 0.0586 0.7227 0.2305
v 0.0195 0.6836 0.0078
v -0.0977 0.9375 0.2109
v -0.1680 0.2813 0.2461
v 0.0000 0.2695 0.2969
v -0.0547 0.2539 0.1797
v -0.1758 0.0156 0.3906
v -0.0234 0.0156 0.4023
v -0.2305 0.0039 -0.1406
v 0.0234 0.0273 -0.1523
v 0.0078 0.9492 0.1875
v 0.0117 0.9492 -0.0078
v -0.1133 2.0703 0.3711
v 0.1797 1.6172 0.2266
v 0.2227 1.6172 0.2109
v -0.7500 2.5625 0.1680
v -0.5430 2.4844 0.2305
v -0.6172 2.5859 0.3438
v -0.5781 2.5117 0.0391
v -0.6328 2.1094 0.2656
v -0.7461 2.1719 0.3359
v -0.8008 2.1328 0.2305
v -0.6758 2.1211 0.1680
v -0.6875 1.6797 0.1719
v -0.7813 1.6914 0.1797
v -0.7109 1.7031 0.0664
v -0.7617 2.0430 0.3359
v -0.3242 0.6953 0.2070
v -0.3633 0.9219 0.1328
v -0.5352 1.4883 -0.0195
v -0.6992 1.4883 0.2383
v -0.5664 1.4883 0.4102
v -0.5664 2.0586 0.1016
v -0.6563 1.4883 0.2305
v -0.5313 1.4883 0.0000
v -0.5430 1.4883 0.3906
v -0.8633 2.6367 0.1211
v -0.5977 2.8398 0.1016
v -0.4805 2.0586 0.0000
v -0.7070 1.5664 0.0195
v -0.6211 1.5547 -0.1016
v -0.6563 1.5664 0.0273
v -0.6602 1.3633 0.1250
v -0.6094 1.3633 0.0000
v -0.4297 0.7227 0.4180
v -0.6016 0.6953 0.2656
v -0.5078 0.6602 0.0547
v -0.4688 0.9375 0.2773
v -0.3672 0.2422 0.3047
v -0.5352 0.2539 0.3633
v -0.4922 0.2305 0.2500
v -0.3555 -0.0039 0.4180
v -0.4766 0.0156 0.5039
v -0.6719 0.0039 -0.0469
v -0.8555 0.0156 0.1250
v -0.5664 0.9219 0.2266
v -0.5078 0.9102 0.0352
v -0.5117 2.0703 0.3164
v -0.7070 1.5273 0.1797
v -0.7617 1.5273 0.1602
v -0.5977 2.8398 0.1016
v 0.2031 2.6992 0.2188
vt 0.2188 0.2969
vt 0.2188 0.1719
vt 0.3125 0.2969
vt 0.2188 0.1719
vt 0.2188 0.2969
vt 0.3125 0.2969
vt 0.3125 0.2969
vt 0.3125 0.2969
vt 0.2188 0.1719
vt 0.3750 0.5938
vt 0.3750 0.5781
vt 0.0000 0.5781
vt 0.0000 0.5781
vt 0.0000 0.5938
vt 0.3750 0.5938
vt 0.3125 0.2969
vt 0.2188 0.1719
vt 0.2188 0.2969
vt 0.2188 0.1719
vt 0.3125 0.2969
vt 0.3125 0.2969
vt 0.3125 0.2969
vt 0.2188 0.2969
vt 0.2188 0.1719
vt 0.3750 0.5938
vt 0.0000 0.5938
vt 0.0000 0.5781
vt 0.0000 0.5781
vt 0.3750 0.5781
vt 0.3750 0.5938
vt 0.0000 0.5938
vt 0.0000 0.5781
vt 0.0000 0.5781
vt 0.2813 0.1406
vt 0.2188 0.1406
vt 0.2188 0.0156
vt 0.3125 0.0000
vt 0.2969 0.1406
vt 0.2813 0.1406
vt 0.2969 0.1406
vt 0.3125 0.0000
vt 0.2969 0.1406
vt 0.3750 0.5469
vt 0.0000 0.5781
vt 0.3750 0.5781
vt 0.0000 0.5781
vt 0.3750 0.5469
vt 0.0000 0.5469
vt 0.2188 0.1406
vt 0.2813 0.1406
vt 0.2188 0.0156
vt 0.3125 0.0000
vt 0.2969 0.1406
vt 0.2969 0.1406
vt 0.2969 0.1406
vt 0.3125 0.0000
vt 0.2813 0.1406
vt 0.3750 0.5469
vt 0.0000 0.5781
vt 0.0000 0.5469
vt 0.0000 0.5781
vt 0.3750 0.5469
vt 0.3750 0.5781
vt 0.0000 0.5469
vt 0.0000 0.5781
vt 0.0000 0.5781
vt 0.2188 0.0156
vt 0.2813 0.1406
vt 0.3125 0.0000
vt 0.2813 0.1406
vt 0.2188 0.0156
vt 0.3125 0.0000
vt 0.7500 0.8438
vt 0.9688 0.8438
vt 0.7500 0.5938
vt 0.9688 0.8438
vt 0.9688 0.6094
vt 0.7500 0.5938
vt 0.8438 0.4531
vt 0.9688 0.3750
vt 0.6406 0.3750
vt 0.8438 0.4531
vt 0.6406 0.3750
vt 0.7500 0.5938
vt 0.6406 0.3750
vt 0.6406 0.8438
vt 0.7500 0.5938
vt 0.7500 0.8438
vt 0.7500 0.5938
vt 0.6406 0.8438
vt 0.9844 0.3906
vt 0.8438 0.4531
vt 0.9688 0.6094
vt 0.8438 0.4531
vt 0.7500 0.5938
vt 0.9688 0.6094
vt 0.9688 0.3750
vt 0.8438 0.4531
vt 0.9844 0.3906
vt 0.5000 0.8594
vt 0.6406 0.8438
vt 0.6406 0.3750
vt 0.5000 0.3750
vt 0.5000 0.6719
vt 0.6406 0.3750
vt 0.9688 0.8438
vt 0.7500 0.8438
vt 0.6875 0.9688
vt 0.6875 0.9688
vt 0.7500 0.8438
vt 0.6406 0.8438
vt 0.5000 0.8594
vt 0.6875 0.9688
vt 0.6406 0.8438
vt 0.7500 0.8438
vt 0.7500 0.5938
vt 0.9688 0.8438
vt 0.9688 0.8438
vt 0.7500 0.5938
vt 0.9688 0.6094
vt 0.8438 0.4531
vt 0.6406 0.3750
vt 0.9688 0.3750
vt 0.8438 0.4531
vt 0.7500 0.5938
vt 0.6406 0.3750
vt 0.6406 0.3750
vt 0.7500 0.5938
vt 0.6406 0.8438
vt 0.7500 0.8438
vt 0.6406 0.8438
vt 0.7500 0.5938
vt 0.9844 0.3906
vt 0.9688 0.6094
vt 0.8438 0.4531
vt 0.8438 0.4531
vt 0.9688 0.6094
vt 0.7500 0.5938
vt 0.9688 0.3750
vt 0.9844 0.3906
vt 0.8438 0.4531
vt 0.5000 0.8594
vt 0.6406 0.3750
vt 0.6406 0.8438
vt 0.5000 0.3750
vt 0.6406 0.3750
vt 0.5000 0.6719
vt 0.9688 0.8438
vt 0.6875 0.9688
vt 0.7500 0.8438
vt 0.6875 0.9688
vt 0.6406 0.8438
vt 0.7500 0.8438
vt 0.5000 0.8594
vt 0.6406 0.8438
vt 0.6875 0.9688
vt 0.5000 0.6719
vt 0.6406 0.3750
vt 0.5000 0.8594
vt 0.5000 0.6719
vt 0.5000 0.8594
vt 0.6406 0.3750
vt 0.7500 0.3594
vt 0.7344 0.1719
vt 0.8438 0.3594
vt 0.9063 0.1875
vt 0.8594 0.3594
vt 0.9063 0.3750
vt 0.7344 0.1719
vt 0.7500 0.3594
vt 0.8438 0.3594
vt 0.9688 0.3750
vt 0.9688 0.1875
vt 0.9063 0.3750
vt 0.8438 0.1875
vt 0.8438 0.3594
vt 0.7344 0.1719
vt 0.9688 0.1875
vt 0.9063 0.1875
vt 0.9063 0.3750
vt 0.8594 0.2031
vt 0.8594 0.3594
vt 0.9063 0.1875
vt 0.8438 0.3594
vt 0.8594 0.2031
vt 0.7344 0.1719
vt 0.7656 0.0000
vt 0.7344 0.1719
vt 0.8594 0.0000
vt 0.9063 0.1875
vt 0.9844 0.0000
vt 0.9219 0.0000
vt 0.9688 0.1875
vt 0.9844 0.0000
vt 0.9063 0.1875
vt 0.8281 0.0000
vt 0.8438 0.1875
vt 0.7344 0.1719
vt 0.7344 0.1719
vt 0.7656 0.0000
vt 0.8281 0.0000
vt 0.8594 0.1563
vt 0.8594 0.0000
vt 0.7344 0.1719
vt 0.9063 0.1875
vt 0.9219 0.0000
vt 0.8594 0.1563
vt 0.9063 0.1875
vt 0.8594 0.1563
vt 0.8594 0.2031
vt 0.7344 0.1719
vt 0.8594 0.2031
vt 0.8594 0.1563
vt 0.3438 0.6094
vt 0.2344 0.3594
vt 0.2344 0.6094
vt 0.2344 0.3594
vt 0.3438 0.6094
vt 0.3438 0.3594
vt 0.3438 0.3594
vt 0.4844 0.6094
vt 0.4844 0.3125
vt 0.5469 0.9375
vt 0.5469 0.9375
vt 0.5469 0.9375
vt 0.5469 0.9375
vt 0.5469 0.9375
vt 0.5313 0.9375
vt 0.5469 0.9375
vt 0.5469 0.9375
vt 0.5469 0.9375
vt 0.5469 0.9375
vt 0.5469 0.9375
vt 0.5469 0.9375
vt 0.5313 0.9375
vt 0.5313 0.9375
vt 0.5469 0.9375
vt 0.5469 0.9375
vt 0.5469 0.9375
vt 0.5313 0.9375
vt 0.5313 0.9375
vt 0.5313 0.9375
vt 0.5469 0.9375
vt 0.2344 0.6094
vt 0.2500 0.8281
vt 0.3594 0.8594
vt 0.3594 0.8594
vt 0.3438 0.6094
vt 0.2344 0.6094
vt 0.3594 0.8594
vt 0.4844 0.8438
vt 0.3438 0.6094
vt 0.3438 0.3594
vt 0.3438 0.6094
vt 0.4844 0.6094
vt 0.4844 0.6094
vt 0.3438 0.6094
vt 0.4844 0.8438
vt 0.3281 0.1719
vt 0.2344 0.1563
vt 0.3281 0.1719
vt 0.3281 0.2969
vt 0.2344 0.1563
vt 0.3281 0.1719
vt 0.3281 0.1719
vt 0.3281 0.2969
vt 0.4531 0.2969
vt 0.3281 0.1719
vt 0.3438 0.0313
vt 0.4531 0.0625
vt 0.3281 0.2969
vt 0.3281 0.1719
vt 0.4688 0.2969
vt 0.4531 0.2969
vt 0.4688 0.2031
vt 0.3281 0.1719
vt 0.4688 0.2031
vt 0.4531 0.2969
vt 0.4688 0.2969
vt 0.4688 0.2031
vt 0.3281 0.1719
vt 0.4531 0.0625
vt 0.4531 0.0625
vt 0.3438 0.0313
vt 0.3281 0.1719
vt 0.3438 0.0313
vt 0.3281 0.1719
vt 0.3281 0.1719
vt 0.2344 0.1563
vt 0.3281 0.2969
vt 0.3281 0.1719
vt 0.4844 0.9844
vt 0.4844 0.9063
vt 0.3594 0.9844
vt 0.6719 0.1563
vt 0.5625 0.0000
vt 0.6406 0.0000
vt 0.5625 0.0000
vt 0.6406 0.1563
vt 0.6406 0.0000
vt 0.7188 0.0000
vt 0.7188 0.1563
vt 0.6719 0.1563
vt 0.6719 0.1563
vt 0.5625 0.1406
vt 0.5625 0.0000
vt 0.5625 0.0000
vt 0.5625 0.1406
vt 0.6406 0.1563
vt 0.5469 0.9375
vt 0.5313 0.9375
vt 0.5313 0.9375
vt 0.7188 0.1563
vt 0.6406 0.1563
vt 0.6406 0.3594
vt 0.7188 0.0000
vt 0.6719 0.1563
vt 0.6406 0.0000
vt 0.7188 0.1563
vt 0.6094 0.3594
vt 0.6719 0.1563
vt 0.6406 0.3594
vt 0.7344 0.3594
vt 0.7188 0.1563
vt 0.7188 0.1563
vt 0.7344 0.3594
vt 0.6094 0.3594
vt 0.0156 0.1406
vt 0.1094 0.3125
vt 0.0469 0.0000
vt 0.1094 0.3125
vt 0.2188 0.3125
vt 0.2031 0.1406
vt 0.0156 0.1406
vt 0.1094 0.3125
vt 0.1094 0.1406
vt 0.0000 0.3125
vt 0.1094 0.3125
vt 0.0156 0.1406
vt 0.1094 0.3125
vt 0.2188 0.3125
vt 0.2031 0.1406
vt 0.0469 0.0000
vt 0.1094 0.3125
vt 0.1719 0.0000
vt 0.1094 0.1406
vt 0.0156 0.0156
vt 0.2188 0.0156
vt 0.0156 0.0156
vt 0.1094 0.1406
vt 0.2188 0.0156
vt 0.0000 0.0000
vt 0.1094 0.1406
vt 0.1250 0.0000
vt 0.1094 0.1406
vt 0.0000 0.0000
vt 0.0313 0.1406
vt 0.0156 0.1406
vt 0.0000 0.3125
vt 0.1094 0.3125
vt 0.1094 0.3125
vt 0.2031 0.1406
vt 0.1719 0.0000
vt 0.1094 0.3125
vt 0.2031 0.1406
vt 0.1094 0.1406
vt 0.1719 0.1406
vt 0.1094 0.1406
vt 0.2031 0.0000
vt 0.0000 0.9219
vt 0.1719 0.8750
vt 0.0000 0.6094
vt 0.3594 0.8594
vt 0.4844 0.9063
vt 0.4844 0.8438
vt 0.1094 0.1406
vt 0.0000 0.0000
vt 0.2031 0.0000
vt 0.1094 0.1406
vt 0.0469 0.1406
vt 0.0000 0.0000
vt 0.7188 0.0000
vt 0.6406 0.0000
vt 0.6406 0.1563
vt 0.7188 0.0000
vt 0.6406 0.1563
vt 0.7188 0.1563
vt 0.6719 0.1563
vt 0.6094 0.3594
vt 0.5625 0.1406
vt 0.5625 0.1406
vt 0.6094 0.3594
vt 0.5469 0.3594
vt 0.5625 0.1406
vt 0.5469 0.3594
vt 0.6406 0.3594
vt 0.1094 0.6094
vt 0.2344 0.6094
vt 0.2500 0.3594
vt 0.0000 0.6094
vt 0.1094 0.6094
vt 0.0000 0.3594
vt 0.1563 0.3594
vt 0.0000 0.3594
vt 0.1094 0.6094
vt 0.1563 0.3594
vt 0.1094 0.6094
vt 0.2500 0.3594
vt 0.1094 0.6094
vt 0.0000 0.6094
vt 0.1719 0.8750
vt 0.1719 0.8750
vt 0.2344 0.8281
vt 0.1094 0.6094
vt 0.1094 0.6094
vt 0.2344 0.8281
vt 0.2344 0.6094
vt 0.6406 0.1563
vt 0.5625 0.1406
vt 0.6406 0.3594
vt 0.5625 0.9688
vt 0.5625 0.9844
vt 0.5313 0.9844
vt 0.5938 0.9688
vt 0.5625 0.9688
vt 0.5625 0.9844
vt 0.4531 0.0625
vt 0.4688 0.2031
vt 0.4688 0.2031
vt 0.4688 0.2031
vt 0.4531 0.0625
vt 0.3281 0.1719
vt 0.4688 0.2031
vt 0.4688 0.2031
vt 0.4688 0.2969
vt 0.4688 0.2969
vt 0.3281 0.1719
vt 0.4688 0.2031
vt 0.7500 0.3594
vt 0.8438 0.3594
vt 0.7344 0.1719
vt 0.9063 0.1875
vt 0.9063 0.3750
vt 0.8594 0.3594
vt 0.7344 0.1719
vt 0.8438 0.3594
vt 0.7500 0.3594
vt 0.9688 0.3750
vt 0.9063 0.3750
vt 0.9688 0.1875
vt 0.8438 0.1875
vt 0.7344 0.1719
vt 0.8438 0.3594
vt 0.9688 0.1875
vt 0.9063 0.3750
vt 0.9063 0.1875
vt 0.8594 0.2031
vt 0.9063 0.1875
vt 0.8594 0.3594
vt 0.8438 0.3594
vt 0.7344 0.1719
vt 0.8594 0.2031
vt 0.7656 0.0000
vt 0.8594 0.0000
vt 0.7344 0.1719
vt 0.9063 0.1875
vt 0.9219 0.0000
vt 0.9844 0.0000
vt 0.9688 0.1875
vt 0.9063 0.1875
vt 0.9844 0.0000
vt 0.8281 0.0000
vt 0.7344 0.1719
vt 0.8438 0.1875
vt 0.7344 0.1719
vt 0.8281 0.0000
vt 0.7656 0.0000
vt 0.8594 0.1563
vt 0.7344 0.1719
vt 0.8594 0.0000
vt 0.9063 0.1875
vt 0.8594 0.1563
vt 0.9219 0.0000
vt 0.9063 0.1875
vt 0.8594 0.2031
vt 0.8594 0.1563
vt 0.7344 0.1719
vt 0.8594 0.1563
vt 0.8594 0.2031
vt 0.3438 0.6094
vt 0.2344 0.6094
vt 0.2344 0.3594
vt 0.2344 0.3594
vt 0.3438 0.3594
vt 0.3438 0.6094
vt 0.3438 0.3594
vt 0.4844 0.3125
vt 0.4844 0.6094
vt 0.5469 0.9375
vt 0.5469 0.9375
vt 0.5469 0.9375
vt 0.5469 0.9375
vt 0.5313 0.9375
vt 0.5469 0.9375
vt 0.5469 0.9375
vt 0.5469 0.9375
vt 0.5469 0.9375
vt 0.5469 0.9375
vt 0.5469 0.9375
vt 0.5469 0.9375
vt 0.5313 0.9375
vt 0.5469 0.9375
vt 0.5313 0.9375
vt 0.5469 0.9375
vt 0.5313 0.9375
vt 0.5469 0.9375
vt 0.5313 0.9375
vt 0.5469 0.9375
vt 0.5313 0.9375
vt 0.2344 0.6094
vt 0.3594 0.8594
vt 0.2500 0.8281
vt 0.3594 0.8594
vt 0.2344 0.6094
vt 0.3438 0.6094
vt 0.3594 0.8594
vt 0.3438 0.6094
vt 0.4844 0.8438
vt 0.3438 0.3594
vt 0.4844 0.6094
vt 0.3438 0.6094
vt 0.4844 0.6094
vt 0.4844 0.8438
vt 0.3438 0.6094
vt 0.3281 0.1719
vt 0.3281 0.1719
vt 0.2344 0.1563
vt 0.3281 0.2969
vt 0.3281 0.1719
vt 0.2344 0.1563
vt 0.3281 0.1719
vt 0.4531 0.2969
vt 0.3281 0.2969
vt 0.3281 0.1719
vt 0.4531 0.0625
vt 0.3438 0.0313
vt 0.3281 0.2969
vt 0.4688 0.2969
vt 0.3281 0.1719
vt 0.4531 0.2969
vt 0.3281 0.1719
vt 0.4688 0.2031
vt 0.4688 0.2031
vt 0.4688 0.2969
vt 0.4531 0.2969
vt 0.4688 0.2031
vt 0.4531 0.0625
vt 0.3281 0.1719
vt 0.4531 0.0625
vt 0.3281 0.1719
vt 0.3438 0.0313
vt 0.3438 0.0313
vt 0.3281 0.1719
vt 0.3281 0.1719
vt 0.2344 0.1563
vt 0.3281 0.1719
vt 0.3281 0.2969
vt 0.4844 0.9844
vt 0.3594 0.9844
vt 0.4844 0.9063
vt 0.6719 0.1563
vt 0.6406 0.0000
vt 0.5625 0.0000
vt 0.5625 0.0000
vt 0.6406 0.0000
vt 0.6406 0.1563
vt 0.7188 0.0000
vt 0.6719 0.1563
vt 0.7188 0.1563
vt 0.6719 0.1563
vt 0.5625 0.0000
vt 0.5625 0.1406
vt 0.5625 0.0000
vt 0.6406 0.1563
vt 0.5625 0.1406
vt 0.5469 0.9375
vt 0.5313 0.9375
vt 0.5313 0.9375
vt 0.7188 0.1563
vt 0.6406 0.3594
vt 0.6406 0.1563
vt 0.7188 0.0000
vt 0.6406 0.0000
vt 0.6719 0.1563
vt 0.7188 0.1563
vt 0.6719 0.1563
vt 0.6094 0.3594
vt 0.6406 0.3594
vt 0.7188 0.1563
vt 0.7344 0.3594
vt 0.7188 0.1563
vt 0.6094 0.3594
vt 0.7344 0.3594
vt 0.0156 0.1406
vt 0.0469 0.0000
vt 0.1094 0.3125
vt 0.1094 0.3125
vt 0.2031 0.1406
vt 0.2188 0.3125
vt 0.0156 0.1406
vt 0.1094 0.1406
vt 0.1094 0.3125
vt 0.0000 0.3125
vt 0.0156 0.1406
vt 0.1094 0.3125
vt 0.1094 0.3125
vt 0.2031 0.1406
vt 0.2188 0.3125
vt 0.0469 0.0000
vt 0.1719 0.0000
vt 0.1094 0.3125
vt 0.1094 0.1406
vt 0.2188 0.0156
vt 0.0156 0.0156
vt 0.0156 0.0156
vt 0.2188 0.0156
vt 0.1094 0.1406
vt 0.0000 0.0000
vt 0.1250 0.0000
vt 0.1094 0.1406
vt 0.1094 0.1406
vt 0.0313 0.1406
vt 0.0000 0.0000
vt 0.0156 0.1406
vt 0.1094 0.3125
vt 0.0000 0.3125
vt 0.1094 0.3125
vt 0.1719 0.0000
vt 0.2031 0.1406
vt 0.1094 0.3125
vt 0.1094 0.1406
vt 0.2031 0.1406
vt 0.1719 0.1406
vt 0.2031 0.0000
vt 0.1094 0.1406
vt 0.0000 0.9219
vt 0.0000 0.6094
vt 0.1719 0.8750
vt 0.3594 0.8594
vt 0.4844 0.8438
vt 0.4844 0.9063
vt 0.1094 0.1406
vt 0.2031 0.0000
vt 0.0000 0.0000
vt 0.1094 0.1406
vt 0.0000 0.0000
vt 0.0469 0.1406
vt 0.7188 0.0000
vt 0.6406 0.1563
vt 0.6406 0.0000
vt 0.7188 0.0000
vt 0.7188 0.1563
vt 0.6406 0.1563
vt 0.6719 0.1563
vt 0.5625 0.1406
vt 0.6094 0.3594
vt 0.5625 0.1406
vt 0.5469 0.3594
vt 0.6094 0.3594
vt 0.5625 0.1406
vt 0.6406 0.3594
vt 0.5469 0.3594
vt 0.1094 0.6094
vt 0.2500 0.3594
vt 0.2344 0.6094
vt 0.0000 0.6094
vt 0.0000 0.3594
vt 0.1094 0.6094
vt 0.1563 0.3594
vt 0.1094 0.6094
vt 0.0000 0.3594
vt 0.1563 0.3594
vt 0.2500 0.3594
vt 0.1094 0.6094
vt 0.1094 0.6094
vt 0.1719 0.8750
vt 0.0000 0.6094
vt 0.1719 0.8750
vt 0.1094 0.6094
vt 0.2344 0.8281
vt 0.1094 0.6094
vt 0.2344 0.6094
vt 0.2344 0.8281
vt 0.6406 0.1563
vt 0.6406 0.3594
vt 0.5625 0.1406
vt 0.5625 0.9688
vt 0.5313 0.9844
vt 0.5625 0.9844
vt 0.5938 0.9688
vt 0.5625 0.9844
vt 0.5625 0.9688
vt 0.4531 0.0625
vt 0.4688 0.2031
vt 0.4688 0.2031
vt 0.4688 0.2031
vt 0.3281 0.1719
vt 0.4531 0.0625
vt 0.4688 0.2031
vt 0.4688 0.2969
vt 0.4688 0.2031
vt 0.4688 0.2969
vt 0.4688 0.2031
vt 0.3281 0.1719
vt 0.3594 0.9844
vt 0.2344 0.9844
vt 0.3594 0.8594
vt 0.3594 0.9844
vt 0.3594 0.8594
vt 0.4844 0.9063
vt 0.3594 0.9844
vt 0.4844 0.9063
vt 0.3594 0.8594
vt 0.3594 0.9844
vt 0.3594 0.8594
vt 0.2344 0.9844
vt 0.0000 0.9844
vt 0.0000 0.9219
vt 0.0313 0.9844
vt 0.1719 0.9688
vt 0.0313 0.9844
vt 0.0000 0.9219
vt 0.1719 0.9688
vt 0.0000 0.9219
vt 0.0313 0.9844
vt 0.0000 0.9844
vt 0.0313 0.9844
vt 0.0000 0.9219
vt 0.4844 0.9844
vt 0.3594 0.9844
vt 0.4844 0.9063
vt 0.4844 0.9063
vt 0.3594 0.9844
vt 0.4844 0.9844
vt 0.1719 0.9688
vt 0.0000 0.9219
vt 0.1719 0.8750
vt 0.1719 0.9688
vt 0.1719 0.8750
vt 0.2813 0.9688
vt 0.2813 0.9688
vt 0.1719 0.8750
vt 0.1719 0.9688
vt 0.0000 0.9219
vt 0.1719 0.9688
vt 0.1719 0.8750
f 5/1 1/3 2/2
f 2/4 6/6 5/5
f 6/7 2/9 3/8
f 3/10 7/12 6/11
f 7/13 3/15 4/14
f 1/16 8/18 2/17
f 2/19 9/21 3/20
f 9/22 2/24 8/23
f 3/25 10/27 4/26
f 10/28 3/30 9/29
f 4/31 10/33 7/32
f 5/34 14/36 1/35
f 11/37 5/39 6/38
f 6/40 12/42 11/41
f 12/43 6/45 7/44
f 7/46 13/48 12/47
f 1/49 14/51 8/50
f 11/52 12/54 9/53
f 9/55 8/57 11/56
f 12/58 13/60 10/59
f 10/61 9/63 12/62
f 13/64 7/66 10/65
f 14/67 11/69 8/68
f 5/70 11/72 14/71
f 24/73 26/75 19/74
f 19/76 26/78 17/77
f 25/79 22/81 16/80
f 25/82 26/84 22/83
f 22/85 26/87 23/86
f 24/88 23/90 26/89
f 18/91 17/93 25/92
f 25/94 17/96 26/95
f 16/97 18/99 25/98
f 20/100 22/102 23/101
f 15/103 22/105 32/104
f 19/106 21/108 24/107
f 21/109 23/111 24/110
f 20/112 23/114 21/113
f 29/115 19/117 31/116
f 19/118 17/120 31/119
f 30/121 16/123 27/122
f 30/124 27/126 31/125
f 27/127 28/129 31/128
f 29/130 31/132 28/131
f 18/133 30/135 17/134
f 30/136 31/138 17/137
f 16/139 30/141 18/140
f 20/142 28/144 27/143
f 15/145 32/147 27/146
f 19/148 29/150 21/149
f 21/151 29/153 28/152
f 20/154 21/156 28/155
f 32/157 20/159 27/158
f 32/160 22/162 20/161
f 34/163 36/165 37/164
f 39/166 33/168 35/167
f 37/169 35/171 34/170
f 36/172 33/174 40/173
f 40/175 37/177 36/176
f 40/178 33/180 39/179
f 38/181 39/183 35/182
f 35/184 37/186 38/185
f 41/187 42/189 37/188
f 39/190 42/192 43/191
f 40/193 39/195 43/194
f 43/196 37/198 40/197
f 37/199 43/201 41/200
f 44/202 37/204 42/203
f 39/205 44/207 42/206
f 39/208 38/210 44/209
f 37/211 44/213 38/212
f 64/214 58/216 56/215
f 56/217 55/219 64/218
f 55/220 45/222 51/221
f 59/223 60/225 56/224
f 60/226 45/228 55/227
f 56/229 60/231 55/230
f 56/232 57/234 59/233
f 61/235 59/237 57/236
f 57/238 46/240 61/239
f 48/241 61/243 46/242
f 58/244 36/246 34/245
f 36/247 58/249 64/248
f 36/250 64/252 52/251
f 55/253 51/255 64/254
f 51/256 52/258 64/257
f 65/259 67/261 66/260
f 43/262 65/264 66/263
f 67/265 41/267 43/266
f 65/268 68/270 69/269
f 43/271 42/273 65/272
f 41/274 67/276 84/275
f 84/277 42/279 41/278
f 85/280 68/282 65/281
f 68/283 67/285 69/284
f 69/286 67/288 65/287
f 66/289 67/291 43/290
f 16/292 63/294 50/293
f 73/295 70/297 71/296
f 71/298 72/300 82/299
f 53/301 73/303 54/302
f 73/304 71/306 81/305
f 71/307 82/309 81/308
f 60/310 48/312 45/311
f 54/313 60/315 82/314
f 53/316 70/318 73/317
f 54/319 73/321 61/320
f 60/322 54/324 48/323
f 54/325 61/327 48/326
f 74/328 77/330 70/329
f 70/331 75/333 71/332
f 75/334 76/336 72/335
f 71/337 75/339 72/338
f 72/340 74/342 53/341
f 77/343 78/345 70/344
f 74/346 79/348 77/347
f 78/349 80/351 75/350
f 79/352 80/354 78/353
f 78/355 77/357 79/356
f 74/358 70/360 53/359
f 70/361 78/363 75/362
f 72/364 76/366 74/365
f 75/367 80/369 76/368
f 49/370 47/372 35/371
f 36/373 52/375 50/374
f 76/376 80/378 79/377
f 76/379 79/381 74/380
f 53/382 82/384 72/383
f 53/385 54/387 82/386
f 73/388 81/390 61/389
f 81/391 59/393 61/392
f 81/394 60/396 59/395
f 83/397 56/399 58/398
f 47/400 46/402 83/401
f 57/403 83/405 46/404
f 57/406 56/408 83/407
f 83/409 35/411 47/410
f 35/412 83/414 34/413
f 83/415 58/417 34/416
f 82/418 60/420 81/419
f 62/421 35/423 33/422
f 36/424 62/426 33/425
f 68/427 85/429 84/428
f 84/430 67/432 68/431
f 85/433 42/435 84/434
f 42/436 85/438 65/437
f 87/439 90/441 89/440
f 92/442 88/444 86/443
f 90/445 87/447 88/446
f 89/448 93/450 86/449
f 93/451 89/453 90/452
f 93/454 92/456 86/455
f 91/457 88/459 92/458
f 88/460 91/462 90/461
f 94/463 90/465 95/464
f 92/466 96/468 95/467
f 93/469 96/471 92/470
f 96/472 93/474 90/473
f 90/475 94/477 96/476
f 97/478 95/480 90/479
f 92/481 95/483 97/482
f 92/484 97/486 91/485
f 90/487 91/489 97/488
f 109/490 101/492 103/491
f 101/493 109/495 100/494
f 100/496 51/498 45/497
f 104/499 101/501 105/500
f 105/502 100/504 45/503
f 101/505 100/507 105/506
f 101/508 104/510 102/509
f 106/511 102/513 104/512
f 102/514 106/516 46/515
f 48/517 46/519 106/518
f 103/520 87/522 89/521
f 89/523 109/525 103/524
f 89/526 52/528 109/527
f 100/529 109/531 51/530
f 51/532 109/534 52/533
f 110/535 111/537 112/536
f 96/538 111/540 110/539
f 112/541 96/543 94/542
f 110/544 114/546 113/545
f 96/547 110/549 95/548
f 94/550 129/552 112/551
f 129/553 94/555 95/554
f 130/556 110/558 113/557
f 113/559 114/561 112/560
f 114/562 110/564 112/563
f 111/565 96/567 112/566
f 16/568 50/570 108/569
f 118/571 116/573 115/572
f 116/574 127/576 117/575
f 98/577 99/579 118/578
f 118/580 126/582 116/581
f 116/583 126/585 127/584
f 105/586 45/588 48/587
f 99/589 127/591 105/590
f 98/592 118/594 115/593
f 99/595 106/597 118/596
f 105/598 48/600 99/599
f 99/601 48/603 106/602
f 119/604 115/606 122/605
f 115/607 116/609 120/608
f 120/610 117/612 121/611
f 116/613 117/615 120/614
f 117/616 98/618 119/617
f 122/619 115/621 123/620
f 119/622 122/624 124/623
f 123/625 120/627 125/626
f 124/628 123/630 125/629
f 123/631 124/633 122/632
f 119/634 98/636 115/635
f 115/637 120/639 123/638
f 117/640 119/642 121/641
f 120/643 121/645 125/644
f 49/646 88/648 47/647
f 89/649 50/651 52/650
f 121/652 124/654 125/653
f 121/655 119/657 124/656
f 98/658 117/660 127/659
f 98/661 127/663 99/662
f 118/664 106/666 126/665
f 126/667 106/669 104/668
f 126/670 104/672 105/671
f 128/673 103/675 101/674
f 47/676 128/678 46/677
f 102/679 46/681 128/680
f 102/682 128/684 101/683
f 128/685 47/687 88/686
f 88/688 87/690 128/689
f 128/691 87/693 103/692
f 127/694 126/696 105/695
f 107/697 86/699 88/698
f 89/700 86/702 107/701
f 113/703 129/705 130/704
f 129/706 113/708 112/707
f 130/709 129/711 95/710
f 95/712 110/714 130/713
f 108/715 89/717 107/716
f 108/718 50/720 89/719
f 63/721 36/723 50/722
f 63/724 62/726 36/725
f 15/727 27/729 49/728
f 108/730 49/732 27/731
f 63/733 22/735 49/734
f 15/736 49/738 22/737
f 27/739 16/741 108/740
f 16/742 22/744 63/743
f 131/745 88/747 49/746
f 131/748 107/750 88/749
f 132/751 63/753 35/752
f 49/754 35/756 63/755
