g Object
v 0.0391 0.0000 5.0352
v 0.0391 0.0000 -5.0781
v 5.0781 0.0000 -0.0391
v -5.0352 0.0000 -0.0391
v 0.0391 0.0000 -0.0391
v 2.5977 0.0000 5.0352
v 3.4922 0.0000 4.1836
v 5.0781 0.0000 2.5586
v 4.1836 0.0000 3.4531
v 3.4492 0.0000 -4.2617
v 2.5977 0.0000 -5.0781
v 5.0781 0.0000 -2.5977
v 4.1836 0.0000 -3.4922
v -4.2227 0.0000 3.3281
v -5.0352 0.0000 2.4766
v -3.3281 0.0000 4.2227
v -2.4766 0.0000 5.0352
v -2.5586 0.0000 -5.0781
v -3.4102 0.0000 -4.2227
v -4.1836 0.0000 -3.4922
v -5.0352 0.0000 -2.5977
vt 0.0000 0.9844
vt 0.0000 0.4844
vt 0.1719 0.3125
vt 0.9844 0.0000
vt 0.9844 0.9844
vt 0.0000 0.9844
vt 0.0000 0.9844
vt 0.1719 0.3125
vt 0.3125 0.1719
vt 0.9844 0.0000
vt 0.0000 0.9844
vt 0.3125 0.1719
vt 0.9844 0.9844
vt 0.8281 0.3281
vt 0.9844 0.5000
vt 0.3125 0.8281
vt 0.1719 0.6719
vt 0.0000 0.0000
vt 0.9844 0.9844
vt 0.3125 0.8281
vt 0.0000 0.0000
vt 0.9844 0.9844
vt 0.0000 0.0000
vt 0.9844 0.0000
vt 0.4844 0.0000
vt 0.9844 0.0000
vt 0.3125 0.1719
vt 0.3125 0.8281
vt 0.9844 0.9844
vt 0.4844 0.9844
vt 0.0000 0.5000
vt 0.0000 0.0000
vt 0.1719 0.6719
vt 0.6563 0.1563
vt 0.0000 0.0000
vt 0.4844 0.0000
vt 0.0000 0.9844
vt 0.0000 0.0000
vt 0.6563 0.1563
vt 0.9844 0.9844
vt 0.0000 0.9844
vt 0.6563 0.1563
vt 0.8281 0.3281
vt 0.9844 0.9844
vt 0.6563 0.1563
vt 0.5000 0.9844
vt 0.0000 0.9844
vt 0.6719 0.8281
vt 0.8125 0.6719
vt 0.9844 0.0000
vt 0.9844 0.5000
vt 0.0000 0.0000
vt 0.9844 0.0000
vt 0.8125 0.6719
vt 0.0000 0.9844
vt 0.0000 0.0000
vt 0.8125 0.6719
vt 0.6719 0.8281
vt 0.0000 0.9844
vt 0.8125 0.6719
f 3/1 9/3 8/2
f 1/4 3/6 5/5
f 3/7 7/9 9/8
f 1/10 7/12 3/11
f 4/13 15/15 14/14
f 10/16 3/18 13/17
f 2/19 3/21 10/20
f 2/22 5/24 3/23
f 6/25 7/27 1/26
f 10/28 11/30 2/29
f 12/31 13/33 3/32
f 16/34 17/36 1/35
f 5/37 16/39 1/38
f 4/40 16/42 5/41
f 14/43 16/45 4/44
f 18/46 19/48 2/47
f 20/49 21/51 4/50
f 5/52 20/54 4/53
f 2/55 20/57 5/56
f 19/58 20/60 2/59
