g Object
v -0.6367 3.1719 -0.5117
v -0.1016 3.3359 -1.2539
v 0.9414 3.4180 -0.8516
v 1.0117 3.2930 -0.0313
v -0.1250 3.1719 0.1836
v -0.4570 5.3125 -0.3516
v -0.1250 5.7656 -0.7734
v 0.3633 6.1797 -0.5313
v 0.4063 5.9336 0.2656
v -0.1016 5.3945 0.3438
v -2.2188 7.7852 0.6680
v -2.0625 7.9922 0.3867
v -1.7969 8.1992 0.5664
v -1.8164 8.1563 0.8867
v -2.0625 7.9102 0.9883
v -2.6445 10.2578 0.5273
v -0.9688 7.4570 0.2070
v -1.0391 7.0039 -0.1094
v -0.6797 7.0859 0.4648
v -0.4805 7.0039 -0.0313
v -0.5898 8.1172 -0.6719
v -0.6367 7.8672 -0.8125
v -0.4336 7.9102 -0.5313
v -0.3477 7.8672 -0.7930
v -0.5234 9.4766 -1.5117
v 0.6328 4.9023 -0.6719
v 0.2305 4.2852 -0.9336
v 0.7891 4.2852 -0.1719
v 0.8555 3.8711 -0.8125
v 1.8359 5.4375 -1.8125
v 1.5234 5.0664 -1.9531
v 1.7695 5.0664 -1.5117
v 1.9453 4.8203 -1.9141
v 2.9063 6.5078 -2.6953
v -0.3008 4.8203 -0.0508
v -0.1016 5.1484 0.3242
v -0.1250 4.4492 0.2852
v 0.2070 4.8203 0.2266
v -0.9688 5.1484 1.0859
v -0.8594 5.3945 1.2656
v -0.8594 4.9844 1.3281
v -0.6602 5.1484 1.2656
v -2.1953 4.6563 2.2891
v -1.6836 0.0000 -0.5117
v -0.8359 0.0000 -1.7148
v 0.8555 0.0000 -1.0742
v 0.9648 0.0000 0.2266
v -0.8828 0.0000 0.6055
v -0.8594 3.3359 1.3281
v -2.1953 3.3359 2.2891
v 0.8555 2.5938 -0.8125
v 1.9453 2.5938 -1.9141
vt 0.2188 0.6406
vt 0.3750 0.9531
vt 0.2656 0.9531
vt 0.2188 0.6406
vt 0.4219 0.6406
vt 0.3750 0.9531
vt 0.1094 0.5156
vt 0.2188 0.9688
vt 0.1406 0.9688
vt 0.1094 0.5156
vt 0.2656 0.5156
vt 0.2188 0.9688
vt 0.0000 0.5156
vt 0.1094 0.9844
vt 0.0000 0.9844
vt 0.0000 0.5156
vt 0.1094 0.5156
vt 0.1094 0.9844
vt 0.0000 0.5156
vt 0.1094 0.9844
vt 0.0000 0.9844
vt 0.0000 0.5156
vt 0.1094 0.5156
vt 0.1094 0.9844
vt 0.2500 0.5156
vt 0.3438 0.5156
vt 0.2969 0.9844
vt 0.2500 0.5156
vt 0.3438 0.5156
vt 0.2969 0.9844
vt 0.2500 0.5156
vt 0.3438 0.5156
vt 0.2969 0.9844
vt 0.2500 0.5156
vt 0.3438 0.5156
vt 0.2969 0.9844
vt 0.2500 0.5156
vt 0.3438 0.5156
vt 0.2969 0.9844
vt 0.1563 0.5000
vt 0.2969 0.5000
vt 0.2969 0.9688
vt 0.2969 0.9688
vt 0.1563 0.9688
vt 0.1563 0.5000
vt 0.1563 0.5000
vt 0.2969 0.5000
vt 0.2969 0.9688
vt 0.2969 0.9688
vt 0.1563 0.9688
vt 0.1563 0.5000
vt 0.1563 0.5000
vt 0.2969 0.5000
vt 0.2969 0.9688
vt 0.2969 0.9688
vt 0.1563 0.9688
vt 0.1563 0.5000
vt 0.1563 0.5000
vt 0.2969 0.5000
vt 0.2969 0.9688
vt 0.2969 0.9688
vt 0.1563 0.9688
vt 0.1563 0.5000
vt 0.1563 0.5000
vt 0.2969 0.5000
vt 0.2969 0.9688
vt 0.1563 0.5000
vt 0.2969 0.5000
vt 0.2969 0.9688
vt 0.1563 0.5000
vt 0.2969 0.5000
vt 0.2969 0.9688
vt 0.1563 0.5000
vt 0.2969 0.5000
vt 0.2969 0.9688
vt 0.2344 0.7344
vt 0.2656 0.5156
vt 0.2500 0.9531
vt 0.2031 0.9844
vt 0.2031 0.5156
vt 0.2813 0.7344
vt 0.2031 0.9844
vt 0.2813 0.7344
vt 0.3438 0.8281
vt 0.2031 0.9844
vt 0.3438 0.8281
vt 0.3438 0.9844
vt 0.2813 0.7344
vt 0.2031 0.5156
vt 0.3438 0.5156
vt 0.2813 0.7344
vt 0.3438 0.5156
vt 0.3438 0.7031
vt 0.1406 0.7031
vt 0.1250 0.5156
vt 0.2656 0.5156
vt 0.1406 0.7031
vt 0.2656 0.5156
vt 0.2344 0.7344
vt 0.1406 0.9531
vt 0.1250 0.7969
vt 0.2344 0.7344
vt 0.1406 0.9531
vt 0.2344 0.7344
vt 0.2500 0.9531
vt 0.1563 0.5000
vt 0.2969 0.5000
vt 0.2969 0.9688
vt 0.2969 0.9688
vt 0.1563 0.9688
vt 0.1563 0.5000
vt 0.1563 0.5000
vt 0.2969 0.5000
vt 0.2969 0.9688
vt 0.2969 0.9688
vt 0.1563 0.9688
vt 0.1563 0.5000
vt 0.1563 0.5000
vt 0.2969 0.5000
vt 0.2969 0.9688
vt 0.2969 0.9688
vt 0.1563 0.9688
vt 0.1563 0.5000
vt 0.1563 0.5000
vt 0.2969 0.5000
vt 0.2969 0.9688
vt 0.2969 0.9688
vt 0.1563 0.9688
vt 0.1563 0.5000
vt 0.1563 0.5000
vt 0.2969 0.5000
vt 0.2969 0.9688
vt 0.1563 0.5000
vt 0.2969 0.5000
vt 0.2969 0.9688
vt 0.1563 0.5000
vt 0.2969 0.5000
vt 0.2969 0.9688
vt 0.1563 0.5000
vt 0.2969 0.5000
vt 0.2969 0.9688
vt 0.4063 0.9844
vt 0.3906 0.7031
vt 0.4219 0.5000
vt 0.1250 0.9844
vt 0.0781 0.5000
vt 0.1563 0.7031
vt 0.1250 0.9844
vt 0.1563 0.7031
vt 0.2969 0.8125
vt 0.1250 0.9844
vt 0.2969 0.8125
vt 0.2969 0.9688
vt 0.1563 0.7031
vt 0.0781 0.5000
vt 0.3125 0.4844
vt 0.1563 0.7031
vt 0.3125 0.4844
vt 0.2969 0.6250
vt 0.2969 0.6250
vt 0.3125 0.4844
vt 0.4219 0.5000
vt 0.2969 0.6250
vt 0.4219 0.5000
vt 0.3906 0.7031
vt 0.2969 0.9688
vt 0.2969 0.8125
vt 0.3906 0.7031
vt 0.2969 0.9688
vt 0.3906 0.7031
vt 0.4063 0.9844
vt 0.0938 0.9531
vt 0.0938 0.5156
vt 0.1719 0.7656
vt 0.3906 0.9531
vt 0.3125 0.7813
vt 0.3906 0.5156
vt 0.2344 0.9531
vt 0.2344 0.8281
vt 0.3125 0.7813
vt 0.2344 0.9531
vt 0.3125 0.7813
vt 0.3906 0.9531
vt 0.0938 0.9531
vt 0.1719 0.7656
vt 0.2344 0.8281
vt 0.0938 0.9531
vt 0.2344 0.8281
vt 0.2344 0.9531
vt 0.1719 0.7656
vt 0.0938 0.5156
vt 0.2500 0.5156
vt 0.1719 0.7656
vt 0.2500 0.5156
vt 0.2500 0.7188
vt 0.2500 0.7188
vt 0.2500 0.5156
vt 0.3906 0.5156
vt 0.2500 0.7188
vt 0.3906 0.5156
vt 0.3125 0.7813
vt 0.1563 0.5000
vt 0.2969 0.5000
vt 0.2969 0.9688
vt 0.2969 0.9688
vt 0.1563 0.9688
vt 0.1563 0.5000
vt 0.1563 0.5000
vt 0.2969 0.5000
vt 0.2969 0.9688
vt 0.2969 0.9688
vt 0.1563 0.9688
vt 0.1563 0.5000
vt 0.1563 0.5000
vt 0.2969 0.5000
vt 0.2969 0.9688
vt 0.2969 0.9688
vt 0.1563 0.9688
vt 0.1563 0.5000
vt 0.1563 0.5000
vt 0.2969 0.5000
vt 0.2969 0.9688
vt 0.2969 0.9688
vt 0.1563 0.9688
vt 0.1563 0.5000
vt 0.1563 0.5000
vt 0.2969 0.5000
vt 0.2969 0.9688
vt 0.1563 0.5000
vt 0.2969 0.5000
vt 0.2969 0.9688
vt 0.1563 0.5000
vt 0.2969 0.5000
vt 0.2969 0.9688
vt 0.1563 0.5000
vt 0.2969 0.5000
vt 0.2969 0.9688
vt 0.2344 0.0156
vt 0.4531 0.0156
vt 0.3750 0.6875
vt 0.3750 0.6875
vt 0.2344 0.6875
vt 0.2344 0.0156
vt 0.3438 0.5000
vt 0.0781 0.5000
vt 0.1250 0.9844
vt 0.1250 0.9844
vt 0.3281 0.9844
vt 0.3438 0.5000
vt 0.0156 0.0000
vt 0.2344 0.0000
vt 0.2031 0.7344
vt 0.2031 0.7344
vt 0.0625 0.7344
vt 0.0156 0.0000
vt 0.2344 0.0000
vt 0.4531 0.0000
vt 0.3438 0.7344
vt 0.3438 0.7344
vt 0.2031 0.7344
vt 0.2344 0.0000
vt 0.0000 0.0156
vt 0.2344 0.0156
vt 0.2344 0.6875
vt 0.2344 0.6875
vt 0.0781 0.6875
vt 0.0000 0.0156
vt 0.9688 0.9844
vt 0.9531 0.5781
vt 0.4844 0.5781
vt 0.4844 0.5781
vt 0.4844 0.9844
vt 0.9688 0.9844
vt 0.9531 0.5781
vt 0.9688 0.9844
vt 0.4844 0.5781
vt 0.4844 0.9844
vt 0.4844 0.5781
vt 0.9688 0.9844
vt 0.9844 0.0000
vt 0.9844 0.5938
vt 0.4844 0.5938
vt 0.4844 0.5938
vt 0.4844 0.0000
vt 0.9844 0.0000
vt 0.9844 0.5938
vt 0.9844 0.0000
vt 0.4844 0.5938
vt 0.4844 0.0000
vt 0.4844 0.5938
vt 0.9844 0.0000
f 1/1 6/3 7/2
f 1/4 7/6 2/5
f 6/7 11/9 12/8
f 6/10 12/12 7/11
f 9/13 14/15 15/14
f 9/16 15/18 10/17
f 10/19 15/21 11/20
f 10/22 11/24 6/23
f 11/25 16/27 12/26
f 12/28 16/30 13/29
f 13/31 16/33 14/32
f 14/34 16/36 15/35
f 15/37 16/39 11/38
f 19/40 21/42 17/41
f 21/43 19/45 23/44
f 20/46 23/48 19/47
f 23/49 20/51 24/50
f 18/52 24/54 20/53
f 24/55 18/57 22/56
f 17/58 22/60 18/59
f 22/61 17/63 21/62
f 23/64 25/66 21/65
f 24/67 25/69 23/68
f 22/70 25/72 24/71
f 21/73 25/75 22/74
f 19/76 14/78 9/77
f 12/79 18/81 7/80
f 12/82 17/84 18/83
f 12/85 13/87 17/86
f 18/88 8/90 7/89
f 18/91 20/93 8/92
f 20/94 9/96 8/95
f 20/97 19/99 9/98
f 13/100 19/102 17/101
f 13/103 14/105 19/104
f 28/106 30/108 26/107
f 30/109 28/111 32/110
f 29/112 32/114 28/113
f 32/115 29/117 33/116
f 27/118 33/120 29/119
f 33/121 27/123 31/122
f 26/124 31/126 27/125
f 31/127 26/129 30/128
f 32/130 34/132 30/131
f 33/133 34/135 32/134
f 31/136 34/138 33/137
f 30/139 34/141 31/140
f 9/142 4/144 28/143
f 7/145 27/147 2/146
f 7/148 26/150 27/149
f 7/151 8/153 26/152
f 27/154 3/156 2/155
f 27/157 29/159 3/158
f 29/160 4/162 3/161
f 29/163 28/165 4/164
f 8/166 28/168 26/167
f 8/169 9/171 28/170
f 9/172 38/174 4/173
f 6/175 1/177 35/176
f 10/178 35/180 36/179
f 10/181 6/183 35/182
f 9/184 36/186 38/185
f 9/187 10/189 36/188
f 38/190 5/192 4/191
f 38/193 37/195 5/194
f 37/196 1/198 5/197
f 37/199 35/201 1/200
f 35/202 40/204 36/203
f 40/205 35/207 39/206
f 36/208 42/210 38/209
f 42/211 36/213 40/212
f 38/214 41/216 37/215
f 41/217 38/219 42/218
f 37/220 39/222 35/221
f 39/223 37/225 41/224
f 40/226 43/228 42/227
f 42/229 43/231 41/230
f 41/232 43/234 39/233
f 39/235 43/237 40/236
f 44/238 2/240 45/239
f 2/241 44/243 1/242
f 45/244 3/246 46/245
f 3/247 45/249 2/248
f 46/250 4/252 47/251
f 4/253 46/255 3/254
f 47/256 5/258 48/257
f 5/259 47/261 4/260
f 48/262 1/264 44/263
f 1/265 48/267 5/266
f 50/268 41/270 49/269
f 41/271 50/273 43/272
f 49/274 41/276 50/275
f 43/277 50/279 41/278
f 51/280 33/282 52/281
f 33/283 51/285 29/284
f 52/286 33/288 51/287
f 29/289 51/291 33/290
