g Object
v -0.2188 1.0781 -1.8242
v 0.3359 1.3359 -1.2383
v -0.4531 1.3359 -1.2383
v 0.1875 1.2578 -1.8086
v -0.3047 1.2578 -1.8086
v -0.0547 2.0039 -1.2383
v 0.1211 1.6602 -1.8203
v -0.2383 1.6602 -1.8203
v 0.1133 1.2305 -1.9805
v -0.2422 1.2305 -1.9805
v 0.0508 1.4219 -1.9648
v -0.1797 1.4219 -1.9648
v -0.0625 1.2266 -2.2148
v 0.0000 1.2891 -2.1602
v -0.1328 1.2891 -2.1602
v 0.1016 1.0781 -1.8242
v -0.1797 0.8984 -1.7539
v -0.2734 1.0273 -1.2383
v 0.1563 1.0273 -1.2383
v 0.0625 0.8984 -1.7539
v -0.0547 0.9180 -2.0820
v -0.0547 0.8789 -1.9141
v -0.3203 1.7500 -1.2383
v 0.1953 1.7617 -1.2383
v -0.0547 1.3789 -2.1602
v -0.0547 1.5117 -1.9648
v -0.0469 1.7695 -1.8203
vt 0.4063 0.6875
vt 0.4063 0.8125
vt 0.9688 1.0000
vt 0.4063 0.3438
vt 0.9688 0.1563
vt 0.4688 0.0313
vt 0.3438 0.3438
vt 0.3438 0.3438
vt 0.3438 0.2500
vt 0.9688 0.4375
vt 0.4063 0.3438
vt 0.9688 0.7813
vt 0.4063 0.6875
vt 0.9688 1.0000
vt 0.9688 0.7813
vt 0.0313 0.4688
vt 0.0313 0.3750
vt 0.0000 0.3125
vt 0.4063 0.8125
vt 0.4063 0.6875
vt 0.2500 0.4688
vt 0.2500 0.4688
vt 0.2500 0.5625
vt 0.4063 0.8125
vt 0.3438 0.3438
vt 0.3438 0.3438
vt 0.3438 0.3125
vt 0.3438 0.3125
vt 0.3438 0.3125
vt 0.3438 0.3438
vt 0.4063 0.6875
vt 0.4063 0.3438
vt 0.2188 0.3438
vt 0.2188 0.3438
vt 0.2500 0.4688
vt 0.4063 0.6875
vt 0.4063 0.3438
vt 0.4063 0.6875
vt 0.2500 0.4688
vt 0.2500 0.4688
vt 0.2188 0.3438
vt 0.4063 0.3438
vt 0.3438 0.3125
vt 0.3438 0.3125
vt 0.2500 0.2813
vt 0.2188 0.3438
vt 0.2500 0.4688
vt 0.0313 0.3750
vt 0.0313 0.3750
vt 0.0000 0.3125
vt 0.2188 0.3438
vt 0.2500 0.5625
vt 0.2500 0.4688
vt 0.0313 0.3750
vt 0.0313 0.3750
vt 0.0313 0.4688
vt 0.2500 0.5625
vt 0.0313 0.3750
vt 0.2188 0.3438
vt 0.0000 0.3125
vt 0.2188 0.3438
vt 0.0313 0.3750
vt 0.2500 0.4688
vt 0.4688 0.0313
vt 0.3750 0.1875
vt 0.4063 0.3438
vt 0.4063 0.3438
vt 0.9688 0.4375
vt 0.9688 0.1563
vt 0.4063 0.3438
vt 0.4688 0.0313
vt 0.9688 0.1563
vt 0.9688 0.8125
vt 0.4063 0.6875
vt 0.4063 0.3438
vt 0.4063 0.6875
vt 0.9688 0.8125
vt 0.9688 1.0000
vt 0.3438 0.2500
vt 0.3438 0.3438
vt 0.3438 0.2500
vt 0.4688 0.0313
vt 0.4063 0.3438
vt 0.3750 0.1875
vt 0.4063 0.3438
vt 0.9688 0.1563
vt 0.9688 0.4375
vt 0.3438 0.2500
vt 0.3438 0.2500
vt 0.2500 0.2188
vt 0.1250 0.0625
vt 0.4688 0.0313
vt 0.2813 0.0313
vt 0.4688 0.0313
vt 0.1250 0.0625
vt 0.3750 0.1875
vt 0.4688 0.0313
vt 0.3750 0.1875
vt 0.1250 0.0625
vt 0.1250 0.0625
vt 0.2813 0.0313
vt 0.4688 0.0313
vt 0.4688 0.0313
vt 0.4688 0.0313
vt 0.2813 0.0313
vt 0.4688 0.0313
vt 0.4688 0.0313
vt 0.9688 0.1563
vt 0.4688 0.0313
vt 0.9688 0.1563
vt 0.9688 0.1563
vt 0.9688 0.7813
vt 0.4063 0.3438
vt 0.4063 0.6875
vt 0.4063 0.3438
vt 0.9688 0.4375
vt 0.9688 0.8125
vt 0.0313 0.3750
vt 0.0313 0.4688
vt 0.0000 0.3125
vt 0.0313 0.4688
vt 0.0313 0.3750
vt 0.2500 0.4688
vt 0.2500 0.4688
vt 0.2500 0.5625
vt 0.0313 0.4688
vt 0.2500 0.5625
vt 0.2500 0.4688
vt 0.4063 0.6875
vt 0.4063 0.6875
vt 0.4063 0.8125
vt 0.2500 0.5625
vt 0.4063 0.8125
vt 0.4063 0.6875
vt 0.9688 1.0000
f 8/1 6/3 27/2
f 5/4 17/6 18/5
f 4/7 1/9 5/8
f 3/10 23/12 5/11
f 8/13 23/15 6/14
f 25/16 13/18 15/17
f 27/19 12/21 8/20
f 12/22 27/24 26/23
f 5/25 9/27 4/26
f 9/28 5/30 10/29
f 8/31 10/33 5/32
f 10/34 8/36 12/35
f 4/37 11/39 7/38
f 11/40 4/42 9/41
f 10/43 13/45 9/44
f 9/46 14/48 11/47
f 14/49 9/51 13/50
f 26/52 15/54 12/53
f 15/55 26/57 25/56
f 15/58 13/60 10/59
f 10/61 12/63 15/62
f 17/64 5/66 1/65
f 5/67 18/69 3/68
f 4/70 19/72 20/71
f 24/73 4/75 7/74
f 7/76 6/78 24/77
f 16/79 1/81 4/80
f 20/82 16/84 4/83
f 4/85 2/87 19/86
f 16/88 21/90 1/89
f 21/91 22/93 17/92
f 17/94 1/96 21/95
f 20/97 21/99 16/98
f 21/100 20/102 22/101
f 17/103 22/105 20/104
f 20/106 18/108 17/107
f 20/109 19/111 18/110
f 23/112 8/114 5/113
f 4/115 24/117 2/116
f 14/118 13/120 25/119
f 25/121 11/123 14/122
f 11/124 25/126 26/125
f 26/127 7/129 11/128
f 7/130 26/132 27/131
f 27/133 6/135 7/134
