g Object
v -0.7070 1.3086 0.3203
v -0.7070 1.3086 -0.3633
v -0.8477 1.3086 0.3203
v -0.8477 1.3086 -0.3633
v -0.6836 0.0430 0.4805
v -0.6836 0.0430 -0.5234
v -0.8828 0.0430 0.4805
v -0.8828 0.0430 -0.5234
v -1.4570 1.3711 0.7656
v -1.4570 1.3711 -0.8086
v 0.0039 1.3711 0.7656
v -0.0039 1.3711 -0.8086
v -1.4570 1.4922 0.7656
v -1.4570 1.4922 -0.8086
v 0.0039 1.4922 0.7656
v -0.0039 1.4922 -0.8086
v 0.8477 1.3086 0.3203
v 0.8477 1.3086 -0.3633
v 0.7070 1.3086 0.3203
v 0.7070 1.3086 -0.3633
v 0.8828 0.0430 0.4805
v 0.8828 0.0430 -0.5234
v 0.6836 0.0430 0.4805
v 0.6836 0.0430 -0.5234
v 1.4570 1.3711 0.7656
v 1.4570 1.3711 -0.8086
v 1.4570 1.4922 0.7656
v 1.4570 1.4922 -0.8086
vt 0.5781 0.4688
vt 0.9844 0.4688
vt 0.9844 0.4688
vt 0.9844 0.4688
vt 0.5781 0.4688
vt 0.5781 0.4688
vt 0.6250 0.9688
vt 0.9375 0.9844
vt 0.9844 0.4688
vt 0.9844 0.4688
vt 0.5781 0.4688
vt 0.6250 0.9688
vt 0.5938 0.9688
vt 0.6875 0.9688
vt 0.7188 0.5000
vt 0.7188 0.5000
vt 0.5781 0.5000
vt 0.5938 0.9688
vt 0.9375 0.9844
vt 0.6250 0.9688
vt 0.5781 0.4688
vt 0.5781 0.4688
vt 0.9844 0.4688
vt 0.9375 0.9844
vt 0.6875 0.9688
vt 0.5938 0.9688
vt 0.5781 0.5000
vt 0.5781 0.5000
vt 0.7188 0.5000
vt 0.6875 0.9688
vt 0.0156 0.9688
vt 0.5469 0.9688
vt 0.5469 0.0000
vt 0.5469 0.0000
vt 0.0156 0.0000
vt 0.0156 0.9688
vt 0.0156 0.0000
vt 0.5625 0.0000
vt 0.5625 0.0938
vt 0.5625 0.0938
vt 0.0156 0.0781
vt 0.0156 0.0000
vt 0.5625 0.9688
vt 0.5781 0.0000
vt 0.5000 0.0000
vt 0.5000 0.0000
vt 0.4844 0.9688
vt 0.5625 0.9688
vt 0.0781 0.0000
vt 0.0781 0.9688
vt 0.0156 0.9688
vt 0.0156 0.9688
vt 0.0156 0.0000
vt 0.0781 0.0000
vt 0.0156 0.9688
vt 0.1563 0.5625
vt 0.5469 0.9688
vt 0.5469 0.9688
vt 0.1563 0.5625
vt 0.3906 0.5625
vt 0.0156 0.0000
vt 0.1563 0.4844
vt 0.0156 0.9688
vt 0.0156 0.9688
vt 0.1563 0.4844
vt 0.1563 0.5625
vt 0.5469 0.0000
vt 0.3906 0.4844
vt 0.0156 0.0000
vt 0.0156 0.0000
vt 0.3906 0.4844
vt 0.1563 0.4844
vt 0.3906 0.5625
vt 0.3906 0.4844
vt 0.5469 0.9688
vt 0.5469 0.9688
vt 0.3906 0.4844
vt 0.5469 0.0000
vt 0.5781 0.4688
vt 0.9844 0.4688
vt 0.9844 0.4688
vt 0.9844 0.4688
vt 0.5781 0.4688
vt 0.5781 0.4688
vt 0.6250 0.9688
vt 0.9375 0.9844
vt 0.9844 0.4688
vt 0.9844 0.4688
vt 0.5781 0.4688
vt 0.6250 0.9688
vt 0.6094 0.9688
vt 0.6875 0.9688
vt 0.7188 0.5000
vt 0.7188 0.5000
vt 0.5938 0.4844
vt 0.6094 0.9688
vt 0.9375 0.9844
vt 0.6250 0.9688
vt 0.5781 0.4688
vt 0.5781 0.4688
vt 0.9844 0.4688
vt 0.9375 0.9844
vt 0.6875 0.9688
vt 0.6094 0.9688
vt 0.5938 0.4844
vt 0.5938 0.4844
vt 0.7188 0.5000
vt 0.6875 0.9688
vt 0.0156 0.0000
vt 0.5469 0.0000
vt 0.5469 0.9688
vt 0.5469 0.9688
vt 0.0156 0.9688
vt 0.0156 0.0000
vt 0.5781 0.0000
vt 0.5156 0.9688
vt 0.5625 0.9844
vt 0.5625 0.9688
vt 0.5000 0.0000
vt 0.5781 0.0000
vt 0.5469 0.9844
vt 0.0000 0.9844
vt 0.0000 0.8906
vt 0.0000 0.8906
vt 0.5469 0.8906
vt 0.5469 0.9844
vt 0.0781 0.9688
vt 0.0781 0.0000
vt 0.0156 0.0000
vt 0.0156 0.0000
vt 0.0000 0.9688
vt 0.0781 0.9688
vt 0.0156 0.0000
vt 0.1563 0.4844
vt 0.5469 0.0000
vt 0.5469 0.0000
vt 0.1563 0.4844
vt 0.3906 0.4844
vt 0.0156 0.9688
vt 0.1563 0.5625
vt 0.0156 0.0000
vt 0.0156 0.0000
vt 0.1563 0.5625
vt 0.1563 0.4844
vt 0.5469 0.9688
vt 0.3906 0.5625
vt 0.0156 0.9688
vt 0.0156 0.9688
vt 0.3906 0.5625
vt 0.1563 0.5625
vt 0.3906 0.4844
vt 0.3906 0.5625
vt 0.5469 0.0000
vt 0.5469 0.0000
vt 0.3906 0.5625
vt 0.5469 0.9688
f 5/1 8/3 6/2
f 8/4 5/6 7/5
f 1/7 6/9 2/8
f 6/10 1/12 5/11
f 2/13 8/15 4/14
f 8/16 2/18 6/17
f 4/19 7/21 3/20
f 7/22 4/24 8/23
f 3/25 5/27 1/26
f 5/28 3/30 7/29
f 13/31 16/33 14/32
f 16/34 13/36 15/35
f 9/37 14/39 10/38
f 14/40 9/42 13/41
f 10/43 16/45 12/44
f 16/46 10/48 14/47
f 11/49 13/51 9/50
f 13/52 11/54 15/53
f 9/55 10/57 3/56
f 10/58 4/60 3/59
f 11/61 9/63 1/62
f 9/64 3/66 1/65
f 12/67 11/69 2/68
f 11/70 1/72 2/71
f 4/73 10/75 2/74
f 10/76 12/78 2/77
f 21/79 24/81 22/80
f 24/82 21/84 23/83
f 17/85 22/87 18/86
f 22/88 17/90 21/89
f 18/91 24/93 20/92
f 24/94 18/96 22/95
f 20/97 23/99 19/98
f 23/100 20/102 24/101
f 19/103 21/105 17/104
f 21/106 19/108 23/107
f 15/109 28/111 16/110
f 28/112 15/114 27/113
f 12/115 28/117 26/116
f 28/118 12/120 16/119
f 26/121 27/123 25/122
f 27/124 26/126 28/125
f 25/127 15/129 11/128
f 15/130 25/132 27/131
f 11/133 12/135 19/134
f 12/136 20/138 19/137
f 25/139 11/141 17/140
f 11/142 19/144 17/143
f 26/145 25/147 18/146
f 25/148 17/150 18/149
f 20/151 12/153 18/152
f 12/154 26/156 18/155
