[gd_resource type="StandardMaterial3D" load_steps=2 format=3 uid="uid://bjvq1otrfexts"]

[ext_resource type="Texture2D" uid="uid://b01o08hpvkf6c" path="res://game/assets/textures/22_male_long_tunic.bin_tex0.tga" id="1_hc6pe"]

[resource]
albedo_texture = ExtResource("1_hc6pe")
texture_filter = 0
