[gd_resource type="StandardMaterial3D" load_steps=2 format=3 uid="uid://c8uug4h51lni6"]

[ext_resource type="Texture2D" uid="uid://b01o08hpvkf6c" path="res://game/assets/textures/22_male_long_tunic.bin_tex0.tga" id="1_p16fq"]

[resource]
albedo_texture = ExtResource("1_p16fq")
texture_filter = 0
