[gd_resource type="StandardMaterial3D" load_steps=2 format=3 uid="uid://csac0qp5l2vta"]

[ext_resource type="Texture2D" uid="uid://bem7463o48bi1" path="res://game/assets/textures/22_male_long_tunic.bin_tex1.tga" id="1_4unnx"]

[resource]
albedo_texture = ExtResource("1_4unnx")
texture_filter = 0
