[gd_resource type="StandardMaterial3D" load_steps=2 format=3 uid="uid://bbf5ohwy6chlj"]

[ext_resource type="Texture2D" uid="uid://bb0jivwgdcneh" path="res://game/assets/textures/22_male_long_tunic.bin_tex4.tga" id="1_betmn"]

[resource]
albedo_texture = ExtResource("1_betmn")
texture_filter = 0
