[gd_resource type="StandardMaterial3D" load_steps=2 format=3 uid="uid://cf3x87ojwkrfp"]

[ext_resource type="Texture2D" uid="uid://474jxd1vy4oa" path="res://game/assets/textures/61_goblin.bin_tex0.tga" id="1_5gm27"]

[resource]
albedo_texture = ExtResource("1_5gm27")
texture_filter = 0
