[gd_resource type="StandardMaterial3D" load_steps=2 format=3 uid="uid://uljafg2n0cix"]

[ext_resource type="Texture2D" uid="uid://bdjge31pkbstx" path="res://game/assets/textures/20_female_long_tunic.bin_tex0.tga" id="1_k6cq2"]

[resource]
albedo_texture = ExtResource("1_k6cq2")
texture_filter = 0
