[gd_resource type="StandardMaterial3D" load_steps=2 format=3 uid="uid://nb1jg7make3k"]

[ext_resource type="Texture2D" uid="uid://fa8yq8qlo1h" path="res://game/assets/textures/63_orc_ice_warrior.bin_tex0.tga" id="1_20e8p"]

[resource]
albedo_texture = ExtResource("1_20e8p")
texture_filter = 0
