[gd_resource type="StandardMaterial3D" load_steps=2 format=3 uid="uid://dbugue0m4etg7"]

[ext_resource type="Texture2D" uid="uid://dtlybffeh36j1" path="res://game/assets/textures/65_kagouti.bin_tex0.tga" id="1_bstl1"]

[resource]
albedo_color = Color(1, 0, 0, 1)
albedo_texture = ExtResource("1_bstl1")
texture_filter = 0
