[gd_resource type="StandardMaterial3D" load_steps=2 format=3 uid="uid://chcp3xdu63bg4"]

[ext_resource type="Texture2D" uid="uid://1ipswh6whyq3" path="res://game/assets/textures/66_snowray.bin_tex2.tga" id="1_5var2"]

[resource]
albedo_color = Color(1, 0, 0, 1)
albedo_texture = ExtResource("1_5var2")
texture_filter = 0
