[gd_resource type="StandardMaterial3D" load_steps=2 format=3 uid="uid://dgywui7ofnx1r"]

[ext_resource type="Texture2D" uid="uid://cbj2sypjc00xg" path="res://game/assets/textures/22_male_long_tunic.bin_tex6.tga" id="1_qqr23"]

[resource]
albedo_texture = ExtResource("1_qqr23")
texture_filter = 0
