[gd_resource type="StandardMaterial3D" load_steps=2 format=3 uid="uid://dsiior54g1kce"]

[ext_resource type="Texture2D" uid="uid://bus0d0kiqn2us" path="res://game/assets/textures/56_wormmouth.bin_tex1.tga" id="1_dybku"]

[resource]
albedo_texture = ExtResource("1_dybku")
texture_filter = 0
