[gd_resource type="StandardMaterial3D" load_steps=2 format=3 uid="uid://cb7qgn8obpt8k"]

[ext_resource type="Texture2D" uid="uid://b66yc6h4vgekg" path="res://game/assets/textures/233_azra.bin_tex0.tga" id="1_0m6h4"]

[resource]
albedo_texture = ExtResource("1_0m6h4")
