[gd_resource type="StandardMaterial3D" load_steps=2 format=3 uid="uid://bgvjne2t0d8jr"]

[ext_resource type="Texture2D" uid="uid://b21b5euha2h7f" path="res://game/assets/textures/21_female_short_tunic.bin_tex8.tga" id="1_4p80v"]

[resource]
albedo_texture = ExtResource("1_4p80v")
