[gd_resource type="StandardMaterial3D" load_steps=2 format=3 uid="uid://dhobkix53tgrp"]

[ext_resource type="Texture2D" uid="uid://bdjge31pkbstx" path="res://game/assets/textures/20_female_long_tunic.bin_tex0.tga" id="1_0itwb"]

[resource]
albedo_texture = ExtResource("1_0itwb")
