[gd_resource type="StandardMaterial3D" load_steps=2 format=3 uid="uid://g4a85011hcld"]

[ext_resource type="Texture2D" uid="uid://c0gktdx53x0qw" path="res://game/assets/textures/21_female_short_tunic.bin_tex13.tga" id="1_hpi3v"]

[resource]
albedo_texture = ExtResource("1_hpi3v")
