[gd_resource type="StandardMaterial3D" load_steps=2 format=3 uid="uid://d1eefw7dttrtg"]

[ext_resource type="Texture2D" uid="uid://icbk2qkhwdlp" path="res://game/assets/textures/21_female_short_tunic.bin_tex6.tga" id="1_j37aj"]

[resource]
albedo_texture = ExtResource("1_j37aj")
texture_filter = 0
