[gd_resource type="StandardMaterial3D" load_steps=2 format=3 uid="uid://dre0weucyaxlj"]

[ext_resource type="Texture2D" uid="uid://b01o08hpvkf6c" path="res://game/assets/textures/22_male_long_tunic.bin_tex0.tga" id="1_bqdru"]

[resource]
albedo_color = Color(1, 0, 0, 1)
albedo_texture = ExtResource("1_bqdru")
texture_filter = 0
