[gd_scene load_steps=8 format=3 uid="uid://ct1tv82omh140"]

[ext_resource type="Script" path="res://game/actors/characters/generic_characters/character_template/character.gd" id="1_q5lyg"]
[ext_resource type="ArrayMesh" uid="uid://cillo12neb6xy" path="res://game/assets/obj_models/21_female_short_tunic.obj" id="2_e3wxh"]
[ext_resource type="Texture2D" uid="uid://bkfwrbch5so0i" path="res://game/assets/textures/21_female_short_tunic.bin_tex7.tga" id="3_d7fvm"]
[ext_resource type="Script" path="res://game/components/character/look_towards_player.gd" id="4_jroeg"]
[ext_resource type="Script" path="res://game/components/has_dialogue/has_dialogue.gd" id="5_yfh8b"]

[sub_resource type="BoxShape3D" id="BoxShape3D_y3n38"]
size = Vector3(0.9, 2, 0.9)

[sub_resource type="StandardMaterial3D" id="StandardMaterial3D_l3e6b"]
albedo_texture = ExtResource("3_d7fvm")
texture_filter = 0

[node name="21" type="CharacterBody3D"]
script = ExtResource("1_q5lyg")
prompt = "Rilora"

[node name="CollisionShape3D" type="CollisionShape3D" parent="."]
transform = Transform3D(1, 0, 0, 0, 1, 0, 0, 0, 1, 0.013, 1, 0)
shape = SubResource("BoxShape3D_y3n38")

[node name="idle" type="Node3D" parent="."]

[node name="frame0" type="MeshInstance3D" parent="idle"]
transform = Transform3D(-1, 0, 0, 0, 1, 0, 0, 0, 1, 0, 0, 0)
mesh = ExtResource("2_e3wxh")
surface_material_override/0 = SubResource("StandardMaterial3D_l3e6b")

[node name="face_player" type="Node" parent="."]
script = ExtResource("4_jroeg")

[node name="has_dialogue" type="Node" parent="."]
script = ExtResource("5_yfh8b")
dialogues = [1488, 1489, 1490, 1491, 1492, 1493, 1494, 1495, 1496, 1497, 1498]
