[gd_resource type="StandardMaterial3D" load_steps=2 format=3 uid="uid://cqbu5tji5lwwh"]

[ext_resource type="Texture2D" uid="uid://byyilujracknk" path="res://game/assets/textures/20_female_long_tunic.bin_tex3.tga" id="1_avvwf"]

[resource]
albedo_color = Color(1, 0, 0, 1)
albedo_texture = ExtResource("1_avvwf")
texture_filter = 0
