[gd_resource type="StandardMaterial3D" load_steps=2 format=3 uid="uid://c8jbmo5ffq5ld"]

[ext_resource type="Texture2D" uid="uid://b3ijtrjplov7j" path="res://game/assets/textures/21_female_short_tunic.bin_tex0.tga" id="1_osoop"]

[resource]
albedo_color = Color(1, 0, 0, 1)
albedo_texture = ExtResource("1_osoop")
texture_filter = 0
