[gd_resource type="StandardMaterial3D" load_steps=2 format=3 uid="uid://do0ewltgj1i3j"]

[ext_resource type="Texture2D" uid="uid://cm1m5eewul50d" path="res://game/assets/textures/23_male_short_tunic.bin_tex7.tga" id="1_q8ho3"]

[resource]
albedo_color = Color(1, 0, 0, 1)
albedo_texture = ExtResource("1_q8ho3")
texture_filter = 0
