{
  "crypt2": [
    {
      "template": "1055",
      "type": "11",
      "x": "-76.5",
      "z": "-0.84375",
      "y": "50.203125",
      "roll": "0",
      "pitch": "0",
      "turn": "-65",
      "id": "susten",
      "script": "crypt2\\Cabinet_Entity.s"
    },
    {
      "template": "1054",
      "type": "11",
      "x": "-19.5",
      "z": "0.9375",
      "y": "52.5",
      "roll": "0",
      "pitch": "0",
      "turn": "-65",
      "id": "willpow",
      "script": "crypt2\\Brazier_Entity.s"
    },
    {
      "template": "1054",
      "type": "11",
      "x": "-14.5",
      "z": "0.78125",
      "y": "52.5",
      "roll": "0",
      "pitch": "0",
      "turn": "0",
      "id": "intelli",
      "script": "crypt2\\Brazier_Entity.s"
    },
    {
      "template": "258",
      "type": "2",
      "x": "-64.5",
      "z": "0.5",
      "y": "9.5",
      "roll": "0",
      "pitch": "0",
      "turn": "0",
      "id": "noname",
      "script": "monsters\\Shadow_Ghast.s"
    },
    {
      "template": "258",
      "type": "2",
      "x": "-64.5",
      "z": "0.5",
      "y": "13.5",
      "roll": "0",
      "pitch": "0",
      "turn": "0",
      "id": "noname",
      "script": "monsters\\Shadow_Ghast.s"
    },
    {
      "template": "258",
      "type": "2",
      "x": "-60.5",
      "z": "0.5",
      "y": "8.5",
      "roll": "0",
      "pitch": "0",
      "turn": "0",
      "id": "noname",
      "script": "monsters\\Shadow_Ghast.s"
    },
    {
      "template": "261",
      "type": "2",
      "x": "-68.5",
      "z": "0.5",
      "y": "26.5",
      "roll": "0",
      "pitch": "0",
      "turn": "0",
      "id": "noname",
      "script": "monsters\\Shriekfloater.s"
    },
    {
      "template": "259",
      "type": "2",
      "x": "-64.5",
      "z": "0.5",
      "y": "20.5",
      "roll": "0",
      "pitch": "0",
      "turn": "0",
      "id": "noname",
      "script": "monsters\\Shadow_Tentacle.s"
    },
    {
      "template": "272",
      "type": "2",
      "x": "-62.5",
      "z": "0.5",
      "y": "24.5",
      "roll": "0",
      "pitch": "0",
      "turn": "0",
      "id": "noname",
      "script": "monsters\\Tunnel_Wight.s"
    },
    {
      "template": "259",
      "type": "2",
      "x": "-48.5",
      "z": "0.5",
      "y": "25.5",
      "roll": "0",
      "pitch": "0",
      "turn": "-1",
      "id": "noname",
      "script": "monsters\\Shadow_Tentacle.s"
    },
    {
      "template": "209",
      "type": "2",
      "x": "-57.5",
      "z": "0.5",
      "y": "17.5",
      "roll": "0",
      "pitch": "0",
      "turn": "0",
      "id": "noname",
      "script": "monsters\\Arrow_Shade.s"
    },
    {
      "template": "209",
      "type": "2",
      "x": "-52.5",
      "z": "0.5",
      "y": "22.5",
      "roll": "0",
      "pitch": "0",
      "turn": "0",
      "id": "noname",
      "script": "monsters\\Arrow_Shade.s"
    },
    {
      "template": "209",
      "type": "2",
      "x": "-34.5",
      "z": "0.5",
      "y": "17.5",
      "roll": "0",
      "pitch": "0",
      "turn": "0",
      "id": "noname",
      "script": "monsters\\Arrow_Shade.s"
    },
    {
      "template": "209",
      "type": "2",
      "x": "-43.5",
      "z": "0.5",
      "y": "26.5",
      "roll": "0",
      "pitch": "0",
      "turn": "-1",
      "id": "noname",
      "script": "monsters\\Arrow_Shade.s"
    },
    {
      "template": "223",
      "type": "2",
      "x": "-39.5",
      "z": "0.5",
      "y": "20.5",
      "roll": "0",
      "pitch": "0",
      "turn": "-1",
      "id": "noname",
      "script": "monsters\\Dusk_Wolves.s"
    },
    {
      "template": "258",
      "type": "2",
      "x": "-61.5",
      "z": "0.5",
      "y": "35.5",
      "roll": "0",
      "pitch": "0",
      "turn": "0",
      "id": "noname",
      "script": "monsters\\Shadow_Ghast.s"
    },
    {
      "template": "258",
      "type": "2",
      "x": "-67.5",
      "z": "0.5",
      "y": "37.5",
      "roll": "0",
      "pitch": "0",
      "turn": "0",
      "id": "noname",
      "script": "monsters\\Shadow_Ghast.s"
    },
    {
      "template": "3203",
      "type": "2",
      "x": "-51.5",
      "z": "0.5",
      "y": "34.5",
      "roll": "0",
      "pitch": "0",
      "turn": "0",
      "id": "noname",
      "script": "monsters\\Mountain_Wight.s"
    },
    {
      "template": "3203",
      "type": "2",
      "x": "-49.5",
      "z": "0.5",
      "y": "38.5",
      "roll": "0",
      "pitch": "0",
      "turn": "0",
      "id": "noname",
      "script": "monsters\\Mountain_Wight.s"
    },
    {
      "template": "3201",
      "type": "2",
      "x": "-43.5",
      "z": "0.5",
      "y": "40.5",
      "roll": "0",
      "pitch": "0",
      "turn": "0",
      "id": "noname",
      "script": "monsters\\Ancestor_Ghost.s"
    },
    {
      "template": "3201",
      "type": "2",
      "x": "-34.5",
      "z": "0.5",
      "y": "40.5",
      "roll": "0",
      "pitch": "0",
      "turn": "-1",
      "id": "noname",
      "script": "monsters\\Ancestor_Ghost.s"
    },
    {
      "template": "275",
      "type": "2",
      "x": "-68.5",
      "z": "0.5",
      "y": "43.5",
      "roll": "0",
      "pitch": "0",
      "turn": "0",
      "id": "noname",
      "script": "monsters\\Umbric_Rats.s"
    },
    {
      "template": "275",
      "type": "2",
      "x": "-66.5",
      "z": "0.5",
      "y": "48.5",
      "roll": "0",
      "pitch": "0",
      "turn": "0",
      "id": "noname",
      "script": "monsters\\Umbric_Rats.s"
    },
    {
      "template": "275",
      "type": "2",
      "x": "-66.5",
      "z": "0.5",
      "y": "51.5",
      "roll": "0",
      "pitch": "0",
      "turn": "0",
      "id": "noname",
      "script": "monsters\\Umbric_Rats.s"
    },
    {
      "template": "223",
      "type": "2",
      "x": "-54.765625",
      "z": "0.5",
      "y": "49.59375",
      "roll": "0",
      "pitch": "0",
      "turn": "0",
      "id": "noname",
      "script": "monsters\\Dusk_Wolves.s"
    },
    {
      "template": "223",
      "type": "2",
      "x": "-50.5",
      "z": "0.5",
      "y": "47.5",
      "roll": "0",
      "pitch": "0",
      "turn": "0",
      "id": "noname",
      "script": "monsters\\Dusk_Wolves.s"
    },
    {
      "template": "223",
      "type": "2",
      "x": "-48.5",
      "z": "0.5",
      "y": "49.5",
      "roll": "0",
      "pitch": "0",
      "turn": "0",
      "id": "noname",
      "script": "monsters\\Dusk_Wolves.s"
    },
    {
      "template": "209",
      "type": "2",
      "x": "-35.5",
      "z": "0.5",
      "y": "50.5",
      "roll": "0",
      "pitch": "0",
      "turn": "0",
      "id": "noname",
      "script": "monsters\\Arrow_Shade.s"
    },
    {
      "template": "209",
      "type": "2",
      "x": "-37.5",
      "z": "0.5",
      "y": "52.5",
      "roll": "0",
      "pitch": "0",
      "turn": "0",
      "id": "noname",
      "script": "monsters\\Arrow_Shade.s"
    },
    {
      "template": "261",
      "type": "2",
      "x": "-43.5",
      "z": "0.5",
      "y": "52.5",
      "roll": "0",
      "pitch": "0",
      "turn": "0",
      "id": "noname",
      "script": "monsters\\Shriekfloater.s"
    },
    {
      "template": "259",
      "type": "2",
      "x": "-37.5",
      "z": "0.5",
      "y": "46.5",
      "roll": "0",
      "pitch": "0",
      "turn": "0",
      "id": "noname",
      "script": "monsters\\Shadow_Tentacle.s"
    },
    {
      "template": "259",
      "type": "2",
      "x": "-63.5",
      "z": "0.5",
      "y": "62.5",
      "roll": "0",
      "pitch": "0",
      "turn": "0",
      "id": "noname",
      "script": "monsters\\Shadow_Tentacle.s"
    },
    {
      "template": "258",
      "type": "2",
      "x": "-64.5",
      "z": "0.5",
      "y": "58.5",
      "roll": "0",
      "pitch": "0",
      "turn": "0",
      "id": "noname",
      "script": "monsters\\Shadow_Ghast.s"
    },
    {
      "template": "258",
      "type": "2",
      "x": "-67.5",
      "z": "0.5",
      "y": "63.5",
      "roll": "0",
      "pitch": "0",
      "turn": "0",
      "id": "noname",
      "script": "monsters\\Shadow_Ghast.s"
    },
    {
      "template": "261",
      "type": "2",
      "x": "-48.5",
      "z": "0.5",
      "y": "58.5",
      "roll": "0",
      "pitch": "0",
      "turn": "0",
      "id": "noname",
      "script": "monsters\\Shriekfloater.s"
    },
    {
      "template": "264",
      "type": "2",
      "x": "-53.5",
      "z": "0.5",
      "y": "63.5",
      "roll": "0",
      "pitch": "0",
      "turn": "0",
      "id": "noname",
      "script": "monsters\\Soul_Shredder.s"
    },
    {
      "template": "209",
      "type": "2",
      "x": "-42.5",
      "z": "0.5",
      "y": "58.5",
      "roll": "0",
      "pitch": "0",
      "turn": "-1",
      "id": "noname",
      "script": "monsters\\Arrow_Shade.s"
    },
    {
      "template": "209",
      "type": "2",
      "x": "-35.5",
      "z": "0.5",
      "y": "64.5",
      "roll": "0",
      "pitch": "0",
      "turn": "-1",
      "id": "noname",
      "script": "monsters\\Arrow_Shade.s"
    },
    {
      "template": "3201",
      "type": "2",
      "x": "-41.5",
      "z": "0.5",
      "y": "64.5",
      "roll": "0",
      "pitch": "0",
      "turn": "-1",
      "id": "noname",
      "script": "monsters\\Ancestor_Ghost.s"
    },
    {
      "template": "272",
      "type": "2",
      "x": "-50.5",
      "z": "0.5",
      "y": "72.5",
      "roll": "0",
      "pitch": "0",
      "turn": "0",
      "id": "noname",
      "script": "monsters\\Tunnel_Wight.s"
    },
    {
      "template": "272",
      "type": "2",
      "x": "-53.5",
      "z": "0.5",
      "y": "76.5",
      "roll": "0",
      "pitch": "0",
      "turn": "0",
      "id": "noname",
      "script": "monsters\\Tunnel_Wight.s"
    },
    {
      "template": "258",
      "type": "2",
      "x": "-40.5",
      "z": "0.5",
      "y": "70.5",
      "roll": "0",
      "pitch": "0",
      "turn": "0",
      "id": "noname",
      "script": "monsters\\Shadow_Ghast.s"
    },
    {
      "template": "258",
      "type": "2",
      "x": "-38.5",
      "z": "0.5",
      "y": "73.5",
      "roll": "0",
      "pitch": "0",
      "turn": "0",
      "id": "noname",
      "script": "monsters\\Shadow_Ghast.s"
    },
    {
      "template": "258",
      "type": "2",
      "x": "-41.5",
      "z": "0.5",
      "y": "78.5",
      "roll": "0",
      "pitch": "0",
      "turn": "0",
      "id": "noname",
      "script": "monsters\\Shadow_Ghast.s"
    },
    {
      "template": "105",
      "type": "2",
      "x": "-55.5",
      "z": "0.5",
      "y": "83.5",
      "roll": "0",
      "pitch": "0",
      "turn": "-1",
      "id": "noname",
      "script": "monsters\\Nightdead.s"
    },
    {
      "template": "105",
      "type": "2",
      "x": "-47.5",
      "z": "0.5",
      "y": "91.5",
      "roll": "0",
      "pitch": "0",
      "turn": "0",
      "id": "noname",
      "script": "monsters\\Nightdead.s"
    },
    {
      "template": "259",
      "type": "2",
      "x": "-51.5",
      "z": "0.5",
      "y": "87.5",
      "roll": "0",
      "pitch": "0",
      "turn": "0",
      "id": "noname",
      "script": "monsters\\Shadow_Tentacle.s"
    },
    {
      "template": "71",
      "type": "1",
      "x": "-118.96875",
      "z": "-2.34375",
      "y": "69.3828125",
      "roll": "0",
      "pitch": "0",
      "turn": "65.5",
      "id": "noname",
      "script": "torch01\\Shadow_Tentacle.s"
    },
    {
      "template": "71",
      "type": "1",
      "x": "-96.03125",
      "z": "-2.34375",
      "y": "78.5",
      "roll": "0",
      "pitch": "0",
      "turn": "-60",
      "id": "noname",
      "script": "torch01\\Shadow_Tentacle.s"
    },
    {
      "template": "71",
      "type": "1",
      "x": "-96.03125",
      "z": "-2.34375",
      "y": "62.5",
      "roll": "0",
      "pitch": "0",
      "turn": "-60",
      "id": "noname",
      "script": "torch01\\Shadow_Tentacle.s"
    },
    {
      "template": "71",
      "type": "1",
      "x": "-96.03125",
      "z": "-2.34375",
      "y": "45.5",
      "roll": "0",
      "pitch": "0",
      "turn": "-60",
      "id": "noname",
      "script": "torch01\\Shadow_Tentacle.s"
    },
    {
      "template": "71",
      "type": "1",
      "x": "-118.96875",
      "z": "-2.34375",
      "y": "36.3828125",
      "roll": "0",
      "pitch": "0",
      "turn": "65.5",
      "id": "noname",
      "script": "torch01\\Shadow_Tentacle.s"
    },
    {
      "template": "71",
      "type": "1",
      "x": "-115.5",
      "z": "0",
      "y": "21.5",
      "roll": "0",
      "pitch": "0",
      "turn": "0",
      "id": "noname",
      "script": "torch01\\Shadow_Tentacle.s"
    },
    {
      "template": "71",
      "type": "1",
      "x": "-96.03125",
      "z": "-2.34375",
      "y": "24.5",
      "roll": "0",
      "pitch": "0",
      "turn": "-60",
      "id": "noname",
      "script": "torch01\\Shadow_Tentacle.s"
    },
    {
      "template": "71",
      "type": "1",
      "x": "-96.03125",
      "z": "-2.34375",
      "y": "18.5",
      "roll": "0",
      "pitch": "0",
      "turn": "-60",
      "id": "noname",
      "script": "torch01\\Shadow_Tentacle.s"
    },
    {
      "template": "71",
      "type": "1",
      "x": "-85.5",
      "z": "-2.34375",
      "y": "40.96875",
      "roll": "0",
      "pitch": "0",
      "turn": "0",
      "id": "noname",
      "script": "torch01\\Shadow_Tentacle.s"
    },
    {
      "template": "71",
      "type": "1",
      "x": "-91.5",
      "z": "-1.953125",
      "y": "36.03125",
      "roll": "0",
      "pitch": "0",
      "turn": "-126",
      "id": "noname",
      "script": "torch01\\Shadow_Tentacle.s"
    },
    {
      "template": "71",
      "type": "1",
      "x": "-79.5",
      "z": "-1.953125",
      "y": "36.03125",
      "roll": "0",
      "pitch": "0",
      "turn": "-126",
      "id": "noname",
      "script": "torch01\\Shadow_Tentacle.s"
    },
    {
      "template": "71",
      "type": "1",
      "x": "-85.5",
      "z": "1.953125",
      "y": "66.96875",
      "roll": "0",
      "pitch": "0",
      "turn": "0",
      "id": "noname",
      "script": "torch01\\Shadow_Tentacle.s"
    },
    {
      "template": "71",
      "type": "1",
      "x": "-85.5",
      "z": "2.34375",
      "y": "42.03125",
      "roll": "0",
      "pitch": "0",
      "turn": "-116",
      "id": "noname",
      "script": "torch01\\Shadow_Tentacle.s"
    },
    {
      "template": "71",
      "type": "1",
      "x": "-72.03125",
      "z": "-2.34375",
      "y": "44.5",
      "roll": "0",
      "pitch": "0",
      "turn": "-60",
      "id": "noname",
      "script": "torch01\\Shadow_Tentacle.s"
    },
    {
      "template": "71",
      "type": "1",
      "x": "-72.03125",
      "z": "-2.34375",
      "y": "52.5",
      "roll": "0",
      "pitch": "0",
      "turn": "-60",
      "id": "noname",
      "script": "torch01\\Shadow_Tentacle.s"
    },
    {
      "template": "71",
      "type": "1",
      "x": "-72.03125",
      "z": "-2.34375",
      "y": "60.5",
      "roll": "0",
      "pitch": "0",
      "turn": "-60",
      "id": "noname",
      "script": "torch01\\Shadow_Tentacle.s"
    },
    {
      "template": "71",
      "type": "1",
      "x": "-72.03125",
      "z": "-2.34375",
      "y": "31.5",
      "roll": "0",
      "pitch": "0",
      "turn": "-60",
      "id": "noname",
      "script": "torch01\\Shadow_Tentacle.s"
    },
    {
      "template": "71",
      "type": "1",
      "x": "-72.03125",
      "z": "-2.34375",
      "y": "21.5",
      "roll": "0",
      "pitch": "0",
      "turn": "-60",
      "id": "noname",
      "script": "torch01\\Shadow_Tentacle.s"
    },
    {
      "template": "71",
      "type": "1",
      "x": "-72.03125",
      "z": "-2.34375",
      "y": "12.5",
      "roll": "0",
      "pitch": "0",
      "turn": "-60",
      "id": "noname",
      "script": "torch01\\Shadow_Tentacle.s"
    },
    {
      "template": "71",
      "type": "1",
      "x": "-79.5",
      "z": "-1.953125",
      "y": "5.03125",
      "roll": "0",
      "pitch": "0",
      "turn": "-126",
      "id": "noname",
      "script": "torch01\\Shadow_Tentacle.s"
    },
    {
      "template": "71",
      "type": "1",
      "x": "-104.5",
      "z": "-1.953125",
      "y": "10.03125",
      "roll": "0",
      "pitch": "0",
      "turn": "-126",
      "id": "noname",
      "script": "torch01\\Shadow_Tentacle.s"
    },
    {
      "template": "71",
      "type": "1",
      "x": "-93.5",
      "z": "-1.953125",
      "y": "5.03125",
      "roll": "0",
      "pitch": "0",
      "turn": "-126",
      "id": "noname",
      "script": "torch01\\Shadow_Tentacle.s"
    },
    {
      "template": "71",
      "type": "1",
      "x": "-106.5",
      "z": "-1.953125",
      "y": "5.03125",
      "roll": "0",
      "pitch": "0",
      "turn": "-126",
      "id": "noname",
      "script": "torch01\\Shadow_Tentacle.s"
    },
    {
      "template": "71",
      "type": "1",
      "x": "-122.96875",
      "z": "-2.34375",
      "y": "80.3828125",
      "roll": "0",
      "pitch": "0",
      "turn": "65.5",
      "id": "noname",
      "script": "torch01\\Shadow_Tentacle.s"
    },
    {
      "template": "71",
      "type": "1",
      "x": "-23.5",
      "z": "2.734375",
      "y": "53.96875",
      "roll": "0",
      "pitch": "0",
      "turn": "0",
      "id": "noname",
      "script": "torch01\\Shadow_Tentacle.s"
    },
    {
      "template": "71",
      "type": "1",
      "x": "-64.5",
      "z": "2.734375",
      "y": "3.03125",
      "roll": "0",
      "pitch": "0",
      "turn": "-120.5",
      "id": "noname",
      "script": "torch01\\Shadow_Tentacle.s"
    },
    {
      "template": "71",
      "type": "1",
      "x": "-70.96875",
      "z": "2.734375",
      "y": "8.5",
      "roll": "0",
      "pitch": "0",
      "turn": "65",
      "id": "noname",
      "script": "torch01\\Shadow_Tentacle.s"
    },
    {
      "template": "71",
      "type": "1",
      "x": "-70.96875",
      "z": "2.734375",
      "y": "47.5",
      "roll": "0",
      "pitch": "0",
      "turn": "65",
      "id": "noname",
      "script": "torch01\\Shadow_Tentacle.s"
    },
    {
      "template": "71",
      "type": "1",
      "x": "-64.5",
      "z": "2.734375",
      "y": "42.03125",
      "roll": "0",
      "pitch": "0",
      "turn": "-126.5",
      "id": "noname",
      "script": "torch01\\Shadow_Tentacle.s"
    },
    {
      "template": "71",
      "type": "1",
      "x": "-51.5",
      "z": "2.734375",
      "y": "42.03125",
      "roll": "0",
      "pitch": "0",
      "turn": "-126.5",
      "id": "noname",
      "script": "torch01\\Shadow_Tentacle.s"
    },
    {
      "template": "71",
      "type": "1",
      "x": "-51.5",
      "z": "2.734375",
      "y": "40.5",
      "roll": "0",
      "pitch": "0",
      "turn": "0",
      "id": "noname",
      "script": "torch01\\Shadow_Tentacle.s"
    },
    {
      "template": "71",
      "type": "1",
      "x": "-70.96875",
      "z": "2.734375",
      "y": "34.5",
      "roll": "0",
      "pitch": "0",
      "turn": "65",
      "id": "noname",
      "script": "torch01\\Shadow_Tentacle.s"
    },
    {
      "template": "71",
      "type": "1",
      "x": "-70.96875",
      "z": "0",
      "y": "21.5",
      "roll": "0",
      "pitch": "0",
      "turn": "65",
      "id": "noname",
      "script": "torch01\\Shadow_Tentacle.s"
    },
    {
      "template": "71",
      "type": "1",
      "x": "-51.5",
      "z": "2.734375",
      "y": "16.03125",
      "roll": "0",
      "pitch": "0",
      "turn": "-126.5",
      "id": "noname",
      "script": "torch01\\Shadow_Tentacle.s"
    },
    {
      "template": "71",
      "type": "1",
      "x": "-39.5",
      "z": "2.734375",
      "y": "16.03125",
      "roll": "0",
      "pitch": "0",
      "turn": "-126.5",
      "id": "noname",
      "script": "torch01\\Shadow_Tentacle.s"
    },
    {
      "template": "71",
      "type": "1",
      "x": "-33.03125",
      "z": "2.734375",
      "y": "21.5",
      "roll": "0",
      "pitch": "0",
      "turn": "-65",
      "id": "noname",
      "script": "torch01\\Shadow_Tentacle.s"
    },
    {
      "template": "71",
      "type": "1",
      "x": "-33.03125",
      "z": "2.734375",
      "y": "34.5",
      "roll": "0",
      "pitch": "0",
      "turn": "-65",
      "id": "noname",
      "script": "torch01\\Shadow_Tentacle.s"
    },
    {
      "template": "71",
      "type": "1",
      "x": "-33.03125",
      "z": "2.734375",
      "y": "47.5",
      "roll": "0",
      "pitch": "0",
      "turn": "-65",
      "id": "noname",
      "script": "torch01\\Shadow_Tentacle.s"
    },
    {
      "template": "71",
      "type": "1",
      "x": "-70.96875",
      "z": "5.46875",
      "y": "60.5",
      "roll": "0",
      "pitch": "0",
      "turn": "60",
      "id": "noname",
      "script": "torch01\\Shadow_Tentacle.s"
    },
    {
      "template": "71",
      "type": "1",
      "x": "-64.5",
      "z": "5.46875",
      "y": "55.03125",
      "roll": "0",
      "pitch": "0",
      "turn": "-121",
      "id": "noname",
      "script": "torch01\\Shadow_Tentacle.s"
    },
    {
      "template": "71",
      "type": "1",
      "x": "-21.96875",
      "z": "2.734375",
      "y": "68.5",
      "roll": "0",
      "pitch": "0",
      "turn": "60",
      "id": "noname",
      "script": "torch01\\Shadow_Tentacle.s"
    },
    {
      "template": "71",
      "type": "1",
      "x": "-16.5",
      "z": "2.734375",
      "y": "63.03125",
      "roll": "0",
      "pitch": "0",
      "turn": "-121",
      "id": "noname",
      "script": "torch01\\Shadow_Tentacle.s"
    },
    {
      "template": "71",
      "type": "1",
      "x": "-7.03125",
      "z": "2.734375",
      "y": "68.5",
      "roll": "0",
      "pitch": "0",
      "turn": "-65",
      "id": "noname",
      "script": "torch01\\Shadow_Tentacle.s"
    },
    {
      "template": "71",
      "type": "1",
      "x": "-29.03125",
      "z": "2.734375",
      "y": "74.5",
      "roll": "0",
      "pitch": "0",
      "turn": "-63.5",
      "id": "noname",
      "script": "torch01\\Shadow_Tentacle.s"
    },
    {
      "template": "71",
      "type": "1",
      "x": "-29.03125",
      "z": "2.734375",
      "y": "66.5",
      "roll": "0",
      "pitch": "0",
      "turn": "-63.5",
      "id": "noname",
      "script": "torch01\\Shadow_Tentacle.s"
    },
    {
      "template": "71",
      "type": "1",
      "x": "-30.5",
      "z": "5.46875",
      "y": "55.03125",
      "roll": "0",
      "pitch": "0",
      "turn": "-121",
      "id": "noname",
      "script": "torch01\\Shadow_Tentacle.s"
    },
    {
      "template": "71",
      "type": "1",
      "x": "-38.5",
      "z": "2.734375",
      "y": "66.96875",
      "roll": "0",
      "pitch": "0",
      "turn": "0",
      "id": "noname",
      "script": "torch01\\Shadow_Tentacle.s"
    },
    {
      "template": "71",
      "type": "1",
      "x": "-44.96875",
      "z": "5.46875",
      "y": "60.5",
      "roll": "0",
      "pitch": "0",
      "turn": "60",
      "id": "noname",
      "script": "torch01\\Shadow_Tentacle.s"
    },
    {
      "template": "71",
      "type": "1",
      "x": "-46.03125",
      "z": "2.734375",
      "y": "60.5",
      "roll": "0",
      "pitch": "0",
      "turn": "-63.5",
      "id": "noname",
      "script": "torch01\\Shadow_Tentacle.s"
    },
    {
      "template": "71",
      "type": "1",
      "x": "-33.03125",
      "z": "2.734375",
      "y": "73.5",
      "roll": "0",
      "pitch": "0",
      "turn": "-63.5",
      "id": "noname",
      "script": "torch01\\Shadow_Tentacle.s"
    },
    {
      "template": "71",
      "type": "1",
      "x": "-44.96875",
      "z": "5.46875",
      "y": "75.5",
      "roll": "0",
      "pitch": "0",
      "turn": "60",
      "id": "noname",
      "script": "torch01\\Shadow_Tentacle.s"
    },
    {
      "template": "71",
      "type": "1",
      "x": "-51.5",
      "z": "2.734375",
      "y": "79.96875",
      "roll": "0",
      "pitch": "0",
      "turn": "0",
      "id": "noname",
      "script": "torch01\\Shadow_Tentacle.s"
    },
    {
      "template": "71",
      "type": "1",
      "x": "-57.96875",
      "z": "5.46875",
      "y": "71.5",
      "roll": "0",
      "pitch": "0",
      "turn": "60",
      "id": "noname",
      "script": "torch01\\Shadow_Tentacle.s"
    },
    {
      "template": "71",
      "type": "1",
      "x": "-65.5",
      "z": "2.34375",
      "y": "70.96875",
      "roll": "0",
      "pitch": "0",
      "turn": "0",
      "id": "noname",
      "script": "torch01\\Shadow_Tentacle.s"
    },
    {
      "template": "71",
      "type": "1",
      "x": "-73.5",
      "z": "-1.953125",
      "y": "70.96875",
      "roll": "0",
      "pitch": "0",
      "turn": "0",
      "id": "noname",
      "script": "torch01\\Shadow_Tentacle.s"
    },
    {
      "template": "71",
      "type": "1",
      "x": "-80.5",
      "z": "-1.953125",
      "y": "70.96875",
      "roll": "0",
      "pitch": "0",
      "turn": "0",
      "id": "noname",
      "script": "torch01\\Shadow_Tentacle.s"
    },
    {
      "template": "71",
      "type": "1",
      "x": "-89.5",
      "z": "-1.953125",
      "y": "70.96875",
      "roll": "0",
      "pitch": "0",
      "turn": "0",
      "id": "noname",
      "script": "torch01\\Shadow_Tentacle.s"
    },
    {
      "template": "71",
      "type": "1",
      "x": "-92.03125",
      "z": "-1.953125",
      "y": "72.96875",
      "roll": "0",
      "pitch": "0",
      "turn": "-60",
      "id": "noname",
      "script": "torch01\\Shadow_Tentacle.s"
    },
    {
      "template": "71",
      "type": "1",
      "x": "-92.03125",
      "z": "-1.953125",
      "y": "79.96875",
      "roll": "0",
      "pitch": "0",
      "turn": "-60",
      "id": "noname",
      "script": "torch01\\Shadow_Tentacle.s"
    },
    {
      "template": "71",
      "type": "1",
      "x": "-83.5",
      "z": "2.7734375",
      "y": "96.96875",
      "roll": "0",
      "pitch": "0",
      "turn": "0",
      "id": "noname",
      "script": "torch01\\Shadow_Tentacle.s"
    },
    {
      "template": "71",
      "type": "1",
      "x": "-107.5",
      "z": "-2.34375",
      "y": "87.96875",
      "roll": "0",
      "pitch": "0",
      "turn": "0",
      "id": "noname",
      "script": "torch01\\Shadow_Tentacle.s"
    },
    {
      "template": "71",
      "type": "1",
      "x": "-122.96875",
      "z": "-1.953125",
      "y": "90.5",
      "roll": "0",
      "pitch": "0",
      "turn": "65",
      "id": "noname",
      "script": "torch01\\Shadow_Tentacle.s"
    },
    {
      "template": "71",
      "type": "1",
      "x": "-122.96875",
      "z": "2.734375",
      "y": "98.5",
      "roll": "0",
      "pitch": "0",
      "turn": "65",
      "id": "noname",
      "script": "torch01\\Shadow_Tentacle.s"
    },
    {
      "template": "71",
      "type": "1",
      "x": "-2.03125",
      "z": "2.734375",
      "y": "86.5",
      "roll": "0",
      "pitch": "0",
      "turn": "-65",
      "id": "noname",
      "script": "torch01\\Shadow_Tentacle.s"
    },
    {
      "template": "71",
      "type": "1",
      "x": "-2.03125",
      "z": "2.734375",
      "y": "95.5",
      "roll": "0",
      "pitch": "0",
      "turn": "-65",
      "id": "noname",
      "script": "torch01\\Shadow_Tentacle.s"
    },
    {
      "template": "71",
      "type": "1",
      "x": "-2.03125",
      "z": "3.125",
      "y": "117.4609375",
      "roll": "0",
      "pitch": "0",
      "turn": "-61",
      "id": "noname",
      "script": "torch01\\Shadow_Tentacle.s"
    },
    {
      "template": "71",
      "type": "1",
      "x": "-9.5",
      "z": "3.125",
      "y": "125.96875",
      "roll": "0",
      "pitch": "0",
      "turn": "9",
      "id": "noname",
      "script": "torch01\\Shadow_Tentacle.s"
    },
    {
      "template": "71",
      "type": "1",
      "x": "-15.96875",
      "z": "3.125",
      "y": "121.890625",
      "roll": "0",
      "pitch": "0",
      "turn": "70",
      "id": "noname",
      "script": "torch01\\Shadow_Tentacle.s"
    },
    {
      "template": "71",
      "type": "1",
      "x": "-9.5",
      "z": "3.125",
      "y": "110.03125",
      "roll": "0",
      "pitch": "0",
      "turn": "-121",
      "id": "noname",
      "script": "torch01\\Shadow_Tentacle.s"
    },
    {
      "template": "71",
      "type": "1",
      "x": "-112.96875",
      "z": "2.734375",
      "y": "115.5",
      "roll": "0",
      "pitch": "0",
      "turn": "65",
      "id": "noname",
      "script": "torch01\\Shadow_Tentacle.s"
    },
    {
      "template": "71",
      "type": "1",
      "x": "-117.5",
      "z": "2.734375",
      "y": "106.03125",
      "roll": "0",
      "pitch": "0",
      "turn": "-123",
      "id": "noname",
      "script": "torch01\\Shadow_Tentacle.s"
    },
    {
      "template": "71",
      "type": "1",
      "x": "-125.9921875",
      "z": "2.734375",
      "y": "114.5",
      "roll": "0",
      "pitch": "0",
      "turn": "60",
      "id": "noname",
      "script": "torch01\\Shadow_Tentacle.s"
    },
    {
      "template": "71",
      "type": "1",
      "x": "-117.5",
      "z": "2.734375",
      "y": "125.96875",
      "roll": "0",
      "pitch": "0",
      "turn": "0",
      "id": "noname",
      "script": "torch01\\Shadow_Tentacle.s"
    },
    {
      "template": "71",
      "type": "1",
      "x": "-102.5",
      "z": "2.734375",
      "y": "118.96875",
      "roll": "0",
      "pitch": "0",
      "turn": "0",
      "id": "noname",
      "script": "torch01\\Shadow_Tentacle.s"
    },
    {
      "template": "71",
      "type": "1",
      "x": "-89.5",
      "z": "2.734375",
      "y": "118.96875",
      "roll": "0",
      "pitch": "0",
      "turn": "0",
      "id": "noname",
      "script": "torch01\\Shadow_Tentacle.s"
    },
    {
      "template": "71",
      "type": "1",
      "x": "-72.5",
      "z": "2.734375",
      "y": "125.96875",
      "roll": "0",
      "pitch": "0",
      "turn": "0",
      "id": "noname",
      "script": "torch01\\Shadow_Tentacle.s"
    },
    {
      "template": "71",
      "type": "1",
      "x": "-72.5",
      "z": "2.734375",
      "y": "106.03125",
      "roll": "0",
      "pitch": "0",
      "turn": "-123",
      "id": "noname",
      "script": "torch01\\Shadow_Tentacle.s"
    },
    {
      "template": "71",
      "type": "1",
      "x": "-83.5",
      "z": "2.734375",
      "y": "102.03125",
      "roll": "0",
      "pitch": "0",
      "turn": "-123",
      "id": "noname",
      "script": "torch01\\Shadow_Tentacle.s"
    },
    {
      "template": "71",
      "type": "1",
      "x": "-66.5",
      "z": "2.734375",
      "y": "102.03125",
      "roll": "0",
      "pitch": "0",
      "turn": "-123",
      "id": "noname",
      "script": "torch01\\Shadow_Tentacle.s"
    },
    {
      "template": "71",
      "type": "1",
      "x": "-56.5",
      "z": "2.734375",
      "y": "118.96875",
      "roll": "0",
      "pitch": "0",
      "turn": "0",
      "id": "noname",
      "script": "torch01\\Shadow_Tentacle.s"
    },
    {
      "template": "71",
      "type": "1",
      "x": "-55.5",
      "z": "2.734375",
      "y": "114.96875",
      "roll": "0",
      "pitch": "0",
      "turn": "0",
      "id": "noname",
      "script": "torch01\\Shadow_Tentacle.s"
    },
    {
      "template": "71",
      "type": "1",
      "x": "-39.5",
      "z": "2.734375",
      "y": "106.03125",
      "roll": "0",
      "pitch": "0",
      "turn": "-123",
      "id": "noname",
      "script": "torch01\\Shadow_Tentacle.s"
    },
    {
      "template": "71",
      "type": "1",
      "x": "-49.5",
      "z": "2.734375",
      "y": "102.03125",
      "roll": "0",
      "pitch": "0",
      "turn": "-123",
      "id": "noname",
      "script": "torch01\\Shadow_Tentacle.s"
    },
    {
      "template": "71",
      "type": "1",
      "x": "-34.5",
      "z": "2.734375",
      "y": "102.03125",
      "roll": "0",
      "pitch": "0",
      "turn": "-123",
      "id": "noname",
      "script": "torch01\\Shadow_Tentacle.s"
    },
    {
      "template": "71",
      "type": "1",
      "x": "-18.5",
      "z": "2.734375",
      "y": "102.03125",
      "roll": "0",
      "pitch": "0",
      "turn": "-123",
      "id": "noname",
      "script": "torch01\\Shadow_Tentacle.s"
    },
    {
      "template": "71",
      "type": "1",
      "x": "-9.5",
      "z": "2.734375",
      "y": "108.96875",
      "roll": "0",
      "pitch": "0",
      "turn": "0",
      "id": "noname",
      "script": "torch01\\Shadow_Tentacle.s"
    },
    {
      "template": "71",
      "type": "1",
      "x": "-2.03125",
      "z": "2.734375",
      "y": "104.5",
      "roll": "0",
      "pitch": "0",
      "turn": "-60",
      "id": "noname",
      "script": "torch01\\Shadow_Tentacle.s"
    },
    {
      "template": "71",
      "type": "1",
      "x": "-39.5",
      "z": "2.734375",
      "y": "125.96875",
      "roll": "0",
      "pitch": "0",
      "turn": "0",
      "id": "noname",
      "script": "torch01\\Shadow_Tentacle.s"
    },
    {
      "template": "71",
      "type": "1",
      "x": "-22.5",
      "z": "2.734375",
      "y": "114.96875",
      "roll": "0",
      "pitch": "0",
      "turn": "0",
      "id": "noname",
      "script": "torch01\\Shadow_Tentacle.s"
    },
    {
      "template": "71",
      "type": "1",
      "x": "-22.5",
      "z": "2.734375",
      "y": "116.03125",
      "roll": "0",
      "pitch": "0",
      "turn": "-123",
      "id": "noname",
      "script": "torch01\\Shadow_Tentacle.s"
    },
    {
      "template": "8",
      "type": "11",
      "x": "-56.96875",
      "z": "0.546875",
      "y": "105.5",
      "roll": "0",
      "pitch": "0",
      "turn": "126",
      "id": "noname",
      "script": "door.s"
    },
    {
      "template": "8",
      "type": "11",
      "x": "-23.96875",
      "z": "0.546875",
      "y": "105.5",
      "roll": "0",
      "pitch": "0",
      "turn": "126",
      "id": "noname",
      "script": "door.s"
    },
    {
      "template": "8",
      "type": "11",
      "x": "-20.5",
      "z": "0.5859375",
      "y": "87.03125",
      "roll": "0",
      "pitch": "0",
      "turn": "-65",
      "id": "noname",
      "script": "door.s"
    },
    {
      "template": "8",
      "type": "11",
      "x": "-9.96875",
      "z": "0.5859375",
      "y": "93.5",
      "roll": "0",
      "pitch": "0",
      "turn": "126.5",
      "id": "door12",
      "script": "lockeddoor.s"
    },
    {
      "template": "313",
      "type": "8",
      "x": "-112.234375",
      "z": "-2.7734375",
      "y": "80.5",
      "roll": "0",
      "pitch": "0",
      "turn": "0",
      "id": "Chest",
      "script": "crypt1\\rt_c.s"
    },
    {
      "template": "313",
      "type": "8",
      "x": "-104.234375",
      "z": "-2.7734375",
      "y": "80.5",
      "roll": "0",
      "pitch": "0",
      "turn": "0",
      "id": "sarc_a",
      "script": "crypt2\\Sarc_Entity.s"
    },
    {
      "template": "313",
      "type": "8",
      "x": "-109.5",
      "z": "-2.7734375",
      "y": "59.9375",
      "roll": "0",
      "pitch": "0",
      "turn": "0",
      "id": "sarc_f",
      "script": "crypt2\\Sarc_Entity.s"
    },
    {
      "template": "313",
      "type": "8",
      "x": "-101.15625",
      "z": "-2.7734375",
      "y": "65.1484375",
      "roll": "0",
      "pitch": "0",
      "turn": "0",
      "id": "sarc_d",
      "script": "crypt2\\Sarc_Entity.s"
    },
    {
      "template": "313",
      "type": "8",
      "x": "-104.2421875",
      "z": "-2.7734375",
      "y": "68.3046875",
      "roll": "0",
      "pitch": "0",
      "turn": "-60",
      "id": "sarc_e",
      "script": "crypt1\\rt_c.s"
    },
    {
      "template": "313",
      "type": "8",
      "x": "-98.2109375",
      "z": "-2.7734375",
      "y": "68.109375",
      "roll": "0",
      "pitch": "0",
      "turn": "65",
      "id": "sarc_c",
      "script": "crypt2\\Sarc_Entity.s"
    },
    {
      "template": "313",
      "type": "8",
      "x": "-111.1015625",
      "z": "-3.0078125",
      "y": "45.3828125",
      "roll": "0",
      "pitch": "0",
      "turn": "0",
      "id": "sarc_i",
      "script": "sarc2\\Sarc_Entity.s"
    },
    {
      "template": "313",
      "type": "8",
      "x": "-110.015625",
      "z": "-3.0078125",
      "y": "42.09375",
      "roll": "0",
      "pitch": "0",
      "turn": "65",
      "id": "sarc_j",
      "script": "crypt1\\rt_c.s"
    },
    {
      "template": "313",
      "type": "8",
      "x": "-101.328125",
      "z": "-3.0078125",
      "y": "45.3515625",
      "roll": "0",
      "pitch": "0",
      "turn": "0",
      "id": "sarc_g",
      "script": "crypt2\\Sarc_Entity.s"
    },
    {
      "template": "313",
      "type": "8",
      "x": "-98.3046875",
      "z": "-3.0078125",
      "y": "42.046875",
      "roll": "0",
      "pitch": "0",
      "turn": "65",
      "id": "sarc_h",
      "script": "crypt2\\Sarc_Entity.s"
    },
    {
      "template": "313",
      "type": "8",
      "x": "-107.46875",
      "z": "-3.0078125",
      "y": "35.6953125",
      "roll": "0",
      "pitch": "0",
      "turn": "0",
      "id": "sarc_n",
      "script": "crypt2\\Sarc_Entity.s"
    },
    {
      "template": "313",
      "type": "8",
      "x": "-104.140625",
      "z": "-3.0078125",
      "y": "34.75",
      "roll": "0",
      "pitch": "0",
      "turn": "65",
      "id": "sarc_m",
      "script": "crypt2\\Sarc_Entity.s"
    },
    {
      "template": "313",
      "type": "8",
      "x": "-101.4765625",
      "z": "-3.0078125",
      "y": "31.546875",
      "roll": "0",
      "pitch": "0",
      "turn": "0",
      "id": "sarc_l",
      "script": "crypt2\\Sarc_Entity.s"
    },
    {
      "template": "313",
      "type": "8",
      "x": "-102.4453125",
      "z": "-3.0078125",
      "y": "28.5390625",
      "roll": "0",
      "pitch": "0",
      "turn": "65",
      "id": "sarc_o",
      "script": "crypt2\\Sarc_Entity.s"
    },
    {
      "template": "1054",
      "type": "11",
      "x": "-33.5390625",
      "z": "1.015625",
      "y": "8.5",
      "roll": "0",
      "pitch": "0",
      "turn": "-109",
      "id": "shadowg",
      "script": "crypt2\\Brazier_Entity.s"
    },
    {
      "template": "1052",
      "type": "11",
      "x": "-20.0625",
      "z": "0",
      "y": "22.0390625",
      "roll": "0",
      "pitch": "0",
      "turn": "0",
      "id": "ped1wg",
      "script": "crypt2\\Pedestal_Entity.s"
    },
    {
      "template": "1052",
      "type": "11",
      "x": "-26.703125",
      "z": "0.0390625",
      "y": "26.78125",
      "roll": "0",
      "pitch": "0",
      "turn": "0",
      "id": "ped7wg",
      "script": "crypt2\\Pedestal_Entity.s"
    },
    {
      "template": "1052",
      "type": "11",
      "x": "-26.6484375",
      "z": "0.1171875",
      "y": "34.46875",
      "roll": "0",
      "pitch": "0",
      "turn": "0",
      "id": "ped6wg",
      "script": "crypt2\\Pedestal_Entity.s"
    },
    {
      "template": "1052",
      "type": "11",
      "x": "-20.203125",
      "z": "0.1171875",
      "y": "39.21875",
      "roll": "0",
      "pitch": "0",
      "turn": "0",
      "id": "ped5wg",
      "script": "crypt2\\Pedestal_Entity.s"
    },
    {
      "template": "1052",
      "type": "11",
      "x": "-11.8203125",
      "z": "0.1953125",
      "y": "37.4609375",
      "roll": "0",
      "pitch": "0",
      "turn": "0",
      "id": "ped4wg",
      "script": "crypt2\\Pedestal_Entity.s"
    },
    {
      "template": "1052",
      "type": "11",
      "x": "-8.2265625",
      "z": "0.1953125",
      "y": "30.453125",
      "roll": "0",
      "pitch": "0",
      "turn": "0",
      "id": "ped3wg",
      "script": "crypt2\\Pedestal_Entity.s"
    },
    {
      "template": "1052",
      "type": "11",
      "x": "-11.90625",
      "z": "0.1171875",
      "y": "23.71875",
      "roll": "0",
      "pitch": "0",
      "turn": "0",
      "id": "ped2wg",
      "script": "crypt2\\Pedestal_Entity.s"
    },
    {
      "template": "1050",
      "type": "1",
      "x": "-72.34375",
      "z": "1.2890625",
      "y": "116.125",
      "roll": "0",
      "pitch": "0",
      "turn": "0",
      "id": "noname",
      "script": "poolgookdestal_Entity.s"
    },
    {
      "template": "1050",
      "type": "1",
      "x": "-39.71875",
      "z": "1.2890625",
      "y": "115.890625",
      "roll": "0",
      "pitch": "0",
      "turn": "0",
      "id": "noname",
      "script": "poolgookdestal_Entity.s"
    },
    {
      "template": "6023",
      "type": "3",
      "x": "-17.5",
      "z": "0.2734375",
      "y": "30.5",
      "roll": "0",
      "pitch": "0",
      "turn": "0",
      "id": "stare",
      "script": "crypt2\\controller.s"
    },
    {
      "template": "1053",
      "type": "11",
      "x": "-20.1875",
      "z": "0.1171875",
      "y": "39.25",
      "roll": "0",
      "pitch": "0",
      "turn": "2",
      "id": "crys5",
      "script": "startoothtroller.s"
    },
    {
      "template": "1053",
      "type": "11",
      "x": "-26.6796875",
      "z": "0.1171875",
      "y": "34.4609375",
      "roll": "0",
      "pitch": "0",
      "turn": "0",
      "id": "crys6",
      "script": "startoothtroller.s"
    },
    {
      "template": "1053",
      "type": "11",
      "x": "-26.71875",
      "z": "0.0390625",
      "y": "26.7734375",
      "roll": "0",
      "pitch": "0",
      "turn": "0",
      "id": "crys7",
      "script": "startoothtroller.s"
    },
    {
      "template": "1053",
      "type": "11",
      "x": "-20.0703125",
      "z": "0.0390625",
      "y": "22.0078125",
      "roll": "0",
      "pitch": "0",
      "turn": "0",
      "id": "crys1",
      "script": "startoothtroller.s"
    },
    {
      "template": "1053",
      "type": "11",
      "x": "-11.890625",
      "z": "0.15625",
      "y": "23.75",
      "roll": "0",
      "pitch": "0",
      "turn": "0",
      "id": "crys2",
      "script": "startoothtroller.s"
    },
    {
      "template": "1053",
      "type": "11",
      "x": "-8.203125",
      "z": "0.1953125",
      "y": "30.4609375",
      "roll": "0",
      "pitch": "0",
      "turn": "0",
      "id": "crys3",
      "script": "startoothtroller.s"
    },
    {
      "template": "1053",
      "type": "11",
      "x": "-11.828125",
      "z": "0.1953125",
      "y": "37.484375",
      "roll": "0",
      "pitch": "0",
      "turn": "41",
      "id": "crys4",
      "script": "startoothtroller.s"
    },
    {
      "template": "8",
      "type": "11",
      "x": "-52.96875",
      "z": "0.625",
      "y": "67.5",
      "roll": "0",
      "pitch": "0",
      "turn": "-127",
      "id": "noname",
      "script": "door.s"
    },
    {
      "template": "8",
      "type": "11",
      "x": "-39.96875",
      "z": "0.625",
      "y": "54.5",
      "roll": "0",
      "pitch": "0",
      "turn": "-127",
      "id": "noname",
      "script": "door.s"
    },
    {
      "template": "8",
      "type": "11",
      "x": "-52.96875",
      "z": "0.625",
      "y": "54.5",
      "roll": "0",
      "pitch": "0",
      "turn": "-127",
      "id": "noname",
      "script": "door.s"
    },
    {
      "template": "8",
      "type": "11",
      "x": "-39.96875",
      "z": "0.5859375",
      "y": "41.421875",
      "roll": "0",
      "pitch": "0",
      "turn": "-126",
      "id": "noname",
      "script": "door.s"
    },
    {
      "template": "8",
      "type": "11",
      "x": "-39.96875",
      "z": "0.625",
      "y": "28.5",
      "roll": "0",
      "pitch": "0",
      "turn": "-127",
      "id": "noname",
      "script": "door.s"
    },
    {
      "template": "8",
      "type": "11",
      "x": "-52.96875",
      "z": "0.625",
      "y": "28.5",
      "roll": "0",
      "pitch": "0",
      "turn": "-127",
      "id": "noname",
      "script": "door.s"
    },
    {
      "template": "8",
      "type": "11",
      "x": "-45.5",
      "z": "0.546875",
      "y": "69.03125",
      "roll": "0",
      "pitch": "0",
      "turn": "-65",
      "id": "noname",
      "script": "door.s"
    },
    {
      "template": "8",
      "type": "11",
      "x": "-58.5",
      "z": "0.546875",
      "y": "60.03125",
      "roll": "0",
      "pitch": "0",
      "turn": "-65",
      "id": "noname",
      "script": "door.s"
    },
    {
      "template": "8",
      "type": "11",
      "x": "-58.5",
      "z": "0.546875",
      "y": "47.03125",
      "roll": "0",
      "pitch": "0",
      "turn": "-65",
      "id": "noname",
      "script": "door.s"
    },
    {
      "template": "8",
      "type": "11",
      "x": "-45.5",
      "z": "0.546875",
      "y": "47.03125",
      "roll": "0",
      "pitch": "0",
      "turn": "-65",
      "id": "noname",
      "script": "door.s"
    },
    {
      "template": "8",
      "type": "11",
      "x": "-32.5",
      "z": "0.546875",
      "y": "60.03125",
      "roll": "0",
      "pitch": "0",
      "turn": "-64",
      "id": "noname",
      "script": "door.s"
    },
    {
      "template": "8",
      "type": "11",
      "x": "-58.5",
      "z": "0.546875",
      "y": "78.03125",
      "roll": "0",
      "pitch": "0",
      "turn": "-65",
      "id": "noname",
      "script": "door.s"
    },
    {
      "template": "8",
      "type": "11",
      "x": "-58.5",
      "z": "0.546875",
      "y": "34.03125",
      "roll": "0",
      "pitch": "0",
      "turn": "-65",
      "id": "noname",
      "script": "door.s"
    },
    {
      "template": "8",
      "type": "11",
      "x": "-58.5",
      "z": "0.546875",
      "y": "21.03125",
      "roll": "0",
      "pitch": "0",
      "turn": "-65",
      "id": "noname",
      "script": "door.s"
    },
    {
      "template": "8",
      "type": "11",
      "x": "-45.5",
      "z": "0.546875",
      "y": "21.03125",
      "roll": "0",
      "pitch": "0",
      "turn": "-65",
      "id": "noname",
      "script": "door.s"
    },
    {
      "template": "1087",
      "type": "11",
      "x": "-58.5390625",
      "z": "2.3046875",
      "y": "8.9296875",
      "roll": "0",
      "pitch": "0",
      "turn": "61",
      "id": "skdoor",
      "script": "crypt2\\lockeddoor_sk.s"
    },
    {
      "template": "8",
      "type": "11",
      "x": "-65.96875",
      "z": "0.5859375",
      "y": "15.5",
      "roll": "0",
      "pitch": "0",
      "turn": "126",
      "id": "noname",
      "script": "door.s"
    },
    {
      "template": "8",
      "type": "11",
      "x": "-65.96875",
      "z": "0.5859375",
      "y": "28.5",
      "roll": "0",
      "pitch": "0",
      "turn": "126",
      "id": "noname",
      "script": "door.s"
    },
    {
      "template": "1055",
      "type": "11",
      "x": "-86.5",
      "z": "-0.6640625",
      "y": "10.5",
      "roll": "0",
      "pitch": "0",
      "turn": "-126",
      "id": "noname",
      "script": "glasscasekeddoor_sk.s"
    },
    {
      "template": "1055",
      "type": "11",
      "x": "-76.5390625",
      "z": "-1.0546875",
      "y": "22.5",
      "roll": "0",
      "pitch": "0",
      "turn": "-63",
      "id": "staff",
      "script": "crypt2\\Cabinet_Entity.s"
    },
    {
      "template": "313",
      "type": "8",
      "x": "-98.2421875",
      "z": "-3.1640625",
      "y": "34.875",
      "roll": "0",
      "pitch": "0",
      "turn": "-65",
      "id": "sarc_k",
      "script": "crypt2\\Sarc_Entity.s"
    },
    {
      "template": "71",
      "type": "1",
      "x": "-6.5",
      "z": "2.734375",
      "y": "83.96875",
      "roll": "0",
      "pitch": "0",
      "turn": "0",
      "id": "noname",
      "script": "torch01arc_Entity.s"
    },
    {
      "template": "71",
      "type": "1",
      "x": "-13.5",
      "z": "2.734375",
      "y": "83.96875",
      "roll": "0",
      "pitch": "0",
      "turn": "0",
      "id": "noname",
      "script": "torch01arc_Entity.s"
    },
    {
      "template": "71",
      "type": "1",
      "x": "-22.5",
      "z": "2.734375",
      "y": "83.96875",
      "roll": "0",
      "pitch": "0",
      "turn": "0",
      "id": "noname",
      "script": "torch01arc_Entity.s"
    },
    {
      "template": "71",
      "type": "1",
      "x": "-30.5",
      "z": "2.734375",
      "y": "83.96875",
      "roll": "0",
      "pitch": "0",
      "turn": "0",
      "id": "noname",
      "script": "torch01arc_Entity.s"
    },
    {
      "template": "71",
      "type": "1",
      "x": "-39.5",
      "z": "2.734375",
      "y": "83.96875",
      "roll": "0",
      "pitch": "0",
      "turn": "0",
      "id": "noname",
      "script": "torch01arc_Entity.s"
    },
    {
      "template": "71",
      "type": "1",
      "x": "-10.5",
      "z": "2.734375",
      "y": "85.5",
      "roll": "0",
      "pitch": "0",
      "turn": "0",
      "id": "noname",
      "script": "torch01arc_Entity.s"
    },
    {
      "template": "71",
      "type": "1",
      "x": "-17.03125",
      "z": "2.734375",
      "y": "88.5",
      "roll": "0",
      "pitch": "0",
      "turn": "-65",
      "id": "noname",
      "script": "torch01arc_Entity.s"
    },
    {
      "template": "71",
      "type": "1",
      "x": "-13.5",
      "z": "2.734375",
      "y": "96.96875",
      "roll": "0",
      "pitch": "0",
      "turn": "0",
      "id": "noname",
      "script": "torch01arc_Entity.s"
    },
    {
      "template": "71",
      "type": "1",
      "x": "-6.03125",
      "z": "2.734375",
      "y": "95.5234375",
      "roll": "0",
      "pitch": "0",
      "turn": "-65",
      "id": "noname",
      "script": "torch01arc_Entity.s"
    },
    {
      "template": "71",
      "type": "1",
      "x": "-25.5",
      "z": "2.734375",
      "y": "96.96875",
      "roll": "0",
      "pitch": "0",
      "turn": "0",
      "id": "noname",
      "script": "torch01arc_Entity.s"
    },
    {
      "template": "71",
      "type": "1",
      "x": "-30.890625",
      "z": "2.734375",
      "y": "88.5",
      "roll": "0",
      "pitch": "0",
      "turn": "56",
      "id": "noname",
      "script": "torch01arc_Entity.s"
    },
    {
      "template": "71",
      "type": "1",
      "x": "-32.03125",
      "z": "2.734375",
      "y": "89.5",
      "roll": "0",
      "pitch": "0",
      "turn": "-65",
      "id": "noname",
      "script": "torch01arc_Entity.s"
    },
    {
      "template": "71",
      "type": "1",
      "x": "-40.5",
      "z": "2.734375",
      "y": "96.96875",
      "roll": "0",
      "pitch": "0",
      "turn": "0",
      "id": "noname",
      "script": "torch01arc_Entity.s"
    },
    {
      "template": "71",
      "type": "1",
      "x": "-46.03125",
      "z": "2.734375",
      "y": "88.5",
      "roll": "0",
      "pitch": "0",
      "turn": "-65",
      "id": "noname",
      "script": "torch01arc_Entity.s"
    },
    {
      "template": "71",
      "type": "1",
      "x": "-57.890625",
      "z": "2.734375",
      "y": "86.5",
      "roll": "0",
      "pitch": "0",
      "turn": "65",
      "id": "noname",
      "script": "torch01arc_Entity.s"
    },
    {
      "template": "71",
      "type": "1",
      "x": "-53.5",
      "z": "2.734375",
      "y": "96.96875",
      "roll": "0",
      "pitch": "0",
      "turn": "0",
      "id": "noname",
      "script": "torch01arc_Entity.s"
    },
    {
      "template": "71",
      "type": "1",
      "x": "-66.5",
      "z": "2.734375",
      "y": "96.96875",
      "roll": "0",
      "pitch": "0",
      "turn": "0",
      "id": "noname",
      "script": "torch01arc_Entity.s"
    },
    {
      "template": "71",
      "type": "1",
      "x": "-75.5",
      "z": "2.734375",
      "y": "96.96875",
      "roll": "0",
      "pitch": "0",
      "turn": "0",
      "id": "noname",
      "script": "torch01arc_Entity.s"
    },
    {
      "template": "71",
      "type": "1",
      "x": "-59.03125",
      "z": "2.734375",
      "y": "88.5",
      "roll": "0",
      "pitch": "0",
      "turn": "-65",
      "id": "noname",
      "script": "torch01arc_Entity.s"
    },
    {
      "template": "71",
      "type": "1",
      "x": "-65.5",
      "z": "-2.34375",
      "y": "83.96875",
      "roll": "0",
      "pitch": "0",
      "turn": "0",
      "id": "noname",
      "script": "torch01arc_Entity.s"
    },
    {
      "template": "71",
      "type": "1",
      "x": "-76.5",
      "z": "-2.34375",
      "y": "83.96875",
      "roll": "0",
      "pitch": "0",
      "turn": "0",
      "id": "noname",
      "script": "torch01arc_Entity.s"
    },
    {
      "template": "71",
      "type": "1",
      "x": "-86.5",
      "z": "-2.34375",
      "y": "83.96875",
      "roll": "0",
      "pitch": "0",
      "turn": "0",
      "id": "noname",
      "script": "torch01arc_Entity.s"
    },
    {
      "template": "71",
      "type": "1",
      "x": "-89.5",
      "z": "2.734375",
      "y": "85.109375",
      "roll": "0",
      "pitch": "0",
      "turn": "126",
      "id": "noname",
      "script": "torch01arc_Entity.s"
    },
    {
      "template": "71",
      "type": "1",
      "x": "-94.5",
      "z": "2.734375",
      "y": "96.5",
      "roll": "0",
      "pitch": "0",
      "turn": "0",
      "id": "noname",
      "script": "torch01arc_Entity.s"
    },
    {
      "template": "71",
      "type": "1",
      "x": "-92.03125",
      "z": "-1.953125",
      "y": "86.5",
      "roll": "0",
      "pitch": "0",
      "turn": "-65",
      "id": "noname",
      "script": "torch01arc_Entity.s"
    },
    {
      "template": "71",
      "type": "1",
      "x": "-100.5",
      "z": "-2.34375",
      "y": "91.96875",
      "roll": "0",
      "pitch": "0",
      "turn": "0",
      "id": "noname",
      "script": "torch01arc_Entity.s"
    },
    {
      "template": "71",
      "type": "1",
      "x": "-113.5",
      "z": "-2.34375",
      "y": "91.96875",
      "roll": "0",
      "pitch": "0",
      "turn": "0",
      "id": "noname",
      "script": "torch01arc_Entity.s"
    },
    {
      "template": "71",
      "type": "1",
      "x": "-50.5",
      "z": "2.734375",
      "y": "2.03125",
      "roll": "0",
      "pitch": "0",
      "turn": "-120.5",
      "id": "noname",
      "script": "torch01arc_Entity.s"
    },
    {
      "template": "71",
      "type": "1",
      "x": "-40.5",
      "z": "2.734375",
      "y": "2.03125",
      "roll": "0",
      "pitch": "0",
      "turn": "-120.5",
      "id": "noname",
      "script": "torch01arc_Entity.s"
    },
    {
      "template": "71",
      "type": "1",
      "x": "-40.5",
      "z": "2.734375",
      "y": "14.96875",
      "roll": "0",
      "pitch": "0",
      "turn": "0",
      "id": "noname",
      "script": "torch01arc_Entity.s"
    },
    {
      "template": "71",
      "type": "1",
      "x": "-50.5",
      "z": "2.734375",
      "y": "14.96875",
      "roll": "0",
      "pitch": "0",
      "turn": "0",
      "id": "noname",
      "script": "torch01arc_Entity.s"
    },
    {
      "template": "71",
      "type": "1",
      "x": "-10.5",
      "z": "2.734375",
      "y": "4.03125",
      "roll": "0",
      "pitch": "0",
      "turn": "-120.5",
      "id": "noname",
      "script": "torch01arc_Entity.s"
    },
    {
      "template": "71",
      "type": "1",
      "x": "-22.5",
      "z": "2.734375",
      "y": "4.03125",
      "roll": "0",
      "pitch": "0",
      "turn": "-120.5",
      "id": "noname",
      "script": "torch01arc_Entity.s"
    },
    {
      "template": "71",
      "type": "1",
      "x": "-29.96875",
      "z": "2.734375",
      "y": "21.0859375",
      "roll": "0",
      "pitch": "0",
      "turn": "65",
      "id": "noname",
      "script": "torch01arc_Entity.s"
    },
    {
      "template": "71",
      "type": "1",
      "x": "-4.03125",
      "z": "2.734375",
      "y": "20.8515625",
      "roll": "0",
      "pitch": "0",
      "turn": "-65",
      "id": "noname",
      "script": "torch01arc_Entity.s"
    },
    {
      "template": "71",
      "type": "1",
      "x": "-4.03125",
      "z": "2.734375",
      "y": "36.8515625",
      "roll": "0",
      "pitch": "0",
      "turn": "-65",
      "id": "noname",
      "script": "torch01arc_Entity.s"
    },
    {
      "template": "71",
      "type": "1",
      "x": "-29.96875",
      "z": "2.734375",
      "y": "37.0859375",
      "roll": "0",
      "pitch": "0",
      "turn": "65",
      "id": "noname",
      "script": "torch01arc_Entity.s"
    },
    {
      "template": "71",
      "type": "1",
      "x": "-10.5",
      "z": "2.734375",
      "y": "53.96875",
      "roll": "0",
      "pitch": "0",
      "turn": "0",
      "id": "noname",
      "script": "torch01arc_Entity.s"
    },
    {
      "template": "71",
      "type": "1",
      "x": "-122.96875",
      "z": "-2.34375",
      "y": "68.3828125",
      "roll": "0",
      "pitch": "0",
      "turn": "65.5",
      "id": "noname",
      "script": "torch01arc_Entity.s"
    },
    {
      "template": "71",
      "type": "1",
      "x": "-122.96875",
      "z": "-2.34375",
      "y": "55.3828125",
      "roll": "0",
      "pitch": "0",
      "turn": "65.5",
      "id": "noname",
      "script": "torch01arc_Entity.s"
    },
    {
      "template": "71",
      "type": "1",
      "x": "-122.96875",
      "z": "-2.34375",
      "y": "43.3828125",
      "roll": "0",
      "pitch": "0",
      "turn": "65.5",
      "id": "noname",
      "script": "torch01arc_Entity.s"
    },
    {
      "template": "71",
      "type": "1",
      "x": "-122.96875",
      "z": "-2.34375",
      "y": "32.3828125",
      "roll": "0",
      "pitch": "0",
      "turn": "65.5",
      "id": "noname",
      "script": "torch01arc_Entity.s"
    },
    {
      "template": "71",
      "type": "1",
      "x": "-122.96875",
      "z": "-2.34375",
      "y": "22.3828125",
      "roll": "0",
      "pitch": "0",
      "turn": "65.5",
      "id": "noname",
      "script": "torch01arc_Entity.s"
    },
    {
      "template": "71",
      "type": "1",
      "x": "-125.96875",
      "z": "-2.34375",
      "y": "10.3828125",
      "roll": "0",
      "pitch": "0",
      "turn": "65.5",
      "id": "noname",
      "script": "torch01arc_Entity.s"
    },
    {
      "template": "71",
      "type": "1",
      "x": "-119.5",
      "z": "-1.953125",
      "y": "2.03125",
      "roll": "0",
      "pitch": "0",
      "turn": "-126",
      "id": "noname",
      "script": "torch01arc_Entity.s"
    },
    {
      "template": "71",
      "type": "1",
      "x": "-113.03125",
      "z": "-2.34375",
      "y": "12.5",
      "roll": "0",
      "pitch": "0",
      "turn": "-65",
      "id": "noname",
      "script": "torch01arc_Entity.s"
    },
    {
      "template": "3201",
      "type": "2",
      "x": "-83.5",
      "z": "-4.5",
      "y": "60.5",
      "roll": "0",
      "pitch": "0",
      "turn": "0",
      "id": "noname",
      "script": "monsters\\Ancestor_Ghost.s"
    },
    {
      "template": "3201",
      "type": "2",
      "x": "-83.5",
      "z": "-4.5",
      "y": "49.5",
      "roll": "0",
      "pitch": "0",
      "turn": "0",
      "id": "noname",
      "script": "monsters\\Ancestor_Ghost.s"
    },
    {
      "template": "259",
      "type": "2",
      "x": "-88.5",
      "z": "-4.5",
      "y": "55.5",
      "roll": "0",
      "pitch": "0",
      "turn": "0",
      "id": "noname",
      "script": "monsters\\Shadow_Tentacle.s"
    },
    {
      "template": "261",
      "type": "2",
      "x": "-78.5",
      "z": "-0.5",
      "y": "64.5",
      "roll": "0",
      "pitch": "0",
      "turn": "0",
      "id": "noname",
      "script": "monsters\\Shriekfloater.s"
    },
    {
      "template": "261",
      "type": "2",
      "x": "-78.5",
      "z": "-0.5",
      "y": "46.5",
      "roll": "0",
      "pitch": "0",
      "turn": "0",
      "id": "noname",
      "script": "monsters\\Shriekfloater.s"
    },
    {
      "template": "209",
      "type": "2",
      "x": "-77.5",
      "z": "-0.5",
      "y": "33.5",
      "roll": "0",
      "pitch": "0",
      "turn": "0",
      "id": "noname",
      "script": "monsters\\Arrow_Shade.s"
    },
    {
      "template": "209",
      "type": "2",
      "x": "-77.5",
      "z": "-0.5",
      "y": "12.5",
      "roll": "0",
      "pitch": "0",
      "turn": "0",
      "id": "noname",
      "script": "monsters\\Arrow_Shade.s"
    },
    {
      "template": "261",
      "type": "2",
      "x": "-89.5",
      "z": "-4.5",
      "y": "22.5",
      "roll": "0",
      "pitch": "0",
      "turn": "0",
      "id": "noname",
      "script": "monsters\\Shriekfloater.s"
    },
    {
      "template": "272",
      "type": "2",
      "x": "-82.5",
      "z": "-4.5",
      "y": "26.5",
      "roll": "0",
      "pitch": "0",
      "turn": "0",
      "id": "noname",
      "script": "monsters\\Tunnel_Wight.s"
    },
    {
      "template": "105",
      "type": "2",
      "x": "-19.5",
      "z": "0.5",
      "y": "71.5",
      "roll": "0",
      "pitch": "0",
      "turn": "0",
      "id": "noname",
      "script": "monsters\\Nightdead.s"
    },
    {
      "template": "105",
      "type": "2",
      "x": "-9.5",
      "z": "0.5",
      "y": "71.5",
      "roll": "0",
      "pitch": "0",
      "turn": "0",
      "id": "noname",
      "script": "monsters\\Nightdead.s"
    },
    {
      "template": "105",
      "type": "2",
      "x": "-13.5",
      "z": "0.5",
      "y": "69.5",
      "roll": "0",
      "pitch": "0",
      "turn": "0",
      "id": "noname",
      "script": "monsters\\Nightdead.s"
    },
    {
      "template": "105",
      "type": "2",
      "x": "-18.5",
      "z": "0.5",
      "y": "67.5",
      "roll": "0",
      "pitch": "0",
      "turn": "0",
      "id": "noname",
      "script": "monsters\\Nightdead.s"
    },
    {
      "template": "3201",
      "type": "2",
      "x": "-25.98046875",
      "z": "0.5",
      "y": "88.3359375",
      "roll": "0",
      "pitch": "0",
      "turn": "49",
      "id": "noname",
      "script": "monsters\\Ancestor_Ghost.s"
    },
    {
      "template": "209",
      "type": "2",
      "x": "-123.9375",
      "z": "-4.5",
      "y": "6.5",
      "roll": "0",
      "pitch": "0",
      "turn": "0",
      "id": "noname",
      "script": "monsters\\Arrow_Shade.s"
    },
    {
      "template": "105",
      "type": "2",
      "x": "-121.5",
      "z": "-4.5",
      "y": "15.5",
      "roll": "0",
      "pitch": "0",
      "turn": "0",
      "id": "noname",
      "script": "monsters\\Nightdead.s"
    },
    {
      "template": "105",
      "type": "2",
      "x": "-117.5",
      "z": "-4.5",
      "y": "8.5",
      "roll": "0",
      "pitch": "0",
      "turn": "-1",
      "id": "noname",
      "script": "monsters\\Nightdead.s"
    },
    {
      "template": "261",
      "type": "2",
      "x": "-115.5",
      "z": "-4.5",
      "y": "15.5",
      "roll": "0",
      "pitch": "0",
      "turn": "0",
      "id": "noname",
      "script": "monsters\\Shriekfloater.s"
    },
    {
      "template": "301",
      "type": "8",
      "x": "-52.5",
      "z": "0.1953125",
      "y": "92.109375",
      "roll": "0",
      "pitch": "0",
      "turn": "0",
      "id": "noname",
      "script": "crypt1\\rt_a.s"
    },
    {
      "template": "301",
      "type": "8",
      "x": "-47.5",
      "z": "0.3515625",
      "y": "79.109375",
      "roll": "0",
      "pitch": "0",
      "turn": "0",
      "id": "noname",
      "script": "crypt1\\rt_b.s"
    },
    {
      "template": "301",
      "type": "8",
      "x": "-64.5",
      "z": "0.234375",
      "y": "66.28125",
      "roll": "0",
      "pitch": "0",
      "turn": "0",
      "id": "noname",
      "script": "crypt1\\rt_c.s"
    },
    {
      "template": "301",
      "type": "8",
      "x": "-65.109375",
      "z": "0.3515625",
      "y": "42.71875",
      "roll": "0",
      "pitch": "0",
      "turn": "0",
      "id": "noname",
      "script": "crypt1\\rt_a.s"
    },
    {
      "template": "301",
      "type": "8",
      "x": "-52.5",
      "z": "0.2734375",
      "y": "40.28125",
      "roll": "0",
      "pitch": "0",
      "turn": "0",
      "id": "noname",
      "script": "crypt1\\rt_c.s"
    },
    {
      "template": "301",
      "type": "8",
      "x": "-14.046875",
      "z": "0.15625",
      "y": "85.890625",
      "roll": "0",
      "pitch": "0",
      "turn": "0",
      "id": "noname",
      "script": "crypt1\\rt_c.s"
    },
    {
      "template": "301",
      "type": "8",
      "x": "-11.0703125",
      "z": "0.15625",
      "y": "85.890625",
      "roll": "0",
      "pitch": "0",
      "turn": "0",
      "id": "noname",
      "script": "crypt1\\rt_b.s"
    },
    {
      "template": "301",
      "type": "8",
      "x": "-7.9140625",
      "z": "0.15625",
      "y": "85.890625",
      "roll": "0",
      "pitch": "0",
      "turn": "0",
      "id": "noname",
      "script": "crypt1\\rt_a.s"
    },
    {
      "template": "41",
      "type": "1",
      "x": "-8.5",
      "z": "0.1953125",
      "y": "50.5",
      "roll": "0",
      "pitch": "0",
      "turn": "0",
      "id": "tele1",
      "script": "teleporter.s"
    },
    {
      "template": "41",
      "type": "1",
      "x": "-9.046875",
      "z": "0.234375",
      "y": "61.5",
      "roll": "0",
      "pitch": "0",
      "turn": "8",
      "id": "tele",
      "script": "teleporter.s"
    },
    {
      "template": "4400",
      "type": "2",
      "x": "-7.109375",
      "z": "0.5",
      "y": "124.109375",
      "roll": "0",
      "pitch": "0",
      "turn": "-5",
      "id": "Pergan",
      "script": "monsters\\Pergan_Asuul_Crypt2.s"
    },
    {
      "template": "46",
      "type": "1",
      "x": "-55.96875",
      "z": "-0.8984375",
      "y": "104.5",
      "roll": "0",
      "pitch": "0",
      "turn": "0",
      "id": "noname",
      "script": "rune_personalitysuul_Crypt2.s"
    },
    {
      "template": "46",
      "type": "1",
      "x": "-22.96875",
      "z": "-0.8984375",
      "y": "104.5",
      "roll": "0",
      "pitch": "0",
      "turn": "0",
      "id": "noname",
      "script": "rune_personalitysuul_Crypt2.s"
    },
    {
      "template": "274",
      "type": "2",
      "x": "-107.5",
      "z": "2",
      "y": "100.5",
      "roll": "0",
      "pitch": "0",
      "turn": "0",
      "id": "nulle",
      "script": "nullpersonalitysuul_Crypt2.s"
    },
    {
      "template": "1",
      "type": "1",
      "x": "-6.5",
      "z": "-0.5",
      "y": "121.5",
      "roll": "0",
      "pitch": "0",
      "turn": "0",
      "id": "noname",
      "script": "EMPTY_CHESTlitysuul_Crypt2.s"
    },
    {
      "template": "1",
      "type": "1",
      "x": "-6.5",
      "z": "-0.5",
      "y": "121.5",
      "roll": "0",
      "pitch": "0",
      "turn": "0",
      "id": "noname",
      "script": "!EMPTY_CHESTitysuul_Crypt2.s"
    },
    {
      "template": "258",
      "type": "2",
      "x": "-36.5",
      "z": "1.5",
      "y": "111.5",
      "roll": "0",
      "pitch": "0",
      "turn": "0",
      "id": "noname",
      "script": "monsters\\Shadow_Ghast.s"
    },
    {
      "template": "258",
      "type": "2",
      "x": "-68.5",
      "z": "1.5",
      "y": "120.5",
      "roll": "0",
      "pitch": "0",
      "turn": "0",
      "id": "noname",
      "script": "monsters\\Shadow_Ghast.s"
    },
    {
      "template": "258",
      "type": "2",
      "x": "-75.5",
      "z": "0.25",
      "y": "112.5",
      "roll": "0",
      "pitch": "0",
      "turn": "0",
      "id": "noname",
      "script": "monsters\\Shadow_Ghast.s"
    },
    {
      "template": "105",
      "type": "2",
      "x": "-41.5",
      "z": "0.25",
      "y": "118.5",
      "roll": "0",
      "pitch": "0",
      "turn": "0",
      "id": "noname",
      "script": "monsters\\Nightdead.s"
    },
    {
      "template": "105",
      "type": "2",
      "x": "-34.5",
      "z": "0.75",
      "y": "121.5",
      "roll": "0",
      "pitch": "0",
      "turn": "0",
      "id": "noname",
      "script": "monsters\\Nightdead.s"
    },
    {
      "template": "105",
      "type": "2",
      "x": "-74.5",
      "z": "0.25",
      "y": "118.5",
      "roll": "0",
      "pitch": "0",
      "turn": "0",
      "id": "noname",
      "script": "monsters\\Nightdead.s"
    },
    {
      "template": "259",
      "type": "2",
      "x": "-41.5",
      "z": "0.25",
      "y": "113.5",
      "roll": "0",
      "pitch": "0",
      "turn": "0",
      "id": "noname",
      "script": "monsters\\Shadow_Tentacle.s"
    },
    {
      "template": "259",
      "type": "2",
      "x": "-69.5",
      "z": "0.25",
      "y": "112.5",
      "roll": "0",
      "pitch": "0",
      "turn": "0",
      "id": "noname",
      "script": "monsters\\Shadow_Tentacle.s"
    },
    {
      "template": "259",
      "type": "2",
      "x": "-78.5",
      "z": "0.75",
      "y": "122.5",
      "roll": "0",
      "pitch": "0",
      "turn": "0",
      "id": "noname",
      "script": "monsters\\Shadow_Tentacle.s"
    },
    {
      "template": "272",
      "type": "2",
      "x": "-45.5",
      "z": "0.75",
      "y": "122.5",
      "roll": "0",
      "pitch": "0",
      "turn": "0",
      "id": "noname",
      "script": "monsters\\Tunnel_Wight.s"
    },
    {
      "template": "1051",
      "type": "3",
      "x": "-11.8125",
      "z": "0.78125",
      "y": "37.5",
      "roll": "0",
      "pitch": "0",
      "turn": "0",
      "id": "noname",
      "script": "!starbaseunnel_Wight.s"
    },
    {
      "template": "1051",
      "type": "3",
      "x": "-20.1875",
      "z": "0.390625",
      "y": "39.2265625",
      "roll": "0",
      "pitch": "0",
      "turn": "0",
      "id": "noname",
      "script": "!starbaseunnel_Wight.s"
    },
    {
      "template": "1051",
      "type": "3",
      "x": "-26.6171875",
      "z": "0.390625",
      "y": "34.5",
      "roll": "0",
      "pitch": "0",
      "turn": "0",
      "id": "noname",
      "script": "!starbaseunnel_Wight.s"
    },
    {
      "template": "1051",
      "type": "3",
      "x": "-26.6953125",
      "z": "0.390625",
      "y": "26.7734375",
      "roll": "0",
      "pitch": "0",
      "turn": "0",
      "id": "noname",
      "script": "!starbaseunnel_Wight.s"
    },
    {
      "template": "1051",
      "type": "3",
      "x": "-20.0703125",
      "z": "0.390625",
      "y": "22.109375",
      "roll": "0",
      "pitch": "0",
      "turn": "0",
      "id": "noname",
      "script": "!starbaseunnel_Wight.s"
    },
    {
      "template": "1051",
      "type": "3",
      "x": "-11.890625",
      "z": "0.390625",
      "y": "23.6953125",
      "roll": "0",
      "pitch": "0",
      "turn": "0",
      "id": "noname",
      "script": "!starbaseunnel_Wight.s"
    },
    {
      "template": "1051",
      "type": "3",
      "x": "-8.1875",
      "z": "0.390625",
      "y": "30.5",
      "roll": "0",
      "pitch": "0",
      "turn": "0",
      "id": "noname",
      "script": "!starbaseunnel_Wight.s"
    }
  ]
}
