{
  "stouttp": [
    {
      "template": "922",
      "type": "2",
      "x": "-96.8046875",
      "z": "-17.04296875",
      "y": "19.3203125",
      "roll": "0",
      "pitch": "0",
      "turn": "34.5",
      "id": "noname",
      "script": "monsters\\Dire_Wolf.s"
    },
    {
      "template": "922",
      "type": "2",
      "x": "-98.9375",
      "z": "-17.0546875",
      "y": "18.5",
      "roll": "0",
      "pitch": "0",
      "turn": "0",
      "id": "noname",
      "script": "monsters\\Dire_Wolf.s"
    },
    {
      "template": "261",
      "type": "2",
      "x": "-33.5",
      "z": "-17.125",
      "y": "10.5",
      "roll": "0",
      "pitch": "0",
      "turn": "-20",
      "id": "noname",
      "script": "monsters\\Shriekfloater.s"
    },
    {
      "template": "261",
      "type": "2",
      "x": "-36.5",
      "z": "-16.65625",
      "y": "18.5",
      "roll": "0",
      "pitch": "0",
      "turn": "-65",
      "id": "noname",
      "script": "monsters\\Shriekfloater.s"
    },
    {
      "template": "261",
      "type": "2",
      "x": "-38.5",
      "z": "-17.125",
      "y": "11.5",
      "roll": "0",
      "pitch": "0",
      "turn": "-30",
      "id": "noname",
      "script": "monsters\\Shriekfloater.s"
    },
    {
      "template": "271",
      "type": "2",
      "x": "-16.5",
      "z": "-17.03125",
      "y": "22.5",
      "roll": "0",
      "pitch": "0",
      "turn": "10",
      "id": "noname",
      "script": "monsters\\Tharnblade.s"
    },
    {
      "template": "271",
      "type": "2",
      "x": "-25.5",
      "z": "-16.4375",
      "y": "22.5",
      "roll": "0",
      "pitch": "0",
      "turn": "-40",
      "id": "noname",
      "script": "monsters\\Tharnblade.s"
    },
    {
      "template": "261",
      "type": "2",
      "x": "-20.5",
      "z": "-17.125",
      "y": "28.5",
      "roll": "0",
      "pitch": "0",
      "turn": "10",
      "id": "noname",
      "script": "monsters\\Shriekfloater.s"
    },
    {
      "template": "922",
      "type": "2",
      "x": "-22.5",
      "z": "-17.125",
      "y": "58.5",
      "roll": "0",
      "pitch": "0",
      "turn": "20",
      "id": "noname",
      "script": "monsters\\Dire_Wolf.s"
    },
    {
      "template": "922",
      "type": "2",
      "x": "-36.5",
      "z": "-17.125",
      "y": "62.5",
      "roll": "0",
      "pitch": "0",
      "turn": "30",
      "id": "noname",
      "script": "monsters\\Dire_Wolf.s"
    },
    {
      "template": "922",
      "type": "2",
      "x": "-28.5",
      "z": "-15.15625",
      "y": "73.5",
      "roll": "0",
      "pitch": "0",
      "turn": "40",
      "id": "noname",
      "script": "monsters\\Dire_Wolf.s"
    },
    {
      "template": "7",
      "type": "1",
      "x": "-76.5",
      "z": "-17.9140625",
      "y": "27.5",
      "roll": "0",
      "pitch": "0",
      "turn": "0",
      "id": "noname",
      "script": "pinetreeDire_Wolf.s"
    },
    {
      "template": "7",
      "type": "1",
      "x": "-65.5",
      "z": "-17.640625",
      "y": "27.5",
      "roll": "0",
      "pitch": "0",
      "turn": "0",
      "id": "noname",
      "script": "pinetreeDire_Wolf.s"
    },
    {
      "template": "7",
      "type": "1",
      "x": "-70.5",
      "z": "-17.484375",
      "y": "36.5",
      "roll": "0",
      "pitch": "0",
      "turn": "0",
      "id": "noname",
      "script": "pinetreeDire_Wolf.s"
    },
    {
      "template": "7",
      "type": "1",
      "x": "-86.5",
      "z": "-15.921875",
      "y": "36.5",
      "roll": "0",
      "pitch": "0",
      "turn": "0",
      "id": "noname",
      "script": "pinetreeDire_Wolf.s"
    },
    {
      "template": "7",
      "type": "1",
      "x": "-59.5",
      "z": "-17.6015625",
      "y": "38.5",
      "roll": "0",
      "pitch": "0",
      "turn": "0",
      "id": "noname",
      "script": "pinetreeDire_Wolf.s"
    },
    {
      "template": "7",
      "type": "1",
      "x": "-75.5",
      "z": "-17.7578125",
      "y": "52.5",
      "roll": "0",
      "pitch": "0",
      "turn": "0",
      "id": "noname",
      "script": "pinetreeDire_Wolf.s"
    },
    {
      "template": "7",
      "type": "1",
      "x": "-91.5",
      "z": "-17.953125",
      "y": "52.5",
      "roll": "0",
      "pitch": "0",
      "turn": "0",
      "id": "noname",
      "script": "pinetreeDire_Wolf.s"
    },
    {
      "template": "7",
      "type": "1",
      "x": "-59.5",
      "z": "-17.5234375",
      "y": "56.5",
      "roll": "0",
      "pitch": "0",
      "turn": "0",
      "id": "noname",
      "script": "pinetreeDire_Wolf.s"
    },
    {
      "template": "7",
      "type": "1",
      "x": "-18.5",
      "z": "-17.09375",
      "y": "15.5",
      "roll": "0",
      "pitch": "0",
      "turn": "0",
      "id": "noname",
      "script": "pinetreeDire_Wolf.s"
    },
    {
      "template": "7",
      "type": "1",
      "x": "-15.5",
      "z": "-18.1875",
      "y": "24.5",
      "roll": "0",
      "pitch": "0",
      "turn": "0",
      "id": "noname",
      "script": "pinetreeDire_Wolf.s"
    },
    {
      "template": "7",
      "type": "1",
      "x": "-7.5",
      "z": "-17.875",
      "y": "15.5",
      "roll": "0",
      "pitch": "0",
      "turn": "0",
      "id": "noname",
      "script": "pinetreeDire_Wolf.s"
    },
    {
      "template": "7",
      "type": "1",
      "x": "-28.5",
      "z": "-17.8359375",
      "y": "11.5",
      "roll": "0",
      "pitch": "0",
      "turn": "0",
      "id": "noname",
      "script": "pinetreeDire_Wolf.s"
    },
    {
      "template": "7",
      "type": "1",
      "x": "-28.5",
      "z": "-17.484375",
      "y": "20.5",
      "roll": "0",
      "pitch": "0",
      "turn": "0",
      "id": "noname",
      "script": "pinetreeDire_Wolf.s"
    },
    {
      "template": "7",
      "type": "1",
      "x": "-38.5",
      "z": "-17.5234375",
      "y": "15.5",
      "roll": "0",
      "pitch": "0",
      "turn": "0",
      "id": "noname",
      "script": "pinetreeDire_Wolf.s"
    },
    {
      "template": "7",
      "type": "1",
      "x": "-41.5",
      "z": "-17.9140625",
      "y": "55.5",
      "roll": "0",
      "pitch": "0",
      "turn": "0",
      "id": "noname",
      "script": "pinetreeDire_Wolf.s"
    },
    {
      "template": "7",
      "type": "1",
      "x": "-28.5",
      "z": "-17.875",
      "y": "61.5",
      "roll": "0",
      "pitch": "0",
      "turn": "0",
      "id": "noname",
      "script": "pinetreeDire_Wolf.s"
    },
    {
      "template": "7",
      "type": "1",
      "x": "-28.5",
      "z": "-17.875",
      "y": "46.5",
      "roll": "0",
      "pitch": "0",
      "turn": "0",
      "id": "noname",
      "script": "pinetreeDire_Wolf.s"
    },
    {
      "template": "7",
      "type": "1",
      "x": "-16.5",
      "z": "-17.875",
      "y": "55.5",
      "roll": "0",
      "pitch": "0",
      "turn": "0",
      "id": "noname",
      "script": "pinetreeDire_Wolf.s"
    },
    {
      "template": "7",
      "type": "1",
      "x": "-15.5",
      "z": "-17.09375",
      "y": "66.5",
      "roll": "0",
      "pitch": "0",
      "turn": "0",
      "id": "noname",
      "script": "pinetreeDire_Wolf.s"
    },
    {
      "template": "7",
      "type": "1",
      "x": "-65.5",
      "z": "-17.484375",
      "y": "113.5",
      "roll": "0",
      "pitch": "0",
      "turn": "0",
      "id": "noname",
      "script": "pinetreeDire_Wolf.s"
    },
    {
      "template": "7",
      "type": "1",
      "x": "-40.5",
      "z": "-18.265625",
      "y": "76.5",
      "roll": "0",
      "pitch": "0",
      "turn": "0",
      "id": "noname",
      "script": "pinetreeDire_Wolf.s"
    },
    {
      "template": "7",
      "type": "1",
      "x": "-18.5",
      "z": "-17.09375",
      "y": "80.5",
      "roll": "0",
      "pitch": "0",
      "turn": "0",
      "id": "noname",
      "script": "pinetreeDire_Wolf.s"
    },
    {
      "template": "7",
      "type": "1",
      "x": "-50.5",
      "z": "-17.875",
      "y": "95.5",
      "roll": "0",
      "pitch": "0",
      "turn": "0",
      "id": "noname",
      "script": "pinetreeDire_Wolf.s"
    },
    {
      "template": "7",
      "type": "1",
      "x": "-62.5",
      "z": "-17.484375",
      "y": "89.5",
      "roll": "0",
      "pitch": "0",
      "turn": "0",
      "id": "noname",
      "script": "pinetreeDire_Wolf.s"
    },
    {
      "template": "7",
      "type": "1",
      "x": "-49.5",
      "z": "-17.875",
      "y": "88.5",
      "roll": "0",
      "pitch": "0",
      "turn": "0",
      "id": "noname",
      "script": "pinetreeDire_Wolf.s"
    },
    {
      "template": "7",
      "type": "1",
      "x": "-50.5",
      "z": "-18.265625",
      "y": "102.5",
      "roll": "0",
      "pitch": "0",
      "turn": "0",
      "id": "noname",
      "script": "pinetreeDire_Wolf.s"
    },
    {
      "template": "7",
      "type": "1",
      "x": "-58.5",
      "z": "-15.84375",
      "y": "101.5",
      "roll": "0",
      "pitch": "0",
      "turn": "0",
      "id": "noname",
      "script": "pinetreeDire_Wolf.s"
    },
    {
      "template": "7",
      "type": "1",
      "x": "-42.5",
      "z": "-18.265625",
      "y": "95.5",
      "roll": "0",
      "pitch": "0",
      "turn": "0",
      "id": "noname",
      "script": "pinetreeDire_Wolf.s"
    },
    {
      "template": "7",
      "type": "1",
      "x": "-30.5",
      "z": "-18.265625",
      "y": "107.5",
      "roll": "0",
      "pitch": "0",
      "turn": "0",
      "id": "noname",
      "script": "pinetreeDire_Wolf.s"
    },
    {
      "template": "7",
      "type": "1",
      "x": "-41.5",
      "z": "-17.171875",
      "y": "111.5",
      "roll": "0",
      "pitch": "0",
      "turn": "0",
      "id": "noname",
      "script": "pinetreeDire_Wolf.s"
    },
    {
      "template": "261",
      "type": "2",
      "x": "-75.9375",
      "z": "-3.875",
      "y": "75.359375",
      "roll": "0",
      "pitch": "0",
      "turn": "-4",
      "id": "noname",
      "script": "monsters\\Shriekfloater.s"
    },
    {
      "template": "261",
      "type": "2",
      "x": "-75.5",
      "z": "-3.875",
      "y": "73.5",
      "roll": "0",
      "pitch": "0",
      "turn": "106",
      "id": "noname",
      "script": "monsters\\Shriekfloater.s"
    },
    {
      "template": "261",
      "type": "2",
      "x": "-77.5",
      "z": "-3.875",
      "y": "73.890625",
      "roll": "0",
      "pitch": "0",
      "turn": "-124",
      "id": "noname",
      "script": "monsters\\Shriekfloater.s"
    },
    {
      "template": "301",
      "type": "8",
      "x": "-76.5",
      "z": "-4.375",
      "y": "77.5",
      "roll": "0",
      "pitch": "0",
      "turn": "0",
      "id": "noname",
      "script": "stouttp\\loot1.s"
    },
    {
      "template": "206",
      "type": "2",
      "x": "-36.5625",
      "z": "-17.09765625",
      "y": "111.5",
      "roll": "0",
      "pitch": "0",
      "turn": "53",
      "id": "noname",
      "script": "monsters\\Spire_Thief.s"
    },
    {
      "template": "207",
      "type": "2",
      "x": "-37.5625",
      "z": "-16.96875",
      "y": "114.375",
      "roll": "0",
      "pitch": "0",
      "turn": "94",
      "id": "noname",
      "script": "monsters\\Ace_Archer.s"
    },
    {
      "template": "300",
      "type": "8",
      "x": "-37.6875",
      "z": "-17.0625",
      "y": "112.6875",
      "roll": "0",
      "pitch": "0",
      "turn": "0",
      "id": "noname",
      "script": "stouttp\\rt_b.s"
    },
    {
      "template": "306",
      "type": "8",
      "x": "-98.5",
      "z": "-17.625",
      "y": "18.546875",
      "roll": "-55",
      "pitch": "0",
      "turn": "0",
      "id": "noname",
      "script": "stouttp\\rt_a.s"
    },
    {
      "template": "301",
      "type": "8",
      "x": "-120.5",
      "z": "-16.8125",
      "y": "7.5",
      "roll": "0",
      "pitch": "0",
      "turn": "0",
      "id": "noname",
      "script": "stouttp\\rt_c.s"
    },
    {
      "template": "270",
      "type": "2",
      "x": "-121.5",
      "z": "-15.96875",
      "y": "9.5",
      "roll": "0",
      "pitch": "0",
      "turn": "-1",
      "id": "noname",
      "script": "monsters\\Tharn_Archer.s"
    },
    {
      "template": "271",
      "type": "2",
      "x": "-117.5",
      "z": "-17.0625",
      "y": "9.5",
      "roll": "0",
      "pitch": "0",
      "turn": "-1",
      "id": "noname",
      "script": "monsters\\Tharnblade.s"
    },
    {
      "template": "261",
      "type": "2",
      "x": "-119.5",
      "z": "-17",
      "y": "11.5",
      "roll": "0",
      "pitch": "0",
      "turn": "-1",
      "id": "noname",
      "script": "monsters\\Shriekfloater.s"
    },
    {
      "template": "206",
      "type": "2",
      "x": "-110.5",
      "z": "-17.125",
      "y": "56.5",
      "roll": "0",
      "pitch": "0",
      "turn": "-45",
      "id": "noname",
      "script": "monsters\\Spire_Thief.s"
    },
    {
      "template": "206",
      "type": "2",
      "x": "-108.5",
      "z": "-17.125",
      "y": "71.5",
      "roll": "0",
      "pitch": "0",
      "turn": "-65",
      "id": "noname",
      "script": "monsters\\Spire_Thief.s"
    },
    {
      "template": "206",
      "type": "2",
      "x": "-115.5",
      "z": "-17.125",
      "y": "66.5",
      "roll": "0",
      "pitch": "0",
      "turn": "-75",
      "id": "noname",
      "script": "monsters\\Spire_Thief.s"
    },
    {
      "template": "271",
      "type": "2",
      "x": "-77.5",
      "z": "-16.96875",
      "y": "109.5",
      "roll": "0",
      "pitch": "0",
      "turn": "-124",
      "id": "noname",
      "script": "monsters\\Tharnblade.s"
    },
    {
      "template": "261",
      "type": "2",
      "x": "-70.5",
      "z": "-16.0625",
      "y": "110.5",
      "roll": "0",
      "pitch": "0",
      "turn": "122",
      "id": "noname",
      "script": "monsters\\Shriekfloater.s"
    },
    {
      "template": "300",
      "type": "8",
      "x": "-73.671875",
      "z": "-17.25",
      "y": "115.5",
      "roll": "0",
      "pitch": "0",
      "turn": "0",
      "id": "noname",
      "script": "stouttp\\rt_c.s"
    },
    {
      "template": "300",
      "type": "8",
      "x": "-117.5",
      "z": "-17.40625",
      "y": "64.5",
      "roll": "0",
      "pitch": "0",
      "turn": "0",
      "id": "noname",
      "script": "stouttp\\rt_b.s"
    },
    {
      "template": "923",
      "type": "7",
      "x": "-10.5625",
      "z": "-16.5",
      "y": "106.015625",
      "roll": "0",
      "pitch": "0",
      "turn": "-3",
      "id": "noname",
      "script": "stouttp\\EgrienStout.s"
    },
    {
      "template": "261",
      "type": "2",
      "x": "-74.5",
      "z": "-17.125",
      "y": "114.5",
      "roll": "0",
      "pitch": "0",
      "turn": "-108",
      "id": "noname",
      "script": "monsters\\Shriekfloater.s"
    },
    {
      "template": "206",
      "type": "2",
      "x": "-68.5",
      "z": "-16.9765625",
      "y": "113.9375",
      "roll": "0",
      "pitch": "0",
      "turn": "102",
      "id": "noname",
      "script": "monsters\\Spire_Thief.s"
    },
    {
      "template": "1",
      "type": "1",
      "x": "-71.5",
      "z": "-14.75",
      "y": "16.5",
      "roll": "0",
      "pitch": "0",
      "turn": "0",
      "id": "noname",
      "script": "EMPTY_CHESTre_Thief.s"
    },
    {
      "template": "1",
      "type": "1",
      "x": "-71.5",
      "z": "-14.75",
      "y": "16.5",
      "roll": "0",
      "pitch": "0",
      "turn": "0",
      "id": "noname",
      "script": "!EMPTY_CHESTe_Thief.s"
    },
    {
      "template": "75",
      "type": "1",
      "x": "-8.5",
      "z": "-16.296875",
      "y": "112.5",
      "roll": "-1",
      "pitch": "0",
      "turn": "-10",
      "id": "noname",
      "script": "grainbagESTe_Thief.s"
    },
    {
      "template": "75",
      "type": "1",
      "x": "-9.28125",
      "z": "-16.296875",
      "y": "103.5",
      "roll": "-1",
      "pitch": "0",
      "turn": "20",
      "id": "noname",
      "script": "grainbagESTe_Thief.s"
    },
    {
      "template": "75",
      "type": "1",
      "x": "-8.34375",
      "z": "-16.296875",
      "y": "104.2265625",
      "roll": "-1",
      "pitch": "0",
      "turn": "45.5",
      "id": "noname",
      "script": "grainbagESTe_Thief.s"
    },
    {
      "template": "60",
      "type": "1",
      "x": "-11.5",
      "z": "-16.21875",
      "y": "103.578125",
      "roll": "0",
      "pitch": "0",
      "turn": "-123.5",
      "id": "noname",
      "script": "cabinetESTe_Thief.s"
    },
    {
      "template": "6",
      "type": "1",
      "x": "-14.5390625",
      "z": "-16.296875",
      "y": "107.109375",
      "roll": "0",
      "pitch": "0",
      "turn": "-25",
      "id": "noname",
      "script": "barrelESTe_Thief.s"
    },
    {
      "template": "6",
      "type": "1",
      "x": "-13.6171875",
      "z": "-16.296875",
      "y": "107.5390625",
      "roll": "0",
      "pitch": "0",
      "turn": "0",
      "id": "noname",
      "script": "barrelESTe_Thief.s"
    },
    {
      "template": "6",
      "type": "1",
      "x": "-16.5",
      "z": "-16.296875",
      "y": "114.5",
      "roll": "0",
      "pitch": "0",
      "turn": "0",
      "id": "noname",
      "script": "barrelESTe_Thief.s"
    },
    {
      "template": "6",
      "type": "1",
      "x": "-14.5",
      "z": "-16.296875",
      "y": "109.5",
      "roll": "0",
      "pitch": "0",
      "turn": "0",
      "id": "noname",
      "script": "barrelESTe_Thief.s"
    },
    {
      "template": "6",
      "type": "1",
      "x": "-14.5",
      "z": "-16.296875",
      "y": "110.5",
      "roll": "0",
      "pitch": "0",
      "turn": "0",
      "id": "noname",
      "script": "barrelESTe_Thief.s"
    },
    {
      "template": "5",
      "type": "1",
      "x": "-10.5",
      "z": "-16.4921875",
      "y": "114.59375",
      "roll": "0",
      "pitch": "-60",
      "turn": "37.5",
      "id": "noname",
      "script": "bottleESTe_Thief.s"
    },
    {
      "template": "5",
      "type": "1",
      "x": "-11.5",
      "z": "-16.921875",
      "y": "114.5",
      "roll": "0",
      "pitch": "0",
      "turn": "0",
      "id": "noname",
      "script": "bottleESTe_Thief.s"
    },
    {
      "template": "5",
      "type": "1",
      "x": "-16.5",
      "z": "-16.921875",
      "y": "113.5",
      "roll": "0",
      "pitch": "0",
      "turn": "0",
      "id": "noname",
      "script": "bottleESTe_Thief.s"
    },
    {
      "template": "5",
      "type": "1",
      "x": "-14.5",
      "z": "-16.53125",
      "y": "106.109375",
      "roll": "0",
      "pitch": "57",
      "turn": "25",
      "id": "noname",
      "script": "bottleESTe_Thief.s"
    },
    {
      "template": "3",
      "type": "1",
      "x": "-13.5",
      "z": "-16.1015625",
      "y": "104.5",
      "roll": "0",
      "pitch": "0",
      "turn": "0",
      "id": "noname",
      "script": "lanternESTe_Thief.s"
    },
    {
      "template": "6",
      "type": "1",
      "x": "-18.5",
      "z": "-16.296875",
      "y": "116.5",
      "roll": "0",
      "pitch": "0",
      "turn": "0",
      "id": "noname",
      "script": "barrelESTe_Thief.s"
    }
  ]
}
