[gd_resource type="StandardMaterial3D" load_steps=2 format=3 uid="uid://b0qge1yhxmptt"]

[ext_resource type="Texture2D" uid="uid://bgxc12wqpnf3f" path="res://game/assets/textures/20_female_long_tunic.bin_tex2.tga" id="1_l8a1f"]

[resource]
albedo_texture = ExtResource("1_l8a1f")
texture_filter = 0
