[gd_resource type="StandardMaterial3D" load_steps=2 format=3 uid="uid://baqo64nvh2vpw"]

[ext_resource type="Texture2D" uid="uid://bdjge31pkbstx" path="res://game/assets/textures/20_female_long_tunic.bin_tex0.tga" id="1_i56hh"]

[resource]
albedo_color = Color(1, 0, 0, 1)
albedo_texture = ExtResource("1_i56hh")
texture_filter = 0
