[gd_scene load_steps=2 format=3 uid="uid://5g5jfuad0ty2"]

[ext_resource type="Script" path="res://game/interface/game_end_menu/game_end_menu.gd" id="1_iom16"]

[node name="game_end_menu" type="Node2D"]
script = ExtResource("1_iom16")

[node name="ColorRect" type="ColorRect" parent="."]
offset_left = 184.0
offset_top = 85.0
offset_right = 1045.0
offset_bottom = 574.0
color = Color(0.780392, 0.607843, 0.376471, 1)

[node name="contents" type="VBoxContainer" parent="."]
offset_left = 380.0
offset_top = 152.0
offset_right = 842.0
offset_bottom = 482.0

[node name="Label" type="Label" parent="contents"]
layout_mode = 2
text = "




ded

"
horizontal_alignment = 1

[node name="VBoxContainer" type="VBoxContainer" parent="contents"]
layout_mode = 2

[node name="load_game" type="Button" parent="contents/VBoxContainer"]
layout_mode = 2
text = "Load Game"

[node name="main_menu" type="Button" parent="contents/VBoxContainer"]
layout_mode = 2
text = "Return to Main Menu"

[connection signal="pressed" from="contents/VBoxContainer/load_game" to="." method="_on_load_game_pressed"]
[connection signal="pressed" from="contents/VBoxContainer/main_menu" to="." method="_on_main_menu_pressed"]
