[gd_resource type="StandardMaterial3D" load_steps=2 format=3 uid="uid://de73ppns5w1el"]

[ext_resource type="Texture2D" uid="uid://h2cwg21pscjx" path="res://game/assets/textures/22_male_long_tunic.bin_tex2.tga" id="1_uofu5"]

[resource]
albedo_texture = ExtResource("1_uofu5")
texture_filter = 0
