[gd_scene load_steps=8 format=3 uid="uid://cya4vnx4i08fr"]

[ext_resource type="Script" path="res://game/actors/characters/generic_characters/character_template/character.gd" id="1_nxx3w"]
[ext_resource type="ArrayMesh" uid="uid://be8unkhbwldat" path="res://game/assets/obj_models/22_male_long_tunic.obj" id="2_3euej"]
[ext_resource type="Texture2D" uid="uid://b01o08hpvkf6c" path="res://game/assets/textures/22_male_long_tunic.bin_tex0.tga" id="3_8d237"]
[ext_resource type="Script" path="res://game/components/character/look_towards_player.gd" id="4_opjnu"]
[ext_resource type="Script" path="res://game/components/has_dialogue/has_dialogue.gd" id="5_7ifk2"]

[sub_resource type="BoxShape3D" id="BoxShape3D_y3n38"]
size = Vector3(0.9, 2, 0.9)

[sub_resource type="StandardMaterial3D" id="StandardMaterial3D_ob067"]
albedo_texture = ExtResource("3_8d237")
texture_filter = 0

[node name="22" type="CharacterBody3D"]
script = ExtResource("1_nxx3w")
prompt = "Rogurin"

[node name="CollisionShape3D" type="CollisionShape3D" parent="."]
transform = Transform3D(1, 0, 0, 0, 1, 0, 0, 0, 1, 0.013, 1, 0)
shape = SubResource("BoxShape3D_y3n38")

[node name="idle" type="Node3D" parent="."]

[node name="frame0" type="MeshInstance3D" parent="idle"]
transform = Transform3D(-1, 0, 0, 0, 1, 0, 0, 0, 1, 0, 0, 0)
mesh = ExtResource("2_3euej")
surface_material_override/0 = SubResource("StandardMaterial3D_ob067")

[node name="face_player" type="Node" parent="."]
script = ExtResource("4_opjnu")

[node name="has_dialogue" type="Node" parent="."]
script = ExtResource("5_7ifk2")
dialogues = [1003, 1004, 1005, 1006, 1007, 1008, 1009, 1010, 1011, 1012, 1013, 1014, 1015, 1016, 1017, 1018, 1019]
